###############################################################################
#
# IAR ANSI C/C++ Compiler V8.30.1.114/W32 for ARM         10/Dec/2019  12:06:36
# Copyright 1999-2018 IAR Systems AB.
#
#    Cpu mode     =  arm
#    Endian       =  little
#    Source file  =  E:\armipc\fs\disc.c
#    Command line =  
#        -f C:\Users\Bill\AppData\Local\Temp\EW51E5.tmp (E:\armipc\fs\disc.c -D
#        DDRRAM_EXEC -D MMU_ENA -lC "E:\armipc\DDRRAM Debug\List" -o
#        "E:\armipc\DDRRAM Debug\Obj" --no_cse --no_unroll --no_inline
#        --no_code_motion --no_tbaa --no_clustering --no_scheduling --debug
#        --endian=little --cpu=ARM926EJ-S -e --fpu=None --dlib_config
#        "C:\Program Files\IAR Systems\Embedded Workbench
#        8.1\arm\inc\c\DLib_Config_Normal.h" -I E:\armipc\ -I E:\armipc\board\
#        -I E:\armipc\modules\ -I E:\armipc\lwip\include\lwip\ -I
#        E:\armipc\lwip\include\arch\ -I E:\armipc\rtos\include\ -I
#        E:\armipc\lwip\include\IPV4\lwip\ -I E:\armipc\lwip\netif\ppp\
#        --cpu_mode arm -On --use_c++_inline)
#    Locale       =  C
#    List file    =  E:\armipc\DDRRAM Debug\List\disc.lst
#    Object file  =  E:\armipc\DDRRAM Debug\Obj\disc.o
#
###############################################################################

E:\armipc\fs\disc.c
      1          /*****************************************************************************\
      2          *              efs - General purpose Embedded Filesystem library              *
      3          *          --------------------- -----------------------------------          *
      4          *                                                                             *
      5          * Filename : disc.c                                                           *
      6          * Revision : Initial developement                                             *
      7          * Description : This file contains the functions regarding the whole disc     *
      8          *               such as loading the MBR and performing read/write tests.      *
      9          *                                                                             *
     10          * This library is free software; you can redistribute it and/or               *
     11          * modify it under the terms of the GNU Lesser General Public                  *
     12          * License as published by the Free Software Foundation; either                *
     13          * version 2.1 of the License, or (at your option) any later version.          *
     14          *                                                                             *
     15          * This library is distributed in the hope that it will be useful,             *
     16          * but WITHOUT ANY WARRANTY; without even the implied warranty of              *
     17          * MERCHANTABILITY or FITNESS FOR A PARTICULAR PURPOSE.  See the GNU           *
     18          * Lesser General Public License for more details.                             *
     19          *                                                                             *
     20          *                                                    (c)2004 Lennart Yseboodt *
     21          *                                                    (c)2004 Michael De Nil   *
     22          \*****************************************************************************/
     23          
     24          /*****************************************************************************/
     25          #include "include/disc.h"
     26          /*****************************************************************************/
     27          
     28          /* ****************************************************************************  
     29           * void disc_initDisc(Disc *disc,hcInterface* source)
     30           * Description: This initialises the disc by loading the MBR and setting the
     31           * pointer to the hardware object.
     32          */

   \                                 In section .text, align 4, keep-with-next
     33          void disc_initDisc(Disc *disc,IOManager* ioman)
     34          {
   \                     disc_initDisc:
   \        0x0   0xE92D'4038        PUSH     {R3-R5,LR}
   \        0x4   0xE1B0'4000        MOVS     R4,R0
   \        0x8   0xE1B0'5001        MOVS     R5,R1
     35          	disc->ioman=ioman;
   \        0xC   0xE584'5000        STR      R5,[R4, #+0]
     36          	disc_setError(disc,DISC_NOERROR);
     37          	disc_loadMBR(disc);
   \       0x10   0xE1B0'0004        MOVS     R0,R4
   \       0x14   0x....'....        BL       disc_loadMBR
     38          }
   \       0x18   0xE8BD'8031        POP      {R0,R4,R5,PC}    ;; return
     39          /*****************************************************************************/ 
     40          esint32 ioman_findSectorInCache(IOManager *ioman, euint32 address);
     41          /* ****************************************************************************  
     42           * void disc_loadMBR(Disc *disc)
     43           * Description: This functions copies the partitiontable to the partitions field.
     44          */

   \                                 In section .text, align 4, keep-with-next
     45          void disc_loadMBR(Disc *disc)
     46          {
   \                     disc_loadMBR:
   \        0x0   0xE92D'4070        PUSH     {R4-R6,LR}
   \        0x4   0xE1B0'4000        MOVS     R4,R0
     47          	euint8 x;
     48          	euint8 *buf;
     49          	
     50          	buf=ioman_getSector(disc->ioman,LBA_ADDR_MBR,IOM_MODE_READONLY|IOM_MODE_EXP_REQ);
   \        0x8   0xE3A0'2005        MOV      R2,#+5
   \        0xC   0xE3A0'1000        MOV      R1,#+0
   \       0x10   0xE594'0000        LDR      R0,[R4, #+0]
   \       0x14   0x....'....        BL       ioman_getSector
   \       0x18   0xE1B0'5000        MOVS     R5,R0
     51          	for(x=0;x<4;x++){
   \       0x1C   0xE3A0'6000        MOV      R6,#+0
   \                     ??disc_loadMBR_0:
   \       0x20   0xE1B0'0006        MOVS     R0,R6
   \       0x24   0xE210'00FF        ANDS     R0,R0,#0xFF      ;; Zero extend
   \       0x28   0xE350'0004        CMP      R0,#+4
   \       0x2C   0xAA00'000E        BGE      ??disc_loadMBR_1
     52          		ex_getPartitionField(buf,&(disc->partitions[x]),PARTITION_TABLE_OFFSET+(x*SIZE_PARTITION_FIELD));
   \       0x30   0xE1B0'0006        MOVS     R0,R6
   \       0x34   0xE210'00FF        ANDS     R0,R0,#0xFF      ;; Zero extend
   \       0x38   0xE3A0'1010        MOV      R1,#+16
   \       0x3C   0xE3A0'20BE        MOV      R2,#+190
   \       0x40   0xE382'2F40        ORR      R2,R2,#0x100
   \       0x44   0xE022'2091        MLA      R2,R1,R0,R2
   \       0x48   0xE1B0'0006        MOVS     R0,R6
   \       0x4C   0xE210'00FF        ANDS     R0,R0,#0xFF      ;; Zero extend
   \       0x50   0xE1B0'0200        LSLS     R0,R0,#+4
   \       0x54   0xE094'0000        ADDS     R0,R4,R0
   \       0x58   0xE290'1004        ADDS     R1,R0,#+4
   \       0x5C   0xE1B0'0005        MOVS     R0,R5
   \       0x60   0x....'....        BL       ex_getPartitionField
     53          	}
   \       0x64   0xE296'6001        ADDS     R6,R6,#+1
   \       0x68   0xEAFF'FFEC        B        ??disc_loadMBR_0
     54          	ioman_releaseSector(disc->ioman,buf);
   \                     ??disc_loadMBR_1:
   \       0x6C   0xE1B0'1005        MOVS     R1,R5
   \       0x70   0xE594'0000        LDR      R0,[R4, #+0]
   \       0x74   0x....'....        BL       ioman_releaseSector
     55          }
   \       0x78   0xE8BD'8070        POP      {R4-R6,PC}       ;; return
     56          /*****************************************************************************/ 
     57          
     58          

   Maximum stack usage in bytes:

   .cstack Function
   ------- --------
      16   disc_initDisc
        16   -> disc_loadMBR
      16   disc_loadMBR
        16   -> ex_getPartitionField
        16   -> ioman_getSector
        16   -> ioman_releaseSector


   Section sizes:

   Bytes  Function/Label
   -----  --------------
      28  disc_initDisc
     124  disc_loadMBR

 
 152 bytes in section .text
 
 152 bytes of CODE memory

Errors: none
Warnings: none
