###############################################################################
#
# IAR ANSI C/C++ Compiler V8.30.1.114/W32 for ARM         10/Dec/2019  12:06:37
# Copyright 1999-2018 IAR Systems AB.
#
#    Cpu mode     =  arm
#    Endian       =  little
#    Source file  =  E:\armipc\fs\extract.c
#    Command line =  
#        -f C:\Users\Bill\AppData\Local\Temp\EW5505.tmp (E:\armipc\fs\extract.c
#        -D DDRRAM_EXEC -D MMU_ENA -lC "E:\armipc\DDRRAM Debug\List" -o
#        "E:\armipc\DDRRAM Debug\Obj" --no_cse --no_unroll --no_inline
#        --no_code_motion --no_tbaa --no_clustering --no_scheduling --debug
#        --endian=little --cpu=ARM926EJ-S -e --fpu=None --dlib_config
#        "C:\Program Files\IAR Systems\Embedded Workbench
#        8.1\arm\inc\c\DLib_Config_Normal.h" -I E:\armipc\ -I E:\armipc\board\
#        -I E:\armipc\modules\ -I E:\armipc\lwip\include\lwip\ -I
#        E:\armipc\lwip\include\arch\ -I E:\armipc\rtos\include\ -I
#        E:\armipc\lwip\include\IPV4\lwip\ -I E:\armipc\lwip\netif\ppp\
#        --cpu_mode arm -On --use_c++_inline)
#    Locale       =  C
#    List file    =  E:\armipc\DDRRAM Debug\List\extract.lst
#    Object file  =  E:\armipc\DDRRAM Debug\Obj\extract.o
#
###############################################################################

E:\armipc\fs\extract.c
      1          /*****************************************************************************\
      2          *              efs - General purpose Embedded Filesystem library              *
      3          *          --------------------- -----------------------------------          *
      4          *                                                                             *
      5          * Filename :  extract.c                                                       *
      6          * Revision :  Initial developement                                            *
      7          * Description : This file contains functions to copy structures that get      *
      8          *               corrupted when using direct memory copy                       *
      9          *                                                                             *
     10          * This library is free software; you can redistribute it and/or               *
     11          * modify it under the terms of the GNU Lesser General Public                  *
     12          * License as published by the Free Software Foundation; either                *
     13          * version 2.1 of the License, or (at your option) any later version.          *
     14          *                                                                             *
     15          * This library is distributed in the hope that it will be useful,             *
     16          * but WITHOUT ANY WARRANTY; without even the implied warranty of              *
     17          * MERCHANTABILITY or FITNESS FOR A PARTICULAR PURPOSE.  See the GNU           *
     18          * Lesser General Public License for more details.                             *
     19          *                                                                             *
     20          *                                                    (c)2005 Michael De Nil   *
     21          *                                                    (c)2005 Lennart Yseboodt *
     22          \*****************************************************************************/
     23          
     24          /*****************************************************************************/
     25          #include "include/extract.h"
     26          /*****************************************************************************/
     27          
     28          /*****************************************************************************/
     29          #ifdef BYTE_ALIGNMENT
     30          /*****************************************************************************/
     31          
     32          euint16 ex_getb16(euint8* buf,euint32 offset)
     33          {
     34          	return(ltb_end16(*((euint16*)(buf+offset))));
     35          }
     36          /*****************************************************************************/
     37          
     38          euint32 ex_getb32(euint8* buf,euint32 offset)
     39          {
     40          	return(ltb_end32(*((euint32*)(buf+offset))));
     41          }
     42          /*****************************************************************************/
     43          
     44          void ex_setb16(euint8* buf,euint32 offset,euint16 data)
     45          {
     46          	*((euint16*)(buf+offset)) = btl_end16(data);
     47          }
     48          /*****************************************************************************/
     49          
     50          void ex_setb32(euint8* buf,euint32 offset,euint32 data)
     51          {
     52          	*((euint32*)(buf+offset)) = btl_end32(data);
     53          }
     54          /*****************************************************************************/
     55          
     56          void ex_getPartitionField(euint8* buf,PartitionField* pf, euint32 offset)
     57          {
     58          	*pf=*((PartitionField*)(buf+offset));
     59          }
     60          /*****************************************************************************/
     61          
     62          void ex_setPartitionField(euint8* buf,PartitionField* pf, euint32 offset)
     63          {
     64          
     65          }
     66          /*****************************************************************************/
     67          
     68          
     69          
     70          
     71          /*****************************************************************************/
     72          /*****************************************************************************/
     73          #else
     74          /*****************************************************************************/
     75          /*****************************************************************************/
     76          
     77          
     78          

   \                                 In section .text, align 4, keep-with-next
     79          euint16 ex_getb16(euint8* buf,euint32 offset)
     80          {
     81          	return(ltb_end16(((*(buf+offset+1))<<8) + ((*(buf+offset+0))<<0)));
   \                     ex_getb16:
   \        0x0   0xE090'2001        ADDS     R2,R0,R1
   \        0x4   0xE5D2'2001        LDRB     R2,[R2, #+1]
   \        0x8   0xE7D0'0001        LDRB     R0,[R0, +R1]
   \        0xC   0xE090'0402        ADDS     R0,R0,R2, LSL #+8
   \       0x10   0xE1A0'0800        LSL      R0,R0,#+16
   \       0x14   0xE1B0'0820        LSRS     R0,R0,#+16
   \       0x18   0xE12F'FF1E        BX       LR               ;; return
     82          }
     83          /*****************************************************************************/
     84          

   \                                 In section .text, align 4, keep-with-next
     85          euint32 ex_getb32(euint8* buf,euint32 offset)
     86          {
     87          	return(ltb_end32(((euint32)buf[offset+3]<<24)+
     88          	      ((euint32)buf[offset+2]<<16)+
     89          	      ((euint32)buf[offset+1]<<8)+
     90          	      ((euint32)buf[offset+0]<<0)));
   \                     ex_getb32:
   \        0x0   0xE090'2001        ADDS     R2,R0,R1
   \        0x4   0xE5D2'2003        LDRB     R2,[R2, #+3]
   \        0x8   0xE090'3001        ADDS     R3,R0,R1
   \        0xC   0xE5D3'3002        LDRB     R3,[R3, #+2]
   \       0x10   0xE1B0'3803        LSLS     R3,R3,#+16
   \       0x14   0xE093'2C02        ADDS     R2,R3,R2, LSL #+24
   \       0x18   0xE090'3001        ADDS     R3,R0,R1
   \       0x1C   0xE5D3'3001        LDRB     R3,[R3, #+1]
   \       0x20   0xE092'2403        ADDS     R2,R2,R3, LSL #+8
   \       0x24   0xE7D0'0001        LDRB     R0,[R0, +R1]
   \       0x28   0xE090'0002        ADDS     R0,R0,R2
   \       0x2C   0xE12F'FF1E        BX       LR               ;; return
     91          }
     92          /*****************************************************************************/
     93          

   \                                 In section .text, align 4, keep-with-next
     94          void ex_setb16(euint8* buf,euint32 offset,euint16 data)
     95          {
     96          #ifdef BIG_ENDIAN
     97          	*(buf+offset+1) = data>>0;
     98          	*(buf+offset+0) = data>>8;
     99          #else
    100          	*(buf+offset+0) = data>>0;
   \                     ex_setb16:
   \        0x0   0xE7C0'2001        STRB     R2,[R0, +R1]
    101          	*(buf+offset+1) = data>>8;
   \        0x4   0xE1B0'3002        MOVS     R3,R2
   \        0x8   0xE1A0'3803        LSL      R3,R3,#+16
   \        0xC   0xE1B0'3823        LSRS     R3,R3,#+16
   \       0x10   0xE1B0'3423        LSRS     R3,R3,#+8
   \       0x14   0xE090'C001        ADDS     R12,R0,R1
   \       0x18   0xE5CC'3001        STRB     R3,[R12, #+1]
    102          #endif
    103          }
   \       0x1C   0xE12F'FF1E        BX       LR               ;; return
    104          /*****************************************************************************/
    105          

   \                                 In section .text, align 4, keep-with-next
    106          void ex_setb32(euint8* buf,euint32 offset,euint32 data)
    107          {
    108          #ifdef BIG_ENDIAN
    109          	*(buf+offset+3) = data>> 0;
    110          	*(buf+offset+2) = data>> 8;
    111          	*(buf+offset+1) = data>>16;
    112          	*(buf+offset+0) = data>>24;
    113          #else
    114          	*(buf+offset+0) = data>> 0;
   \                     ex_setb32:
   \        0x0   0xE7C0'2001        STRB     R2,[R0, +R1]
    115          	*(buf+offset+1) = data>> 8;
   \        0x4   0xE1B0'3422        LSRS     R3,R2,#+8
   \        0x8   0xE090'C001        ADDS     R12,R0,R1
   \        0xC   0xE5CC'3001        STRB     R3,[R12, #+1]
    116          	*(buf+offset+2) = data>>16;
   \       0x10   0xE1B0'3822        LSRS     R3,R2,#+16
   \       0x14   0xE090'C001        ADDS     R12,R0,R1
   \       0x18   0xE5CC'3002        STRB     R3,[R12, #+2]
    117          	*(buf+offset+3) = data>>24;
   \       0x1C   0xE1B0'3C22        LSRS     R3,R2,#+24
   \       0x20   0xE090'C001        ADDS     R12,R0,R1
   \       0x24   0xE5CC'3003        STRB     R3,[R12, #+3]
    118          #endif
    119          }
   \       0x28   0xE12F'FF1E        BX       LR               ;; return
    120          /*****************************************************************************/
    121          

   \                                 In section .text, align 4, keep-with-next
    122          void ex_getPartitionField(euint8* buf,PartitionField* pf, euint32 offset)
    123          {
   \                     ex_getPartitionField:
   \        0x0   0xE92D'4070        PUSH     {R4-R6,LR}
   \        0x4   0xE1B0'4000        MOVS     R4,R0
   \        0x8   0xE1B0'5001        MOVS     R5,R1
   \        0xC   0xE1B0'6002        MOVS     R6,R2
    124          	pf->bootFlag       = *(buf + offset);
   \       0x10   0xE7D4'0006        LDRB     R0,[R4, +R6]
   \       0x14   0xE5C5'0000        STRB     R0,[R5, #+0]
    125          	pf->CHS_begin[0]   = *(buf + offset + 1);
   \       0x18   0xE094'0006        ADDS     R0,R4,R6
   \       0x1C   0xE5D0'0001        LDRB     R0,[R0, #+1]
   \       0x20   0xE5C5'0001        STRB     R0,[R5, #+1]
    126          	pf->CHS_begin[1]   = *(buf + offset + 2);
   \       0x24   0xE094'0006        ADDS     R0,R4,R6
   \       0x28   0xE5D0'0002        LDRB     R0,[R0, #+2]
   \       0x2C   0xE5C5'0002        STRB     R0,[R5, #+2]
    127          	pf->CHS_begin[2]   = *(buf + offset + 3);
   \       0x30   0xE094'0006        ADDS     R0,R4,R6
   \       0x34   0xE5D0'0003        LDRB     R0,[R0, #+3]
   \       0x38   0xE5C5'0003        STRB     R0,[R5, #+3]
    128          	pf->type           = *(buf + offset + 4);
   \       0x3C   0xE094'0006        ADDS     R0,R4,R6
   \       0x40   0xE5D0'0004        LDRB     R0,[R0, #+4]
   \       0x44   0xE5C5'0004        STRB     R0,[R5, #+4]
    129          	pf->CHS_end[0]     = *(buf + offset + 5);
   \       0x48   0xE094'0006        ADDS     R0,R4,R6
   \       0x4C   0xE5D0'0005        LDRB     R0,[R0, #+5]
   \       0x50   0xE5C5'0005        STRB     R0,[R5, #+5]
    130          	pf->CHS_end[1]     = *(buf + offset + 6);
   \       0x54   0xE094'0006        ADDS     R0,R4,R6
   \       0x58   0xE5D0'0006        LDRB     R0,[R0, #+6]
   \       0x5C   0xE5C5'0006        STRB     R0,[R5, #+6]
    131          	pf->CHS_end[2]     = *(buf + offset + 7);
   \       0x60   0xE094'0006        ADDS     R0,R4,R6
   \       0x64   0xE5D0'0007        LDRB     R0,[R0, #+7]
   \       0x68   0xE5C5'0007        STRB     R0,[R5, #+7]
    132          	pf->LBA_begin      = ex_getb32(buf + offset,8);
   \       0x6C   0xE3A0'1008        MOV      R1,#+8
   \       0x70   0xE094'0006        ADDS     R0,R4,R6
   \       0x74   0x....'....        BL       ex_getb32
   \       0x78   0xE585'0008        STR      R0,[R5, #+8]
    133          	pf->numSectors     = ex_getb32(buf + offset,12);
   \       0x7C   0xE3A0'100C        MOV      R1,#+12
   \       0x80   0xE094'0006        ADDS     R0,R4,R6
   \       0x84   0x....'....        BL       ex_getb32
   \       0x88   0xE585'000C        STR      R0,[R5, #+12]
    134          }
   \       0x8C   0xE8BD'8070        POP      {R4-R6,PC}       ;; return
    135          /*****************************************************************************/
    136          

   \                                 In section .text, align 4, keep-with-next
    137          void ex_setPartitionField(euint8* buf,PartitionField* pf, euint32 offset)
    138          {
    139          
    140          }
   \                     ex_setPartitionField:
   \        0x0   0xE12F'FF1E        BX       LR               ;; return
    141          /*****************************************************************************/
    142          
    143          
    144          
    145          /*****************************************************************************/
    146          #endif
    147          /*****************************************************************************/
    148          

   Maximum stack usage in bytes:

   .cstack Function
   ------- --------
      16   ex_getPartitionField
        16   -> ex_getb32
       0   ex_getb16
       0   ex_getb32
       0   ex_setPartitionField
       0   ex_setb16
       0   ex_setb32


   Section sizes:

   Bytes  Function/Label
   -----  --------------
     144  ex_getPartitionField
      28  ex_getb16
      48  ex_getb32
       4  ex_setPartitionField
      32  ex_setb16
      44  ex_setb32

 
 300 bytes in section .text
 
 300 bytes of CODE memory

Errors: none
Warnings: none
