###############################################################################
#
# IAR ANSI C/C++ Compiler V8.22.1.15669/W32 for ARM       17/Apr/2018  10:16:48
# Copyright 1999-2018 IAR Systems AB.
#
#    Cpu mode     =  arm
#    Endian       =  little
#    Source file  =  E:\armipc\fs\ff_string.c
#    Command line =  
#        -f C:\Users\Bill\AppData\Local\Temp\EW2E3F.tmp
#        (E:\armipc\fs\ff_string.c -D DDRRAM_EXEC -D MMU_ENA -lC
#        "E:\armipc\DDRRAM Debug\List" -o "E:\armipc\DDRRAM Debug\Obj" --no_cse
#        --no_unroll --no_inline --no_code_motion --no_tbaa --no_clustering
#        --no_scheduling --debug --endian=little --cpu=ARM926EJ-S -e --fpu=None
#        --dlib_config "C:\Program Files\IAR Systems\Embedded Workbench
#        8.0\arm\INC\c\DLib_Config_Normal.h" -I E:\armipc\ -I E:\armipc\board\
#        -I E:\armipc\modules\ -I E:\armipc\lwip\include\lwip\ -I
#        E:\armipc\lwip\lwip\include\arch\ -I E:\armipc\rtos\include\ -I
#        E:\armipc\lwip\include\IPV4\lwip\ -I E:\armipc\lwip\netif\ppp\
#        --cpu_mode arm -On --use_c++_inline)
#    Locale       =  C
#    List file    =  E:\armipc\DDRRAM Debug\List\ff_string.lst
#    Object file  =  E:\armipc\DDRRAM Debug\Obj\ff_string.o
#
###############################################################################

E:\armipc\fs\ff_string.c
      1          /*
      2           * FreeRTOS+FAT Labs Build 160919 (C) 2016 Real Time Engineers ltd.
      3           * Authors include James Walmsley, Hein Tibosch and Richard Barry
      4           *
      5           *******************************************************************************
      6           ***** NOTE ******* NOTE ******* NOTE ******* NOTE ******* NOTE ******* NOTE ***
      7           ***                                                                         ***
      8           ***                                                                         ***
      9           ***   FREERTOS+FAT IS STILL IN THE LAB:                                     ***
     10           ***                                                                         ***
     11           ***   This product is functional and is already being used in commercial    ***
     12           ***   products.  Be aware however that we are still refining its design,    ***
     13           ***   the source code does not yet fully conform to the strict coding and   ***
     14           ***   style standards mandated by Real Time Engineers ltd., and the         ***
     15           ***   documentation and testing is not necessarily complete.                ***
     16           ***                                                                         ***
     17           ***   PLEASE REPORT EXPERIENCES USING THE SUPPORT RESOURCES FOUND ON THE    ***
     18           ***   URL: http://www.FreeRTOS.org/contact  Active early adopters may, at   ***
     19           ***   the sole discretion of Real Time Engineers Ltd., be offered versions  ***
     20           ***   under a license other than that described below.                      ***
     21           ***                                                                         ***
     22           ***                                                                         ***
     23           ***** NOTE ******* NOTE ******* NOTE ******* NOTE ******* NOTE ******* NOTE ***
     24           *******************************************************************************
     25           *
     26           * FreeRTOS+FAT can be used under two different free open source licenses.  The
     27           * license that applies is dependent on the processor on which FreeRTOS+FAT is
     28           * executed, as follows:
     29           *
     30           * If FreeRTOS+FAT is executed on one of the processors listed under the Special
     31           * License Arrangements heading of the FreeRTOS+FAT license information web
     32           * page, then it can be used under the terms of the FreeRTOS Open Source
     33           * License.  If FreeRTOS+FAT is used on any other processor, then it can be used
     34           * under the terms of the GNU General Public License V2.  Links to the relevant
     35           * licenses follow:
     36           *
     37           * The FreeRTOS+FAT License Information Page: http://www.FreeRTOS.org/fat_license
     38           * The FreeRTOS Open Source License: http://www.FreeRTOS.org/license
     39           * The GNU General Public License Version 2: http://www.FreeRTOS.org/gpl-2.0.txt
     40           *
     41           * FreeRTOS+FAT is distributed in the hope that it will be useful.  You cannot
     42           * use FreeRTOS+FAT unless you agree that you use the software 'as is'.
     43           * FreeRTOS+FAT is provided WITHOUT ANY WARRANTY; without even the implied
     44           * warranties of NON-INFRINGEMENT, MERCHANTABILITY or FITNESS FOR A PARTICULAR
     45           * PURPOSE. Real Time Engineers Ltd. disclaims all conditions and terms, be they
     46           * implied, expressed, or statutory.
     47           *
     48           * 1 tab == 4 spaces!
     49           *
     50           * http://www.FreeRTOS.org
     51           * http://www.FreeRTOS.org/plus
     52           * http://www.FreeRTOS.org/labs
     53           *
     54           */
     55          
     56          /**
     57           *	@file		ff_string.c
     58           *	@ingroup	STRING
     59           *
     60           *	@defgroup	STRING	FreeRTOS+FAT String Library
     61           *	@brief		Portable String Library for FreeRTOS+FAT
     62           *
     63           *
     64           **/
     65          
     66          #include <stdlib.h>
     67          #include <string.h>
     68          #include <ctype.h>
     69          
     70          #include "include/ff_headers.h"
     71          
     72          #if( ffconfigUNICODE_UTF16_SUPPORT != 0 )
     73          	#include <wchar.h>
     74          	#include <wctype.h>
     75          #endif
     76          
     77          /*
     78           *	These will eventually be moved into a platform independent string
     79           *	library. Which will be optional. (To allow the use of system specific versions).
     80           */
     81          
     82          #if( ffconfigUNICODE_UTF16_SUPPORT != 0 )
     83          	void FF_cstrntowcs( FF_T_WCHAR *wcsDest, const int8_t *szpSource, uint32_t ulLength )
     84          	{
     85          		while( ( *szpSource != '\0' )  && ( ulLength-- != 0 ) )
     86          		{
     87          			*( wcsDest++ ) = *( szpSource++ );
     88          		}
     89          		*wcsDest = '\0';
     90          	}
     91          #endif /* ffconfigUNICODE_UTF16_SUPPORT */
     92          /*-----------------------------------------------------------*/
     93          
     94          #if( ffconfigUNICODE_UTF16_SUPPORT != 0 )
     95          	void FF_cstrtowcs( FF_T_WCHAR *wcsDest, const int8_t *szpSource )
     96          	{
     97          		while( *szpSource != '\0' )
     98          		{
     99          			*wcsDest++ = ( FF_T_WCHAR ) *( szpSource++ );
    100          		}
    101          		*wcsDest = '\0';
    102          	}
    103          #endif /* ffconfigUNICODE_UTF16_SUPPORT */
    104          /*-----------------------------------------------------------*/
    105          
    106          #if( ffconfigUNICODE_UTF16_SUPPORT != 0 )
    107          	void FF_wcstocstr( int8_t *szpDest, const FF_T_WCHAR *wcsSource )
    108          	{
    109          		while( *wcsSource != '\0' )
    110          		{
    111          			*szpDest++ = ( int8_t )*( wcsSource++ );
    112          		}
    113          		*szpDest = '\0';
    114          	}
    115          #endif /* ffconfigUNICODE_UTF16_SUPPORT */
    116          /*-----------------------------------------------------------*/
    117          
    118          #if( ffconfigUNICODE_UTF16_SUPPORT != 0 )
    119          	void FF_wcsntocstr( int8_t *szpDest, const FF_T_WCHAR *wcsSource, uint32_t ulLength )
    120          	{
    121          		while( ( *wcsSource != '\0' ) && ( ulLength-- != 0 ) )
    122          		{
    123          			*( szpDest++ ) = ( int8_t ) *( wcsSource++ );
    124          		}
    125          		*szpDest = '\0';
    126          	}
    127          #endif /* ffconfigUNICODE_UTF16_SUPPORT */
    128          /*-----------------------------------------------------------*/
    129          
    130          /*-----------------------------------------------------------*/
    131          
    132          #if( ffconfigUNICODE_UTF16_SUPPORT != 0 )
    133          	void FF_toupper( FF_T_WCHAR *string, uint32_t ulLength )
    134          	{
    135          	uint32_t i;
    136          
    137          		for( i = 0; i < ulLength; i++ )
    138          		{
    139          			string[ i ] = towupper( string[ i ] );
    140          		}
    141          	}
    142          	/*-----------------------------------------------------------*/
    143          
    144          	void FF_tolower( FF_T_WCHAR *string, uint32_t ulLength )
    145          	{
    146          	uint32_t i;
    147          		for( i = 0; i < ulLength; i++ )
    148          		{
    149          			string[ i ] = towlower( string[ i ] );
    150          		}
    151          	}
    152          	/*-----------------------------------------------------------*/
    153          
    154          #else	/* ffconfigUNICODE_UTF16_SUPPORT */

   \                                 In section .text, align 4, keep-with-next
    155          	void FF_toupper( char *string, uint32_t ulLength )
    156          	{
    157          	uint32_t i;
    158          
    159          		for( i = 0; i < ulLength; i++ )
   \                     FF_toupper:
   \   00000000   0xE3A02000         MOV      R2,#+0
   \                     ??FF_toupper_0:
   \   00000004   0xE1520001         CMP      R2,R1
   \   00000008   0x2A00000D         BCS      ??FF_toupper_1
    160          		{
    161          			if( ( string[ i ] >= 'a' ) && ( string[ i ] <= 'z' ) )
   \   0000000C   0xE7D03002         LDRB     R3,[R0, +R2]
   \   00000010   0xE3530061         CMP      R3,#+97
   \   00000014   0xBA000005         BLT      ??FF_toupper_2
   \   00000018   0xE7D03002         LDRB     R3,[R0, +R2]
   \   0000001C   0xE353007B         CMP      R3,#+123
   \   00000020   0xAA000002         BGE      ??FF_toupper_2
    162          			{
    163          				string[ i ] -= 32;
   \   00000024   0xE7D03002         LDRB     R3,[R0, +R2]
   \   00000028   0xE2533020         SUBS     R3,R3,#+32
   \   0000002C   0xE7C03002         STRB     R3,[R0, +R2]
    164          			}
    165          			if( string[ i ] == '\0' )
   \                     ??FF_toupper_2:
   \   00000030   0xE7D03002         LDRB     R3,[R0, +R2]
   \   00000034   0xE3530000         CMP      R3,#+0
   \   00000038   0x0A000001         BEQ      ??FF_toupper_1
    166          			{
    167          				break;
    168          			}
    169          		}
   \                     ??FF_toupper_3:
   \   0000003C   0xE2922001         ADDS     R2,R2,#+1
   \   00000040   0xEAFFFFEF         B        ??FF_toupper_0
    170          	}
   \                     ??FF_toupper_1:
   \   00000044   0xE12FFF1E         BX       LR               ;; return
    171          	/*-----------------------------------------------------------*/
    172          

   \                                 In section .text, align 4, keep-with-next
    173          	void FF_tolower( char *string, uint32_t ulLength )
    174          	{
    175          	uint32_t i;
    176          
    177          		for( i = 0; i < ulLength; i++ )
   \                     FF_tolower:
   \   00000000   0xE3A02000         MOV      R2,#+0
   \                     ??FF_tolower_0:
   \   00000004   0xE1520001         CMP      R2,R1
   \   00000008   0x2A00000D         BCS      ??FF_tolower_1
    178          		{
    179          			if( ( string[ i ] >= 'A' ) && ( string[ i ] <= 'Z' ) )
   \   0000000C   0xE7D03002         LDRB     R3,[R0, +R2]
   \   00000010   0xE3530041         CMP      R3,#+65
   \   00000014   0xBA000005         BLT      ??FF_tolower_2
   \   00000018   0xE7D03002         LDRB     R3,[R0, +R2]
   \   0000001C   0xE353005B         CMP      R3,#+91
   \   00000020   0xAA000002         BGE      ??FF_tolower_2
    180          			{
    181          				string[ i ] += 32;
   \   00000024   0xE7D03002         LDRB     R3,[R0, +R2]
   \   00000028   0xE2933020         ADDS     R3,R3,#+32
   \   0000002C   0xE7C03002         STRB     R3,[R0, +R2]
    182          			}
    183          			if( string[ i ] == '\0' )
   \                     ??FF_tolower_2:
   \   00000030   0xE7D03002         LDRB     R3,[R0, +R2]
   \   00000034   0xE3530000         CMP      R3,#+0
   \   00000038   0x0A000001         BEQ      ??FF_tolower_1
    184          			{
    185          				break;
    186          			}
    187          		}
   \                     ??FF_tolower_3:
   \   0000003C   0xE2922001         ADDS     R2,R2,#+1
   \   00000040   0xEAFFFFEF         B        ??FF_tolower_0
    188          	}
   \                     ??FF_tolower_1:
   \   00000044   0xE12FFF1E         BX       LR               ;; return
    189          	/*-----------------------------------------------------------*/
    190          
    191          #endif	/* ffconfigUNICODE_UTF16_SUPPORT */
    192          
    193          
    194          /**
    195           *	@private
    196           *	@brief	Compares 2 strings for the specified length, and returns pdTRUE is they are identical
    197           *			otherwise pdFALSE is returned.
    198           *
    199           **/
    200          
    201          #if( ffconfigUNICODE_UTF16_SUPPORT == 0 )

   \                                 In section .text, align 4, keep-with-next
    202          	BaseType_t FF_strmatch( const char *str1, const char *str2, BaseType_t xLength )
    203          	{
   \                     FF_strmatch:
   \   00000000   0xE92D41F0         PUSH     {R4-R8,LR}
   \   00000004   0xE1B04000         MOVS     R4,R0
   \   00000008   0xE1B05001         MOVS     R5,R1
   \   0000000C   0xE1B06002         MOVS     R6,R2
    204          		register BaseType_t i;
    205          		register char	char1, char2;
    206          
    207          		if( xLength == 0 )
   \   00000010   0xE3560000         CMP      R6,#+0
   \   00000014   0x1A000008         BNE      ??FF_strmatch_0
    208          		{
    209          			xLength = strlen( str1 );
   \   00000018   0xE1B00004         MOVS     R0,R4
   \   0000001C   0x........         BL       strlen
   \   00000020   0xE1B06000         MOVS     R6,R0
    210          			if( xLength != ( BaseType_t )strlen( str2 ) )
   \   00000024   0xE1B00005         MOVS     R0,R5
   \   00000028   0x........         BL       strlen
   \   0000002C   0xE1560000         CMP      R6,R0
   \   00000030   0x0A000001         BEQ      ??FF_strmatch_0
    211          			{
    212          				return pdFALSE;
   \   00000034   0xE3A00000         MOV      R0,#+0
   \   00000038   0xEA000023         B        ??FF_strmatch_1
    213          			}
    214          		}
    215          
    216          		for( i = 0; i < xLength; i++ )
   \                     ??FF_strmatch_0:
   \   0000003C   0xE3A01000         MOV      R1,#+0
   \                     ??FF_strmatch_2:
   \   00000040   0xE1510006         CMP      R1,R6
   \   00000044   0xAA00001F         BGE      ??FF_strmatch_3
    217          		{
    218          			char1 = str1[ i ];
   \   00000048   0xE7D40001         LDRB     R0,[R4, +R1]
   \   0000004C   0xE1B08000         MOVS     R8,R0
    219          			char2 = str2[ i ];
   \   00000050   0xE7D50001         LDRB     R0,[R5, +R1]
   \   00000054   0xE1B07000         MOVS     R7,R0
    220          			if( ( char1 >= 'A' ) && ( char1 <= 'Z' ) )
   \   00000058   0xE1B00008         MOVS     R0,R8
   \   0000005C   0xE21000FF         ANDS     R0,R0,#0xFF      ;; Zero extend
   \   00000060   0xE3500041         CMP      R0,#+65
   \   00000064   0xBA000004         BLT      ??FF_strmatch_4
   \   00000068   0xE1B00008         MOVS     R0,R8
   \   0000006C   0xE21000FF         ANDS     R0,R0,#0xFF      ;; Zero extend
   \   00000070   0xE350005B         CMP      R0,#+91
   \   00000074   0xAA000000         BGE      ??FF_strmatch_4
    221          			{
    222          				char1 += 32;
   \   00000078   0xE2988020         ADDS     R8,R8,#+32
    223          			}
    224          			if( ( char2 >= 'A' ) && ( char2 <= 'Z' ) )
   \                     ??FF_strmatch_4:
   \   0000007C   0xE1B00007         MOVS     R0,R7
   \   00000080   0xE21000FF         ANDS     R0,R0,#0xFF      ;; Zero extend
   \   00000084   0xE3500041         CMP      R0,#+65
   \   00000088   0xBA000004         BLT      ??FF_strmatch_5
   \   0000008C   0xE1B00007         MOVS     R0,R7
   \   00000090   0xE21000FF         ANDS     R0,R0,#0xFF      ;; Zero extend
   \   00000094   0xE350005B         CMP      R0,#+91
   \   00000098   0xAA000000         BGE      ??FF_strmatch_5
    225          			{
    226          				char2 += 32;
   \   0000009C   0xE2977020         ADDS     R7,R7,#+32
    227          			}
    228          
    229          			if( char1 != char2 )
   \                     ??FF_strmatch_5:
   \   000000A0   0xE1B00008         MOVS     R0,R8
   \   000000A4   0xE1B02007         MOVS     R2,R7
   \   000000A8   0xE21000FF         ANDS     R0,R0,#0xFF      ;; Zero extend
   \   000000AC   0xE21220FF         ANDS     R2,R2,#0xFF      ;; Zero extend
   \   000000B0   0xE1500002         CMP      R0,R2
   \   000000B4   0x0A000001         BEQ      ??FF_strmatch_6
    230          			{
    231          				return pdFALSE;
   \   000000B8   0xE3A00000         MOV      R0,#+0
   \   000000BC   0xEA000002         B        ??FF_strmatch_1
    232          			}
    233          		}
   \                     ??FF_strmatch_6:
   \   000000C0   0xE2911001         ADDS     R1,R1,#+1
   \   000000C4   0xEAFFFFDD         B        ??FF_strmatch_2
    234          
    235          		return pdTRUE;
   \                     ??FF_strmatch_3:
   \   000000C8   0xE3A00001         MOV      R0,#+1
   \                     ??FF_strmatch_1:
   \   000000CC   0xE8BD81F0         POP      {R4-R8,PC}       ;; return
    236          	}
    237          #else	/* ffconfigUNICODE_UTF16_SUPPORT */
    238          	BaseType_t FF_strmatch( const FF_T_WCHAR *str1, const FF_T_WCHAR *str2, BaseType_t xLength )
    239          	{
    240          	register BaseType_t i;
    241          	register FF_T_WCHAR	char1, char2;
    242          
    243          		if( xLength == 0 )
    244          		{
    245          			xLength = wcslen( str1 );
    246          			if( xLength != wcslen( str2 ) )
    247          			{
    248          				return pdFALSE;
    249          			}
    250          		}
    251          
    252          		for( i = 0; i < xLength; i++ )
    253          		{
    254          			char1 = towlower( str1[ i ] );
    255          			char2 = towlower( str2[ i ] );
    256          			if( char1 != char2 )
    257          			{
    258          				return pdFALSE;
    259          			}
    260          		}
    261          
    262          		return pdTRUE;
    263          	}
    264          #endif	/* ffconfigUNICODE_UTF16_SUPPORT */
    265          
    266          /**
    267           *	@private
    268           *	@brief	A re-entrant Strtok function. No documentation is provided :P
    269           *			Use at your own risk. (This is for FreeRTOS+FAT's use only).
    270           **/
    271          
    272          #if( ffconfigUNICODE_UTF16_SUPPORT == 0 )

   \                                 In section .text, align 4, keep-with-next
    273          	char *FF_strtok( const char *string, char *token, uint16_t *tokenNumber, BaseType_t *last, BaseType_t xLength )
    274          	{
   \                     FF_strtok:
   \   00000000   0xE92D4FFE         PUSH     {R1-R11,LR}
   \   00000004   0xE1B04000         MOVS     R4,R0
   \   00000008   0xE1B05001         MOVS     R5,R1
   \   0000000C   0xE1B06002         MOVS     R6,R2
   \   00000010   0xE59D7030         LDR      R7,[SP, #+48]
    275          		uint16_t i,y, tokenStart, tokenEnd = 0;
   \   00000014   0xE3A08000         MOV      R8,#+0
    276          
    277          		i = 0;
   \   00000018   0xE3A0A000         MOV      R10,#+0
    278          		y = 0;
   \   0000001C   0xE3A09000         MOV      R9,#+0
    279          
    280          		if( ( string[ i ] == '\\' ) || ( string[ i ] == '/' ) )
   \   00000020   0xE1B0000A         MOVS     R0,R10
   \   00000024   0xE1A00800         LSL      R0,R0,#+16
   \   00000028   0xE1B00820         LSRS     R0,R0,#+16
   \   0000002C   0xE7D40000         LDRB     R0,[R4, +R0]
   \   00000030   0xE350005C         CMP      R0,#+92
   \   00000034   0x0A000005         BEQ      ??FF_strtok_0
   \   00000038   0xE1B0000A         MOVS     R0,R10
   \   0000003C   0xE1A00800         LSL      R0,R0,#+16
   \   00000040   0xE1B00820         LSRS     R0,R0,#+16
   \   00000044   0xE7D40000         LDRB     R0,[R4, +R0]
   \   00000048   0xE350002F         CMP      R0,#+47
   \   0000004C   0x1A000000         BNE      ??FF_strtok_1
    281          		{
    282          			i++;
   \                     ??FF_strtok_0:
   \   00000050   0xE29AA001         ADDS     R10,R10,#+1
    283          		}
    284          
    285          		tokenStart = i;
   \                     ??FF_strtok_1:
   \   00000054   0xE1B0B00A         MOVS     R11,R10
    286          
    287          		while( i < xLength )
   \                     ??FF_strtok_2:
   \   00000058   0xE1B0000A         MOVS     R0,R10
   \   0000005C   0xE1A00800         LSL      R0,R0,#+16
   \   00000060   0xE1B00820         LSRS     R0,R0,#+16
   \   00000064   0xE1500007         CMP      R0,R7
   \   00000068   0xAA00001F         BGE      ??FF_strtok_3
    288          		{
    289          			if( ( string[ i ] == '\\' ) || ( string[ i ] == '/' ) )
   \   0000006C   0xE1B0000A         MOVS     R0,R10
   \   00000070   0xE1A00800         LSL      R0,R0,#+16
   \   00000074   0xE1B00820         LSRS     R0,R0,#+16
   \   00000078   0xE7D40000         LDRB     R0,[R4, +R0]
   \   0000007C   0xE350005C         CMP      R0,#+92
   \   00000080   0x0A000005         BEQ      ??FF_strtok_4
   \   00000084   0xE1B0000A         MOVS     R0,R10
   \   00000088   0xE1A00800         LSL      R0,R0,#+16
   \   0000008C   0xE1B00820         LSRS     R0,R0,#+16
   \   00000090   0xE7D40000         LDRB     R0,[R4, +R0]
   \   00000094   0xE350002F         CMP      R0,#+47
   \   00000098   0x1A000011         BNE      ??FF_strtok_5
    290          			{
    291          				y++;
   \                     ??FF_strtok_4:
   \   0000009C   0xE2999001         ADDS     R9,R9,#+1
    292          				if( y == *tokenNumber )
   \   000000A0   0xE1B00009         MOVS     R0,R9
   \   000000A4   0xE1D610B0         LDRH     R1,[R6, #+0]
   \   000000A8   0xE1A00800         LSL      R0,R0,#+16
   \   000000AC   0xE1B00820         LSRS     R0,R0,#+16
   \   000000B0   0xE1500001         CMP      R0,R1
   \   000000B4   0x1A000001         BNE      ??FF_strtok_6
    293          				{
    294          					tokenStart = ( uint16_t )( i + 1 );
   \   000000B8   0xE29A0001         ADDS     R0,R10,#+1
   \   000000BC   0xE1B0B000         MOVS     R11,R0
    295          				}
    296          				if( y == ( *tokenNumber + 1 ) )
   \                     ??FF_strtok_6:
   \   000000C0   0xE1B00009         MOVS     R0,R9
   \   000000C4   0xE1A00800         LSL      R0,R0,#+16
   \   000000C8   0xE1B00820         LSRS     R0,R0,#+16
   \   000000CC   0xE1D610B0         LDRH     R1,[R6, #+0]
   \   000000D0   0xE2911001         ADDS     R1,R1,#+1
   \   000000D4   0xE1500001         CMP      R0,R1
   \   000000D8   0x1A000001         BNE      ??FF_strtok_5
    297          				{
    298          					tokenEnd = i;
   \   000000DC   0xE1B0800A         MOVS     R8,R10
    299          					break;
   \   000000E0   0xEA000001         B        ??FF_strtok_3
    300          				}
    301          			}
    302          			i++;
   \                     ??FF_strtok_5:
   \   000000E4   0xE29AA001         ADDS     R10,R10,#+1
   \   000000E8   0xEAFFFFDA         B        ??FF_strtok_2
    303          		}
    304          
    305          		if( tokenEnd == 0 )
   \                     ??FF_strtok_3:
   \   000000EC   0xE1B00008         MOVS     R0,R8
   \   000000F0   0xE1A00800         LSL      R0,R0,#+16
   \   000000F4   0xE1B00820         LSRS     R0,R0,#+16
   \   000000F8   0xE3500000         CMP      R0,#+0
   \   000000FC   0x1A000009         BNE      ??FF_strtok_7
    306          		{
    307          			if( *last == pdTRUE )
   \   00000100   0xE59D0008         LDR      R0,[SP, #+8]
   \   00000104   0xE5900000         LDR      R0,[R0, #+0]
   \   00000108   0xE3500001         CMP      R0,#+1
   \   0000010C   0x1A000001         BNE      ??FF_strtok_8
    308          			{
    309          				return NULL;
   \   00000110   0xE3A00000         MOV      R0,#+0
   \   00000114   0xEA000038         B        ??FF_strtok_9
    310          			}
    311          			else
    312          			{
    313          				*last = pdTRUE;
   \                     ??FF_strtok_8:
   \   00000118   0xE3A00001         MOV      R0,#+1
   \   0000011C   0xE59D1008         LDR      R1,[SP, #+8]
   \   00000120   0xE5810000         STR      R0,[R1, #+0]
    314          			}
    315          			tokenEnd = i;
   \   00000124   0xE1B0800A         MOVS     R8,R10
    316          		}
    317          		if( ( tokenEnd - tokenStart ) < ffconfigMAX_FILENAME )
   \                     ??FF_strtok_7:
   \   00000128   0xE1B00008         MOVS     R0,R8
   \   0000012C   0xE1A00800         LSL      R0,R0,#+16
   \   00000130   0xE1B00820         LSRS     R0,R0,#+16
   \   00000134   0xE1B0100B         MOVS     R1,R11
   \   00000138   0xE1A01801         LSL      R1,R1,#+16
   \   0000013C   0xE1B01821         LSRS     R1,R1,#+16
   \   00000140   0xE0500001         SUBS     R0,R0,R1
   \   00000144   0xE35000FA         CMP      R0,#+250
   \   00000148   0xAA00001A         BGE      ??FF_strtok_10
    318          		{
    319          			memcpy( token, ( string + tokenStart ), ( uint32_t )( tokenEnd - tokenStart ) );
   \   0000014C   0xE1B01008         MOVS     R1,R8
   \   00000150   0xE1A01801         LSL      R1,R1,#+16
   \   00000154   0xE1B01821         LSRS     R1,R1,#+16
   \   00000158   0xE1B0200B         MOVS     R2,R11
   \   0000015C   0xE1A02802         LSL      R2,R2,#+16
   \   00000160   0xE1B02822         LSRS     R2,R2,#+16
   \   00000164   0xE0511002         SUBS     R1,R1,R2
   \   00000168   0xE58D1004         STR      R1,[SP, #+4]
   \   0000016C   0xE1B0100B         MOVS     R1,R11
   \   00000170   0xE1A01801         LSL      R1,R1,#+16
   \   00000174   0xE1B01821         LSRS     R1,R1,#+16
   \   00000178   0xE0941001         ADDS     R1,R4,R1
   \   0000017C   0xE58D1000         STR      R1,[SP, #+0]
   \   00000180   0xE59D2004         LDR      R2,[SP, #+4]
   \   00000184   0xE59D1000         LDR      R1,[SP, #+0]
   \   00000188   0xE1B00005         MOVS     R0,R5
   \   0000018C   0x........         BL       __aeabi_memcpy
    320          			token[ tokenEnd - tokenStart ] = '\0';
   \   00000190   0xE3A00000         MOV      R0,#+0
   \   00000194   0xE1B01008         MOVS     R1,R8
   \   00000198   0xE1A01801         LSL      R1,R1,#+16
   \   0000019C   0xE1B01821         LSRS     R1,R1,#+16
   \   000001A0   0xE1B0200B         MOVS     R2,R11
   \   000001A4   0xE1A02802         LSL      R2,R2,#+16
   \   000001A8   0xE1B02822         LSRS     R2,R2,#+16
   \   000001AC   0xE0511002         SUBS     R1,R1,R2
   \   000001B0   0xE7C50001         STRB     R0,[R5, +R1]
   \   000001B4   0xEA00000C         B        ??FF_strtok_11
    321          		}
    322          		else
    323          		{
    324          			memcpy( token, ( string + tokenStart ), ( uint32_t )( ffconfigMAX_FILENAME ) );
   \                     ??FF_strtok_10:
   \   000001B8   0xE3A000FA         MOV      R0,#+250
   \   000001BC   0xE58D0004         STR      R0,[SP, #+4]
   \   000001C0   0xE1B0100B         MOVS     R1,R11
   \   000001C4   0xE1A01801         LSL      R1,R1,#+16
   \   000001C8   0xE1B01821         LSRS     R1,R1,#+16
   \   000001CC   0xE0941001         ADDS     R1,R4,R1
   \   000001D0   0xE58D1000         STR      R1,[SP, #+0]
   \   000001D4   0xE59D2004         LDR      R2,[SP, #+4]
   \   000001D8   0xE59D1000         LDR      R1,[SP, #+0]
   \   000001DC   0xE1B00005         MOVS     R0,R5
   \   000001E0   0x........         BL       __aeabi_memcpy
    325          			token[ ffconfigMAX_FILENAME - 1 ] = '\0';
   \   000001E4   0xE3A00000         MOV      R0,#+0
   \   000001E8   0xE5C500F9         STRB     R0,[R5, #+249]
    326          		}
    327          		/*token[tokenEnd - tokenStart] = '\0'; */
    328          		*tokenNumber += 1;
   \                     ??FF_strtok_11:
   \   000001EC   0xE1D600B0         LDRH     R0,[R6, #+0]
   \   000001F0   0xE2900001         ADDS     R0,R0,#+1
   \   000001F4   0xE1C600B0         STRH     R0,[R6, #+0]
    329          
    330          		return token;
   \   000001F8   0xE1B00005         MOVS     R0,R5
   \                     ??FF_strtok_9:
   \   000001FC   0xE8BD8FFE         POP      {R1-R11,PC}      ;; return
    331          	}
    332          #else	/* ffconfigUNICODE_UTF16_SUPPORT */
    333          	FF_T_WCHAR *FF_strtok( const FF_T_WCHAR *string, FF_T_WCHAR *token, uint16_t *tokenNumber, BaseType_t *last, BaseType_t xLength )
    334          	{
    335          		uint16_t i,y, tokenStart, tokenEnd = 0;
    336          
    337          		i = 0;
    338          		y = 0;
    339          
    340          		if( ( string[ i ] == '\\' ) || ( string[ i ] == '/' ) )
    341          		{
    342          			i++;
    343          		}
    344          
    345          		tokenStart = i;
    346          
    347          		while( i < xLength )
    348          		{
    349          			if( ( string[ i ] == '\\' ) || ( string[ i ] == '/' ) )
    350          			{
    351          				y++;
    352          				if( y == *tokenNumber )
    353          				{
    354          					tokenStart = ( uint16_t ) ( i + 1 );
    355          				}
    356          				if( y == ( *tokenNumber + 1 ) )
    357          				{
    358          					tokenEnd = i;
    359          					break;
    360          				}
    361          			}
    362          			i++;
    363          		}
    364          
    365          		if( tokenEnd == 0 )
    366          		{
    367          			if( *last == pdTRUE )
    368          			{
    369          				return NULL;
    370          			}
    371          			else
    372          			{
    373          				*last = pdTRUE;
    374          			}
    375          			tokenEnd = i;
    376          		}
    377          		if( ( tokenEnd - tokenStart ) < ffconfigMAX_FILENAME )
    378          		{
    379          			memcpy( token, ( string + tokenStart ), ( uint32_t )( tokenEnd - tokenStart ) * sizeof( FF_T_WCHAR ) );
    380          			token[ tokenEnd - tokenStart ] = '\0';
    381          		}
    382          		else
    383          		{
    384          			memcpy( token, ( string + tokenStart ), ( uint32_t )( ffconfigMAX_FILENAME ) * sizeof( FF_T_WCHAR ) );
    385          			token[ ffconfigMAX_FILENAME - 1 ] = '\0';
    386          		}
    387          		/*token[tokenEnd - tokenStart] = '\0'; */
    388          		*tokenNumber += 1;
    389          
    390          		return token;
    391          	}
    392          #endif	/* ffconfigUNICODE_UTF16_SUPPORT */
    393          
    394          /* UTF-8 Routines */
    395          
    396          /*
    397             UCS-4 range (hex.)           UTF-8 octet sequence (binary)
    398             0000 0000-0000 007F   0xxxxxxx
    399             0000 0080-0000 07FF   110xxxxx 10xxxxxx
    400             0000 0800-0000 FFFF   1110xxxx 10xxxxxx 10xxxxxx
    401          
    402             0001 0000-001F FFFF   11110xxx 10xxxxxx 10xxxxxx 10xxxxxx
    403             0020 0000-03FF FFFF   111110xx 10xxxxxx 10xxxxxx 10xxxxxx 10xxxxxx	-- We don't encode these because we won't receive them. (Invalid UNICODE).
    404             0400 0000-7FFF FFFF   1111110x 10xxxxxx ... 10xxxxxx					-- We don't encode these because we won't receive them. (Invalid UNICODE).
    405          */
    406          
    407          #if ( ( ffconfigUNICODE_UTF16_SUPPORT != 0 ) && ( WCHAR_MAX > 0xFFFF ) ) || ( ffconfigUNICODE_UTF8_SUPPORT != 0 )
    408          	UBaseType_t FF_GetUtf16SequenceLen( uint16_t usLeadChar )
    409          	{
    410          	UBaseType_t uxReturn;
    411          		if( ( usLeadChar & 0xFC00 ) == 0xD800 )
    412          		{
    413          			uxReturn = 2;
    414          		}
    415          		else
    416          		{
    417          			uxReturn = 1;
    418          		}
    419          
    420          		return uxReturn;
    421          	}	/* FF_GetUtf16SequenceLen() */
    422          #endif
    423          /*-----------------------------------------------------------*/
    424          
    425          /*
    426          	Returns the number of UTF-8 units read.
    427          	Will not exceed ulSize UTF-16 units. (ulSize * 2 bytes).
    428          */
    429          /*
    430             UCS-4 range (hex.)           UTF-8 octet sequence (binary)
    431             0000 0000-0000 007F   0xxxxxxx
    432             0000 0080-0000 07FF   110xxxxx 10xxxxxx
    433             0000 0800-0000 FFFF   1110xxxx 10xxxxxx 10xxxxxx
    434          
    435             0001 0000-001F FFFF   11110xxx 10xxxxxx 10xxxxxx 10xxxxxx
    436             0020 0000-03FF FFFF   111110xx 10xxxxxx 10xxxxxx 10xxxxxx 10xxxxxx	-- We don't encode these because we won't receive them. (Invalid UNICODE).
    437             0400 0000-7FFF FFFF   1111110x 10xxxxxx ... 10xxxxxx					-- We don't encode these because we won't receive them. (Invalid UNICODE).
    438          */
    439          #if ( ffconfigUNICODE_UTF8_SUPPORT != 0 )
    440          	int32_t FF_Utf8ctoUtf16c( uint16_t *utf16Dest, const uint8_t *utf8Source, uint32_t ulSize )
    441          	{
    442          	uint32_t ulUtf32char;
    443          	uint16_t utf16Source = 0;
    444          	register int32_t lSequenceNumber = 0;
    445          
    446          		/* Count number of set bits before a zero. */
    447          		while( ( ( *utf8Source != '\0' ) & ( 0x80 >> ( lSequenceNumber ) ) ) )
    448          		{
    449          			lSequenceNumber++;
    450          		}
    451          
    452          		if( lSequenceNumber == 0UL )
    453          		{
    454          			lSequenceNumber++;
    455          		}
    456          
    457          		if( ulSize == 0UL )
    458          		{
    459          			/* Returned value becomes an error, with the highest bit set. */
    460          			lSequenceNumber = FF_ERR_UNICODE_DEST_TOO_SMALL | FF_UTF8CTOUTF16C;
    461          		}
    462          		else
    463          		{
    464          			switch( lSequenceNumber )
    465          			{
    466          			case 1:
    467          				utf16Source = (uint16_t) *utf8Source;
    468          				memcpy(utf16Dest,&utf16Source,sizeof(uint16_t));
    469          				break;
    470          
    471          			case 2:
    472          				utf16Source =(uint16_t) ((*utf8Source & 0x1F) << 6) | ((*(utf8Source + 1) & 0x3F));
    473          				memcpy(utf16Dest,&utf16Source,sizeof(uint16_t));
    474          				break;
    475          
    476          			case 3:
    477          				utf16Source =(uint16_t) ((*utf8Source & 0x0F) << 12) | ((*(utf8Source + 1) & 0x3F) << 6) | ((*(utf8Source + 2) & 0x3F));
    478          				memcpy(utf16Dest,&utf16Source,sizeof(uint16_t));
    479          				break;
    480          
    481          			case 4:
    482          				if( ulSize < 2 )
    483          				{
    484          					/* Returned value becomes an error. */
    485          					lSequenceNumber = FF_ERR_UNICODE_DEST_TOO_SMALL | FF_UTF8CTOUTF16C;
    486          				}
    487          				else
    488          				{
    489          					/* Convert to UTF-32 and then into UTF-16 */
    490          					ulUtf32char = ( uint16_t )
    491          						( ( *utf8Source & 0x0F ) << 18 ) |
    492          						( ( *( utf8Source + 1 ) & 0x3F ) << 12 ) |
    493          						( ( *( utf8Source + 2 ) & 0x3F ) << 6 ) |
    494          						( ( *( utf8Source + 3 ) & 0x3F ) );
    495          
    496          					utf16Source = ( uint16_t ) ( ( ( ulUtf32char - 0x10000 ) & 0xFFC00 ) >> 10 ) | 0xD800;
    497          					memcpy( utf16Dest, &utf16Source, sizeof( uint16_t ) );
    498          					utf16Source = ( uint16_t ) ( ( ( ulUtf32char - 0x10000 ) & 0x003FF ) >> 00 ) | 0xDC00;
    499          					memcpy( utf16Dest + 1, &utf16Source, sizeof( uint16_t ) );
    500          				}
    501          				break;
    502          
    503          			default:
    504          				break;
    505          			}
    506          		}
    507          
    508          		return lSequenceNumber;
    509          	}	/* FF_Utf8ctoUtf16c() */
    510          #endif	/* ffconfigUNICODE_UTF8_SUPPORT */
    511          
    512          /*-----------------------------------------------------------*/
    513          
    514          /*
    515          	Returns the number of UTF-8 units required to encode the UTF-16 sequence.
    516          	Will not exceed ulSize UTF-8 units. (ulSize  * 1 bytes).
    517          */
    518          #if ( ffconfigUNICODE_UTF8_SUPPORT != 0 )
    519          	int32_t FF_Utf16ctoUtf8c( uint8_t *utf8Dest, const uint16_t *utf16Source, uint32_t ulSize )
    520          	{
    521          	uint32_t ulUtf32char;
    522          	uint16_t ulUtf16char;
    523          	int32_t lReturn = 0L;
    524          
    525          		do
    526          		{
    527          			if( ulSize == 0UL )
    528          			{
    529          				lReturn = FF_ERR_UNICODE_DEST_TOO_SMALL | FF_UTF16CTOUTF8C;
    530          				break;
    531          			}
    532          			memcpy( &ulUtf16char, utf16Source, sizeof( uint16_t ) );
    533          
    534          			/* A surrogate sequence was encountered. Must transform to UTF32 first. */
    535          			if( ( ulUtf16char & 0xF800) == 0xD800 )
    536          			{
    537          				ulUtf32char = ( ( uint32_t ) ( ulUtf16char & 0x003FF ) << 10 ) + 0x10000;
    538          
    539          				memcpy( &ulUtf16char, utf16Source + 1, sizeof( uint16_t ) );
    540          				if( ( ulUtf16char & 0xFC00 ) != 0xDC00 )
    541          				{
    542          					/* Invalid UTF-16 sequence. */
    543          					lReturn = FF_ERR_UNICODE_INVALID_SEQUENCE | FF_UTF16CTOUTF8C;
    544          					break;
    545          				}
    546          				ulUtf32char |= ( ( uint32_t ) ( ulUtf16char & 0x003FF ) );
    547          			}
    548          			else
    549          			{
    550          				ulUtf32char = ( uint32_t ) ulUtf16char;
    551          			}
    552          
    553          			/* Now convert to the UTF-8 sequence. */
    554          			/* Single byte UTF-8 sequence. */
    555          			if( ulUtf32char < 0x00000080 )
    556          			{
    557          				*( utf8Dest + 0 ) = ( uint8_t )ulUtf32char;
    558          				lReturn = 1;
    559          				break;
    560          			}
    561          
    562          			/* Double byte UTF-8 sequence. */
    563          			if( ulUtf32char < 0x00000800 )
    564          			{
    565          				if( ulSize < 2 )
    566          				{
    567          					lReturn = FF_ERR_UNICODE_DEST_TOO_SMALL | FF_UTF16CTOUTF8C;
    568          				}
    569          				else
    570          				{
    571          					*( utf8Dest + 0 ) = ( uint8_t ) ( 0xC0 | ( ( ulUtf32char >> 6 ) & 0x1F ) );
    572          					*( utf8Dest + 1 ) = ( uint8_t ) ( 0x80 | ( ( ulUtf32char >> 0 ) & 0x3F ) );
    573          					lReturn = 2;
    574          				}
    575          				break;
    576          			}
    577          
    578          			/* Triple byte UTF-8 sequence. */
    579          			if( ulUtf32char < 0x00010000 )
    580          			{
    581          				if( ulSize < 3 )
    582          				{
    583          					lReturn = FF_ERR_UNICODE_DEST_TOO_SMALL | FF_UTF16CTOUTF8C;
    584          				}
    585          				else
    586          				{
    587          					*( utf8Dest + 0 ) = ( uint8_t ) ( 0xE0 | ( ( ulUtf32char >> 12 ) & 0x0F ) );
    588          					*( utf8Dest + 1 ) = ( uint8_t ) ( 0x80 | ( ( ulUtf32char >> 6 ) & 0x3F ) );
    589          					*( utf8Dest + 2 ) = ( uint8_t ) ( 0x80 | ( ( ulUtf32char >> 0 ) & 0x3F ) );
    590          					lReturn = 3;
    591          				}
    592          				break;
    593          			}
    594          
    595          			/* Quadruple byte UTF-8 sequence. */
    596          			if( ulUtf32char < 0x00200000 )
    597          			{
    598          				if( ulSize < 4 )
    599          				{
    600          					lReturn = FF_ERR_UNICODE_DEST_TOO_SMALL | FF_UTF16CTOUTF8C;
    601          				}
    602          				else
    603          				{
    604          					*( utf8Dest + 0 ) = ( uint8_t ) (0xF0 | ( ( ulUtf32char >> 18 ) & 0x07 ) );
    605          					*( utf8Dest + 1 ) = ( uint8_t ) (0x80 | ( ( ulUtf32char >> 12 ) & 0x3F ) );
    606          					*( utf8Dest + 2 ) = ( uint8_t ) (0x80 | ( ( ulUtf32char >> 6 ) & 0x3F ) );
    607          					*( utf8Dest + 3 ) = ( uint8_t ) (0x80 | ( ( ulUtf32char >> 0 ) & 0x3F ) );
    608          					lReturn = 4;
    609          				}
    610          				break;
    611          			}
    612          			lReturn = FF_ERR_UNICODE_INVALID_CODE | FF_UTF16CTOUTF8C;	/* Invalid Character */
    613          		}
    614          		while( pdFALSE );
    615          
    616          		return lReturn;
    617          	}	/* FF_Utf16ctoUtf8c() */
    618          #endif	/* ffconfigUNICODE_UTF8_SUPPORT */
    619          /*-----------------------------------------------------------*/
    620          
    621          /* UTF-16 Support Functions */
    622          
    623          /* Converts a UTF-32 Character into its equivalent UTF-16 sequence. */
    624          #if( ffconfigUNICODE_UTF16_SUPPORT != 0 ) && ( WCHAR_MAX > 0xFFFF )
    625          	int32_t FF_Utf32ctoUtf16c( uint16_t *utf16Dest, uint32_t utf32char, uint32_t ulSize )
    626          	{
    627          	int32_t lReturn;
    628          		/* Check that its a valid UTF-32 wide-char!	*/
    629          
    630          		/* This range is not a valid Unicode code point. */
    631          		if( ( utf32char >= 0xD800 ) && ( utf32char <= 0xDFFF ) )
    632          		{
    633          			lReturn = FF_ERR_UNICODE_INVALID_CODE | FF_UTF32CTOUTF16C; /* Invalid character. */
    634          		}
    635          		else if( utf32char < 0x10000 )
    636          		{
    637          			*utf16Dest = (uint16_t) utf32char; /* Simple conversion! Char comes within UTF-16 space (without surrogates). */
    638          			lReturn = 1;
    639          		}
    640          		else if( ulSize < 2 )
    641          		{
    642          			lReturn FF_ERR_UNICODE_DEST_TOO_SMALL | FF_UTF32CTOUTF16C;	/* Not enough UTF-16 units to record this character. */
    643          		}
    644          		else if( utf32char < 0x00200000 )
    645          		{
    646          			/* Conversion to a UTF-16 Surrogate pair! */
    647          			/*valueImage = utf32char - 0x10000; */
    648          			*( utf16Dest + 0 ) = ( uint16_t ) ( ( ( utf32char - 0x10000 ) & 0xFFC00 ) >> 10 ) | 0xD800;
    649          			*( utf16Dest + 1 ) = ( uint16_t ) ( ( ( utf32char - 0x10000 ) & 0x003FF ) >> 00 ) | 0xDC00;
    650          
    651          			lReturn = 2;	/* Surrogate pair encoded value. */
    652          		}
    653          		else
    654          		{
    655          			/* Invalid Character */
    656          			lReturn = FF_ERR_UNICODE_INVALID_CODE | FF_UTF32CTOUTF16C;
    657          		}
    658          
    659          		return lReturn;
    660          	}	/* FF_Utf32ctoUtf16c() */
    661          #endif /* #if( ffconfigUNICODE_UTF16_SUPPORT != 0 ) && ( WCHAR_MAX > 0xFFFF ) */
    662          /*-----------------------------------------------------------*/
    663          
    664          /* Converts a UTF-16 sequence into its equivalent UTF-32 code point. */
    665          #if( ffconfigNOT_USED_FOR_NOW != 0 )
    666          	int32_t FF_Utf16ctoUtf32c( uint32_t *utf32Dest, const uint16_t *utf16Source )
    667          	{
    668          	int32_t lReturn;
    669          
    670          		/*Not a surrogate sequence. */
    671          		if( ( *utf16Source & 0xFC00 ) != 0xD800 )
    672          		{
    673          			*utf32Dest = ( uint32_t )*utf16Source;
    674          			lReturn = 1;	/* A single UTF-16 item was used to represent the character. */
    675          		}
    676          		else
    677          		{
    678          			*utf32Dest = ( ( uint32_t) ( * ( utf16Source + 0 ) & 0x003FF ) << 10 ) + 0x10000;
    679          			if( ( *(utf16Source + 1) & 0xFC00 ) != 0xDC00 )
    680          			{
    681          				lReturn = FF_ERR_UNICODE_INVALID_SEQUENCE | FF_UTF16CTOUTF32C;	/* Invalid UTF-16 sequence. */
    682          			}
    683          			else
    684          			{
    685          				*utf32Dest |= ( ( uint32_t ) ( *( utf16Source + 1 ) & 0x003FF ) );
    686          				lReturn = 2;	/* 2 utf-16 units make up the Unicode code-point. */
    687          			}
    688          		}
    689          
    690          		return lReturn;
    691          	}	/* FF_Utf16ctoUtf32c() */
    692          #endif /* ffconfigNOT_USED_FOR_NOW */
    693          /*-----------------------------------------------------------*/
    694          
    695          /*
    696          	Returns the total number of UTF-16 items required to represent
    697          	the provided UTF-32 string in UTF-16 form.
    698          */
    699          /*
    700          UBaseType_t FF_Utf32GetUtf16Len( const uint32_t *utf32String )
    701          {
    702          	UBaseType_t utf16len = 0;
    703          
    704          	while( *utf32String )
    705          	{
    706          		if( *utf32String++ <= 0xFFFF )
    707          		{
    708          			utf16len++;
    709          		}
    710          		else
    711          		{
    712          			utf16len += 2;
    713          		}
    714          	}
    715          
    716          	return utf16len;
    717          }
    718          */
    719          /*-----------------------------------------------------------*/
    720          
    721          
    722          /* String conversions */
    723          
    724          #if( ffconfigNOT_USED_FOR_NOW != 0 )
    725          	int32_t FF_Utf32stoUtf8s( uint8_t *Utf8String, uint32_t *Utf32String )
    726          	{
    727          		int i = 0,y = 0;
    728          
    729          		uint16_t utf16buffer[ 2 ];
    730          
    731          		while( Utf32String[ i ] != '\0' )
    732          		{
    733          			/* Convert to a UTF16 char. */
    734          			FF_Utf32ctoUtf16c( utf16buffer, Utf32String[ i ], 2 );
    735          			/* Now convert the UTF16 to UTF8 sequence. */
    736          			y += FF_Utf16ctoUtf8c( &Utf8String[ y ], utf16buffer, 4 );
    737          			i++;
    738          		}
    739          
    740          		Utf8String[ y ] = '\0';
    741          
    742          		return 0;
    743          	}	/* FF_Utf32stoUtf8s() */
    744          #endif /* ffconfigNOT_USED_FOR_NOW */
    745          /*-----------------------------------------------------------*/

   Maximum stack usage in bytes:

   .cstack Function
   ------- --------
      24   FF_strmatch
        24   -> strlen
      48   FF_strtok
        48   -> __aeabi_memcpy
       0   FF_tolower
       0   FF_toupper


   Section sizes:

   Bytes  Function/Label
   -----  --------------
     208  FF_strmatch
     512  FF_strtok
      72  FF_tolower
      72  FF_toupper

 
 864 bytes in section .text
 
 864 bytes of CODE memory

Errors: none
Warnings: none
