###############################################################################
#
# IAR ANSI C/C++ Compiler V8.22.1.15669/W32 for ARM       25/Sep/2018  15:19:08
# Copyright 1999-2018 IAR Systems AB.
#
#    Cpu mode     =  arm
#    Endian       =  little
#    Source file  =  E:\armipc\rtos\portable\MemMang\heap_2.c
#    Command line =  
#        -f C:\Users\Bill\AppData\Local\Temp\EW8989.tmp
#        (E:\armipc\rtos\portable\MemMang\heap_2.c -D DDRRAM_EXEC -D MMU_ENA
#        -lC "E:\armipc\DDRRAM Debug\List" -o "E:\armipc\DDRRAM Debug\Obj"
#        --no_cse --no_unroll --no_inline --no_code_motion --no_tbaa
#        --no_clustering --no_scheduling --debug --endian=little
#        --cpu=ARM926EJ-S -e --fpu=None --dlib_config "C:\Program Files\IAR
#        Systems\Embedded Workbench 8.0\arm\INC\c\DLib_Config_Normal.h" -I
#        E:\armipc\ -I E:\armipc\board\ -I E:\armipc\modules\ -I
#        E:\armipc\lwip\include\lwip\ -I E:\armipc\lwip\include\arch\ -I
#        E:\armipc\rtos\include\ -I E:\armipc\lwip\include\IPV4\lwip\ -I
#        E:\armipc\lwip\netif\ppp\ --cpu_mode arm -On --use_c++_inline)
#    Locale       =  C
#    List file    =  E:\armipc\DDRRAM Debug\List\heap_2.lst
#    Object file  =  E:\armipc\DDRRAM Debug\Obj\heap_2.o
#
###############################################################################

E:\armipc\rtos\portable\MemMang\heap_2.c
      1          /*
      2              FreeRTOS V9.0.0 - Copyright (C) 2016 Real Time Engineers Ltd.
      3              All rights reserved
      4          
      5              VISIT http://www.FreeRTOS.org TO ENSURE YOU ARE USING THE LATEST VERSION.
      6          
      7              This file is part of the FreeRTOS distribution.
      8          
      9              FreeRTOS is free software; you can redistribute it and/or modify it under
     10              the terms of the GNU General Public License (version 2) as published by the
     11              Free Software Foundation >>>> AND MODIFIED BY <<<< the FreeRTOS exception.
     12          
     13              ***************************************************************************
     14              >>!   NOTE: The modification to the GPL is included to allow you to     !<<
     15              >>!   distribute a combined work that includes FreeRTOS without being   !<<
     16              >>!   obliged to provide the source code for proprietary components     !<<
     17              >>!   outside of the FreeRTOS kernel.                                   !<<
     18              ***************************************************************************
     19          
     20              FreeRTOS is distributed in the hope that it will be useful, but WITHOUT ANY
     21              WARRANTY; without even the implied warranty of MERCHANTABILITY or FITNESS
     22              FOR A PARTICULAR PURPOSE.  Full license text is available on the following
     23              link: http://www.freertos.org/a00114.html
     24          
     25              ***************************************************************************
     26               *                                                                       *
     27               *    FreeRTOS provides completely free yet professionally developed,    *
     28               *    robust, strictly quality controlled, supported, and cross          *
     29               *    platform software that is more than just the market leader, it     *
     30               *    is the industry's de facto standard.                               *
     31               *                                                                       *
     32               *    Help yourself get started quickly while simultaneously helping     *
     33               *    to support the FreeRTOS project by purchasing a FreeRTOS           *
     34               *    tutorial book, reference manual, or both:                          *
     35               *    http://www.FreeRTOS.org/Documentation                              *
     36               *                                                                       *
     37              ***************************************************************************
     38          
     39              http://www.FreeRTOS.org/FAQHelp.html - Having a problem?  Start by reading
     40              the FAQ page "My application does not run, what could be wrong?".  Have you
     41              defined configASSERT()?
     42          
     43              http://www.FreeRTOS.org/support - In return for receiving this top quality
     44              embedded software for free we request you assist our global community by
     45              participating in the support forum.
     46          
     47              http://www.FreeRTOS.org/training - Investing in training allows your team to
     48              be as productive as possible as early as possible.  Now you can receive
     49              FreeRTOS training directly from Richard Barry, CEO of Real Time Engineers
     50              Ltd, and the world's leading authority on the world's leading RTOS.
     51          
     52              http://www.FreeRTOS.org/plus - A selection of FreeRTOS ecosystem products,
     53              including FreeRTOS+Trace - an indispensable productivity tool, a DOS
     54              compatible FAT file system, and our tiny thread aware UDP/IP stack.
     55          
     56              http://www.FreeRTOS.org/labs - Where new FreeRTOS products go to incubate.
     57              Come and try FreeRTOS+TCP, our new open source TCP/IP stack for FreeRTOS.
     58          
     59              http://www.OpenRTOS.com - Real Time Engineers ltd. license FreeRTOS to High
     60              Integrity Systems ltd. to sell under the OpenRTOS brand.  Low cost OpenRTOS
     61              licenses offer ticketed support, indemnification and commercial middleware.
     62          
     63              http://www.SafeRTOS.com - High Integrity Systems also provide a safety
     64              engineered and independently SIL3 certified version for use in safety and
     65              mission critical applications that require provable dependability.
     66          
     67              1 tab == 4 spaces!
     68          */
     69          
     70          /*
     71           * A sample implementation of pvPortMalloc() and vPortFree() that permits
     72           * allocated blocks to be freed, but does not combine adjacent free blocks
     73           * into a single larger block (and so will fragment memory).  See heap_4.c for
     74           * an equivalent that does combine adjacent blocks into single larger blocks.
     75           *
     76           * See heap_1.c, heap_3.c and heap_4.c for alternative implementations, and the
     77           * memory management pages of http://www.FreeRTOS.org for more information.
     78           */
     79          #include <stdlib.h>
     80          
     81          /* Defining MPU_WRAPPERS_INCLUDED_FROM_API_FILE prevents task.h from redefining
     82          all the API functions to use the MPU wrappers.  That should only be done when
     83          task.h is included from an application file. */
     84          #define MPU_WRAPPERS_INCLUDED_FROM_API_FILE
     85          
     86          #include "../../include/FreeRTOS.h"
     87          #include "../../include/task.h"
     88          
     89          #undef MPU_WRAPPERS_INCLUDED_FROM_API_FILE
     90          
     91          #if( configSUPPORT_DYNAMIC_ALLOCATION == 0 )
     92          	#error This file must not be used if configSUPPORT_DYNAMIC_ALLOCATION is 0
     93          #endif
     94          
     95          /* A few bytes might be lost to byte aligning the heap start address. */
     96          #define configADJUSTED_HEAP_SIZE	( configTOTAL_HEAP_SIZE - portBYTE_ALIGNMENT )
     97          
     98          /*
     99           * Initialises the heap structures before their first use.
    100           */
    101          static void prvHeapInit( void );
    102          
    103          /* Allocate the memory for the heap. */
    104          #if( configAPPLICATION_ALLOCATED_HEAP == 1 )
    105          	/* The application writer has already defined the array used for the RTOS
    106          	heap - probably so it can be placed in a special segment or address. */
    107          	extern uint8_t ucHeap[ configTOTAL_HEAP_SIZE ];
    108          #else

   \                                 In section .bss, align 4
    109          	static uint8_t ucHeap[ configTOTAL_HEAP_SIZE ];
   \                     ucHeap:
   \   00000000                      DS8 4096
    110          #endif /* configAPPLICATION_ALLOCATED_HEAP */
    111          
    112          
    113          /* Define the linked list structure.  This is used to link free blocks in order
    114          of their size. */
    115          typedef struct A_BLOCK_LINK
    116          {
    117          	struct A_BLOCK_LINK *pxNextFreeBlock;	/*<< The next free block in the list. */
    118          	size_t xBlockSize;						/*<< The size of the free block. */
    119          } BlockLink_t;
    120          
    121          

   \                                 In section .rodata, align 2
    122          static const uint16_t heapSTRUCT_SIZE	= ( ( sizeof ( BlockLink_t ) + ( portBYTE_ALIGNMENT - 1 ) ) & ~portBYTE_ALIGNMENT_MASK );
   \                     heapSTRUCT_SIZE:
   \   00000000   0x0008             DC16 8
    123          #define heapMINIMUM_BLOCK_SIZE	( ( size_t ) ( heapSTRUCT_SIZE * 2 ) )
    124          
    125          /* Create a couple of list links to mark the start and end of the list. */

   \                                 In section .bss, align 4
    126          static BlockLink_t xStart, xEnd;
   \                     xStart:
   \   00000000                      DS8 8

   \                                 In section .bss, align 4
   \                     xEnd:
   \   00000000                      DS8 8
    127          
    128          /* Keeps track of the number of free bytes remaining, but says nothing about
    129          fragmentation. */

   \                                 In section .data, align 4
    130          static size_t xFreeBytesRemaining = configADJUSTED_HEAP_SIZE;
   \                     xFreeBytesRemaining:
   \   00000000   0x00000FF8         DC32 4088
    131          
    132          /* STATIC FUNCTIONS ARE DEFINED AS MACROS TO MINIMIZE THE FUNCTION CALL DEPTH. */
    133          
    134          /*
    135           * Insert a block into the list of free blocks - which is ordered by size of
    136           * the block.  Small blocks at the start of the list and large blocks at the end
    137           * of the list.
    138           */
    139          #define prvInsertBlockIntoFreeList( pxBlockToInsert )								\
    140          {																					\
    141          BlockLink_t *pxIterator;															\
    142          size_t xBlockSize;																	\
    143          																					\
    144          	xBlockSize = pxBlockToInsert->xBlockSize;										\
    145          																					\
    146          	/* Iterate through the list until a block is found that has a larger size */	\
    147          	/* than the block we are inserting. */											\
    148          	for( pxIterator = &xStart; pxIterator->pxNextFreeBlock->xBlockSize < xBlockSize; pxIterator = pxIterator->pxNextFreeBlock )	\
    149          	{																				\
    150          		/* There is nothing to do here - just iterate to the correct position. */	\
    151          	}																				\
    152          																					\
    153          	/* Update the list to include the block being inserted in the correct */		\
    154          	/* position. */																	\
    155          	pxBlockToInsert->pxNextFreeBlock = pxIterator->pxNextFreeBlock;					\
    156          	pxIterator->pxNextFreeBlock = pxBlockToInsert;									\
    157          }
    158          /*-----------------------------------------------------------*/
    159          

   \                                 In section .text, align 4, keep-with-next
    160          void *pvPortMalloc( size_t xWantedSize )
    161          {
   \                     pvPortMalloc:
   \   00000000   0xE92D41F0         PUSH     {R4-R8,LR}
   \   00000004   0xE1B04000         MOVS     R4,R0
    162          BlockLink_t *pxBlock, *pxPreviousBlock, *pxNewBlockLink;
    163          static BaseType_t xHeapHasBeenInitialised = pdFALSE;
    164          void *pvReturn = NULL;
   \   00000008   0xE3A08000         MOV      R8,#+0
    165          
    166          	vTaskSuspendAll();
   \   0000000C   0x........         BL       vTaskSuspendAll
    167          	{
    168          		/* If this is the first call to malloc then the heap will require
    169          		initialisation to setup the list of free blocks. */
    170          		if( xHeapHasBeenInitialised == pdFALSE )
   \   00000010   0x........         LDR      R0,??DataTable3
   \   00000014   0xE5900000         LDR      R0,[R0, #+0]
   \   00000018   0xE3500000         CMP      R0,#+0
   \   0000001C   0x1A000003         BNE      ??pvPortMalloc_0
    171          		{
    172          			prvHeapInit();
   \   00000020   0x........         BL       prvHeapInit
    173          			xHeapHasBeenInitialised = pdTRUE;
   \   00000024   0xE3A00001         MOV      R0,#+1
   \   00000028   0x........         LDR      R1,??DataTable3
   \   0000002C   0xE5810000         STR      R0,[R1, #+0]
    174          		}
    175          
    176          		/* The wanted size is increased so it can contain a BlockLink_t
    177          		structure in addition to the requested amount of bytes. */
    178          		if( xWantedSize > 0 )
   \                     ??pvPortMalloc_0:
   \   00000030   0xE3540000         CMP      R4,#+0
   \   00000034   0x0A000007         BEQ      ??pvPortMalloc_1
    179          		{
    180          			xWantedSize += heapSTRUCT_SIZE;
   \   00000038   0x........         LDR      R0,??DataTable3_1
   \   0000003C   0xE1D000B0         LDRH     R0,[R0, #+0]
   \   00000040   0xE0904004         ADDS     R4,R0,R4
    181          
    182          			/* Ensure that blocks are always aligned to the required number of bytes. */
    183          			if( ( xWantedSize & portBYTE_ALIGNMENT_MASK ) != 0 )
   \   00000044   0xE3140007         TST      R4,#0x7
   \   00000048   0x0A000002         BEQ      ??pvPortMalloc_1
    184          			{
    185          				/* Byte alignment required. */
    186          				xWantedSize += ( portBYTE_ALIGNMENT - ( xWantedSize & portBYTE_ALIGNMENT_MASK ) );
   \   0000004C   0xE2940008         ADDS     R0,R4,#+8
   \   00000050   0xE2141007         ANDS     R1,R4,#0x7
   \   00000054   0xE0504001         SUBS     R4,R0,R1
    187          			}
    188          		}
    189          
    190          		if( ( xWantedSize > 0 ) && ( xWantedSize < configADJUSTED_HEAP_SIZE ) )
   \                     ??pvPortMalloc_1:
   \   00000058   0xE3540000         CMP      R4,#+0
   \   0000005C   0x0A000039         BEQ      ??pvPortMalloc_2
   \   00000060   0xE3A000F8         MOV      R0,#+248
   \   00000064   0xE3800EF0         ORR      R0,R0,#0xF00
   \   00000068   0xE1540000         CMP      R4,R0
   \   0000006C   0x2A000035         BCS      ??pvPortMalloc_2
    191          		{
    192          			/* Blocks are stored in byte order - traverse the list from the start
    193          			(smallest) block until one of adequate size is found. */
    194          			pxPreviousBlock = &xStart;
   \   00000070   0x........         LDR      R0,??DataTable3_2
   \   00000074   0xE1B06000         MOVS     R6,R0
    195          			pxBlock = xStart.pxNextFreeBlock;
   \   00000078   0x........         LDR      R0,??DataTable3_2
   \   0000007C   0xE5900000         LDR      R0,[R0, #+0]
   \   00000080   0xE1B05000         MOVS     R5,R0
    196          			while( ( pxBlock->xBlockSize < xWantedSize ) && ( pxBlock->pxNextFreeBlock != NULL ) )
   \                     ??pvPortMalloc_3:
   \   00000084   0xE5950004         LDR      R0,[R5, #+4]
   \   00000088   0xE1500004         CMP      R0,R4
   \   0000008C   0x2A000005         BCS      ??pvPortMalloc_4
   \   00000090   0xE5950000         LDR      R0,[R5, #+0]
   \   00000094   0xE3500000         CMP      R0,#+0
   \   00000098   0x0A000002         BEQ      ??pvPortMalloc_4
    197          			{
    198          				pxPreviousBlock = pxBlock;
   \   0000009C   0xE1B06005         MOVS     R6,R5
    199          				pxBlock = pxBlock->pxNextFreeBlock;
   \   000000A0   0xE5955000         LDR      R5,[R5, #+0]
   \   000000A4   0xEAFFFFF6         B        ??pvPortMalloc_3
    200          			}
    201          
    202          			/* If we found the end marker then a block of adequate size was not found. */
    203          			if( pxBlock != &xEnd )
   \                     ??pvPortMalloc_4:
   \   000000A8   0x........         LDR      R0,??DataTable3_3
   \   000000AC   0xE1550000         CMP      R5,R0
   \   000000B0   0x0A000024         BEQ      ??pvPortMalloc_2
    204          			{
    205          				/* Return the memory space - jumping over the BlockLink_t structure
    206          				at its start. */
    207          				pvReturn = ( void * ) ( ( ( uint8_t * ) pxPreviousBlock->pxNextFreeBlock ) + heapSTRUCT_SIZE );
   \   000000B4   0xE5960000         LDR      R0,[R6, #+0]
   \   000000B8   0x........         LDR      R1,??DataTable3_1
   \   000000BC   0xE1D110B0         LDRH     R1,[R1, #+0]
   \   000000C0   0xE0900001         ADDS     R0,R0,R1
   \   000000C4   0xE1B08000         MOVS     R8,R0
    208          
    209          				/* This block is being returned for use so must be taken out of the
    210          				list of free blocks. */
    211          				pxPreviousBlock->pxNextFreeBlock = pxBlock->pxNextFreeBlock;
   \   000000C8   0xE5950000         LDR      R0,[R5, #+0]
   \   000000CC   0xE5860000         STR      R0,[R6, #+0]
    212          
    213          				/* If the block is larger than required it can be split into two. */
    214          				if( ( pxBlock->xBlockSize - xWantedSize ) > heapMINIMUM_BLOCK_SIZE )
   \   000000D0   0x........         LDR      R0,??DataTable3_1
   \   000000D4   0xE1D000B0         LDRH     R0,[R0, #+0]
   \   000000D8   0xE1B00080         LSLS     R0,R0,#+1
   \   000000DC   0xE5951004         LDR      R1,[R5, #+4]
   \   000000E0   0xE0511004         SUBS     R1,R1,R4
   \   000000E4   0xE1500001         CMP      R0,R1
   \   000000E8   0x2A000010         BCS      ??pvPortMalloc_5
    215          				{
    216          					/* This block is to be split into two.  Create a new block
    217          					following the number of bytes requested. The void cast is
    218          					used to prevent byte alignment warnings from the compiler. */
    219          					pxNewBlockLink = ( void * ) ( ( ( uint8_t * ) pxBlock ) + xWantedSize );
   \   000000EC   0xE0950004         ADDS     R0,R5,R4
   \   000000F0   0xE1B07000         MOVS     R7,R0
    220          
    221          					/* Calculate the sizes of two blocks split from the single
    222          					block. */
    223          					pxNewBlockLink->xBlockSize = pxBlock->xBlockSize - xWantedSize;
   \   000000F4   0xE5950004         LDR      R0,[R5, #+4]
   \   000000F8   0xE0500004         SUBS     R0,R0,R4
   \   000000FC   0xE5870004         STR      R0,[R7, #+4]
    224          					pxBlock->xBlockSize = xWantedSize;
   \   00000100   0xE5854004         STR      R4,[R5, #+4]
    225          
    226          					/* Insert the new block into the list of free blocks. */
    227          					prvInsertBlockIntoFreeList( ( pxNewBlockLink ) );
   \   00000104   0xE5971004         LDR      R1,[R7, #+4]
   \   00000108   0x........         LDR      R0,??DataTable3_2
   \                     ??pvPortMalloc_6:
   \   0000010C   0xE5902000         LDR      R2,[R0, #+0]
   \   00000110   0xE5922004         LDR      R2,[R2, #+4]
   \   00000114   0xE1520001         CMP      R2,R1
   \   00000118   0x2A000001         BCS      ??pvPortMalloc_7
   \   0000011C   0xE5900000         LDR      R0,[R0, #+0]
   \   00000120   0xEAFFFFF9         B        ??pvPortMalloc_6
   \                     ??pvPortMalloc_7:
   \   00000124   0xE5902000         LDR      R2,[R0, #+0]
   \   00000128   0xE5872000         STR      R2,[R7, #+0]
   \   0000012C   0xE5807000         STR      R7,[R0, #+0]
    228          				}
    229          
    230          				xFreeBytesRemaining -= pxBlock->xBlockSize;
   \                     ??pvPortMalloc_5:
   \   00000130   0x........         LDR      R0,??DataTable3_4
   \   00000134   0xE5900000         LDR      R0,[R0, #+0]
   \   00000138   0xE5951004         LDR      R1,[R5, #+4]
   \   0000013C   0xE0500001         SUBS     R0,R0,R1
   \   00000140   0x........         LDR      R1,??DataTable3_4
   \   00000144   0xE5810000         STR      R0,[R1, #+0]
    231          			}
    232          		}
    233          
    234          		traceMALLOC( pvReturn, xWantedSize );
    235          	}
    236          	( void ) xTaskResumeAll();
   \                     ??pvPortMalloc_2:
   \   00000148   0x........         BL       xTaskResumeAll
    237          
    238          	#if( configUSE_MALLOC_FAILED_HOOK == 1 )
    239          	{
    240          		if( pvReturn == NULL )
    241          		{
    242          			extern void vApplicationMallocFailedHook( void );
    243          			vApplicationMallocFailedHook();
    244          		}
    245          	}
    246          	#endif
    247          
    248          	return pvReturn;
   \   0000014C   0xE1B00008         MOVS     R0,R8
   \   00000150   0xE8BD81F0         POP      {R4-R8,PC}       ;; return
    249          }

   \                                 In section .bss, align 4
   \                     `pvPortMalloc::xHeapHasBeenInitialised`:
   \   00000000                      DS8 4
    250          /*-----------------------------------------------------------*/
    251          

   \                                 In section .text, align 4, keep-with-next
    252          void vPortFree( void *pv )
    253          {
   \                     vPortFree:
   \   00000000   0xE92D40F8         PUSH     {R3-R7,LR}
   \   00000004   0xE1B05000         MOVS     R5,R0
    254          uint8_t *puc = ( uint8_t * ) pv;
   \   00000008   0xE1B06005         MOVS     R6,R5
    255          BlockLink_t *pxLink;
    256          
    257          	if( pv != NULL )
   \   0000000C   0xE3550000         CMP      R5,#+0
   \   00000010   0x0A000017         BEQ      ??vPortFree_0
    258          	{
    259          		/* The memory being freed will have an BlockLink_t structure immediately
    260          		before it. */
    261          		puc -= heapSTRUCT_SIZE;
   \   00000014   0x........         LDR      R0,??DataTable3_1
   \   00000018   0xE1D000B0         LDRH     R0,[R0, #+0]
   \   0000001C   0xE2700000         RSBS     R0,R0,#+0
   \   00000020   0xE0966000         ADDS     R6,R6,R0
    262          
    263          		/* This unexpected casting is to keep some compilers from issuing
    264          		byte alignment warnings. */
    265          		pxLink = ( void * ) puc;
   \   00000024   0xE1B04006         MOVS     R4,R6
    266          
    267          		vTaskSuspendAll();
   \   00000028   0x........         BL       vTaskSuspendAll
    268          		{
    269          			/* Add this block to the list of free blocks. */
    270          			prvInsertBlockIntoFreeList( ( ( BlockLink_t * ) pxLink ) );
   \   0000002C   0xE5947004         LDR      R7,[R4, #+4]
   \   00000030   0x........         LDR      R0,??DataTable3_2
   \                     ??vPortFree_1:
   \   00000034   0xE5901000         LDR      R1,[R0, #+0]
   \   00000038   0xE5911004         LDR      R1,[R1, #+4]
   \   0000003C   0xE1510007         CMP      R1,R7
   \   00000040   0x2A000001         BCS      ??vPortFree_2
   \   00000044   0xE5900000         LDR      R0,[R0, #+0]
   \   00000048   0xEAFFFFF9         B        ??vPortFree_1
   \                     ??vPortFree_2:
   \   0000004C   0xE5901000         LDR      R1,[R0, #+0]
   \   00000050   0xE5841000         STR      R1,[R4, #+0]
   \   00000054   0xE5804000         STR      R4,[R0, #+0]
    271          			xFreeBytesRemaining += pxLink->xBlockSize;
   \   00000058   0x........         LDR      R0,??DataTable3_4
   \   0000005C   0xE5900000         LDR      R0,[R0, #+0]
   \   00000060   0xE5941004         LDR      R1,[R4, #+4]
   \   00000064   0xE0910000         ADDS     R0,R1,R0
   \   00000068   0x........         LDR      R1,??DataTable3_4
   \   0000006C   0xE5810000         STR      R0,[R1, #+0]
    272          			traceFREE( pv, pxLink->xBlockSize );
    273          		}
    274          		( void ) xTaskResumeAll();
   \   00000070   0x........         BL       xTaskResumeAll
    275          	}
    276          }
   \                     ??vPortFree_0:
   \   00000074   0xE8BD80F1         POP      {R0,R4-R7,PC}    ;; return
    277          /*-----------------------------------------------------------*/
    278          

   \                                 In section .text, align 4, keep-with-next
    279          size_t xPortGetFreeHeapSize( void )
    280          {
    281          	return xFreeBytesRemaining;
   \                     xPortGetFreeHeapSize:
   \   00000000   0x........         LDR      R0,??DataTable3_4
   \   00000004   0xE5900000         LDR      R0,[R0, #+0]
   \   00000008   0xE12FFF1E         BX       LR               ;; return
    282          }
    283          /*-----------------------------------------------------------*/
    284          

   \                                 In section .text, align 4, keep-with-next
    285          void vPortInitialiseBlocks( void )
    286          {
    287          	/* This just exists to keep the linker quiet. */
    288          }
   \                     vPortInitialiseBlocks:
   \   00000000   0xE12FFF1E         BX       LR               ;; return
    289          /*-----------------------------------------------------------*/
    290          

   \                                 In section .text, align 4, keep-with-next
    291          static void prvHeapInit( void )
    292          {
    293          BlockLink_t *pxFirstFreeBlock;
    294          uint8_t *pucAlignedHeap;
    295          
    296          	/* Ensure the heap starts on a correctly aligned boundary. */
    297          	pucAlignedHeap = ( uint8_t * ) ( ( ( portPOINTER_SIZE_TYPE ) &ucHeap[ portBYTE_ALIGNMENT ] ) & ( ~( ( portPOINTER_SIZE_TYPE ) portBYTE_ALIGNMENT_MASK ) ) );
   \                     prvHeapInit:
   \   00000000   0x........         LDR      R0,??DataTable3_5
   \   00000004   0xE3D00007         BICS     R0,R0,#0x7
    298          
    299          	/* xStart is used to hold a pointer to the first item in the list of free
    300          	blocks.  The void cast is used to prevent compiler warnings. */
    301          	xStart.pxNextFreeBlock = ( void * ) pucAlignedHeap;
   \   00000008   0x........         LDR      R1,??DataTable3_2
   \   0000000C   0xE5810000         STR      R0,[R1, #+0]
    302          	xStart.xBlockSize = ( size_t ) 0;
   \   00000010   0xE3A01000         MOV      R1,#+0
   \   00000014   0x........         LDR      R2,??DataTable3_2
   \   00000018   0xE5821004         STR      R1,[R2, #+4]
    303          
    304          	/* xEnd is used to mark the end of the list of free blocks. */
    305          	xEnd.xBlockSize = configADJUSTED_HEAP_SIZE;
   \   0000001C   0xE3A010F8         MOV      R1,#+248
   \   00000020   0xE3811EF0         ORR      R1,R1,#0xF00
   \   00000024   0x........         LDR      R2,??DataTable3_3
   \   00000028   0xE5821004         STR      R1,[R2, #+4]
    306          	xEnd.pxNextFreeBlock = NULL;
   \   0000002C   0xE3A01000         MOV      R1,#+0
   \   00000030   0x........         LDR      R2,??DataTable3_3
   \   00000034   0xE5821000         STR      R1,[R2, #+0]
    307          
    308          	/* To start with there is a single free block that is sized to take up the
    309          	entire heap space. */
    310          	pxFirstFreeBlock = ( void * ) pucAlignedHeap;
    311          	pxFirstFreeBlock->xBlockSize = configADJUSTED_HEAP_SIZE;
   \   00000038   0xE3A010F8         MOV      R1,#+248
   \   0000003C   0xE3811EF0         ORR      R1,R1,#0xF00
   \   00000040   0xE5801004         STR      R1,[R0, #+4]
    312          	pxFirstFreeBlock->pxNextFreeBlock = &xEnd;
   \   00000044   0x........         LDR      R1,??DataTable3_3
   \   00000048   0xE5801000         STR      R1,[R0, #+0]
    313          }
   \   0000004C   0xE12FFF1E         BX       LR               ;; return

   \                                 In section .text, align 4, keep-with-next
   \                     ??DataTable3:
   \   00000000   0x........         DC32     `pvPortMalloc::xHeapHasBeenInitialised`

   \                                 In section .text, align 4, keep-with-next
   \                     ??DataTable3_1:
   \   00000000   0x........         DC32     heapSTRUCT_SIZE

   \                                 In section .text, align 4, keep-with-next
   \                     ??DataTable3_2:
   \   00000000   0x........         DC32     xStart

   \                                 In section .text, align 4, keep-with-next
   \                     ??DataTable3_3:
   \   00000000   0x........         DC32     xEnd

   \                                 In section .text, align 4, keep-with-next
   \                     ??DataTable3_4:
   \   00000000   0x........         DC32     xFreeBytesRemaining

   \                                 In section .text, align 4, keep-with-next
   \                     ??DataTable3_5:
   \   00000000   0x........         DC32     ucHeap+0x8
    314          /*-----------------------------------------------------------*/

   Maximum stack usage in bytes:

   .cstack Function
   ------- --------
       0   prvHeapInit
      24   pvPortMalloc
        24   -> prvHeapInit
        24   -> vTaskSuspendAll
        24   -> xTaskResumeAll
      24   vPortFree
        24   -> vTaskSuspendAll
        24   -> xTaskResumeAll
       0   vPortInitialiseBlocks
       0   xPortGetFreeHeapSize


   Section sizes:

   Bytes  Function/Label
   -----  --------------
       4  ??DataTable3
       4  ??DataTable3_1
       4  ??DataTable3_2
       4  ??DataTable3_3
       4  ??DataTable3_4
       4  ??DataTable3_5
       2  heapSTRUCT_SIZE
      80  prvHeapInit
     340  pvPortMalloc
    4096  ucHeap
     120  vPortFree
       4  vPortInitialiseBlocks
       8  xEnd
       4  xFreeBytesRemaining
       4  xHeapHasBeenInitialised
      12  xPortGetFreeHeapSize
       8  xStart

 
 4 116 bytes in section .bss
     4 bytes in section .data
     2 bytes in section .rodata
   580 bytes in section .text
 
   580 bytes of CODE  memory
     2 bytes of CONST memory
 4 120 bytes of DATA  memory

Errors: none
Warnings: none
