###############################################################################
#
# IAR ANSI C/C++ Compiler V8.20.1.14183/W32 for ARM       27/Nov/2017  15:13:41
# Copyright 1999-2017 IAR Systems AB.
#
#    Cpu mode     =  arm
#    Endian       =  little
#    Source file  =  E:\armipc\rtos\portable\MemMang\heap_5.c
#    Command line =  
#        -f C:\Users\Bill\AppData\Local\Temp\EW74DE.tmp
#        (E:\armipc\rtos\portable\MemMang\heap_5.c -D DDRRAM_EXEC -D MMU_ENA
#        -lC "E:\armipc\DDRRAM Debug\List" -o "E:\armipc\DDRRAM Debug\Obj"
#        --no_cse --no_unroll --no_inline --no_code_motion --no_tbaa
#        --no_clustering --no_scheduling --debug --endian=little
#        --cpu=ARM926EJ-S -e --fpu=None --dlib_config "C:\Program Files\IAR
#        Systems\Embedded Workbench 8.0\arm\INC\c\DLib_Config_Normal.h" -I
#        E:\armipc\ -I E:\armipc\board\ -I E:\armipc\modules\ --cpu_mode arm
#        -On --use_c++_inline)
#    Locale       =  C
#    List file    =  E:\armipc\DDRRAM Debug\List\heap_5.lst
#    Object file  =  E:\armipc\DDRRAM Debug\Obj\heap_5.o
#
###############################################################################

E:\armipc\rtos\portable\MemMang\heap_5.c
      1          /*
      2              FreeRTOS V9.0.0 - Copyright (C) 2016 Real Time Engineers Ltd.
      3              All rights reserved
      4          
      5              VISIT http://www.FreeRTOS.org TO ENSURE YOU ARE USING THE LATEST VERSION.
      6          
      7              This file is part of the FreeRTOS distribution.
      8          
      9              FreeRTOS is free software; you can redistribute it and/or modify it under
     10              the terms of the GNU General Public License (version 2) as published by the
     11              Free Software Foundation >>>> AND MODIFIED BY <<<< the FreeRTOS exception.
     12          
     13              ***************************************************************************
     14              >>!   NOTE: The modification to the GPL is included to allow you to     !<<
     15              >>!   distribute a combined work that includes FreeRTOS without being   !<<
     16              >>!   obliged to provide the source code for proprietary components     !<<
     17              >>!   outside of the FreeRTOS kernel.                                   !<<
     18              ***************************************************************************
     19          
     20              FreeRTOS is distributed in the hope that it will be useful, but WITHOUT ANY
     21              WARRANTY; without even the implied warranty of MERCHANTABILITY or FITNESS
     22              FOR A PARTICULAR PURPOSE.  Full license text is available on the following
     23              link: http://www.freertos.org/a00114.html
     24          
     25              ***************************************************************************
     26               *                                                                       *
     27               *    FreeRTOS provides completely free yet professionally developed,    *
     28               *    robust, strictly quality controlled, supported, and cross          *
     29               *    platform software that is more than just the market leader, it     *
     30               *    is the industry's de facto standard.                               *
     31               *                                                                       *
     32               *    Help yourself get started quickly while simultaneously helping     *
     33               *    to support the FreeRTOS project by purchasing a FreeRTOS           *
     34               *    tutorial book, reference manual, or both:                          *
     35               *    http://www.FreeRTOS.org/Documentation                              *
     36               *                                                                       *
     37              ***************************************************************************
     38          
     39              http://www.FreeRTOS.org/FAQHelp.html - Having a problem?  Start by reading
     40              the FAQ page "My application does not run, what could be wrong?".  Have you
     41              defined configASSERT()?
     42          
     43              http://www.FreeRTOS.org/support - In return for receiving this top quality
     44              embedded software for free we request you assist our global community by
     45              participating in the support forum.
     46          
     47              http://www.FreeRTOS.org/training - Investing in training allows your team to
     48              be as productive as possible as early as possible.  Now you can receive
     49              FreeRTOS training directly from Richard Barry, CEO of Real Time Engineers
     50              Ltd, and the world's leading authority on the world's leading RTOS.
     51          
     52              http://www.FreeRTOS.org/plus - A selection of FreeRTOS ecosystem products,
     53              including FreeRTOS+Trace - an indispensable productivity tool, a DOS
     54              compatible FAT file system, and our tiny thread aware UDP/IP stack.
     55          
     56              http://www.FreeRTOS.org/labs - Where new FreeRTOS products go to incubate.
     57              Come and try FreeRTOS+TCP, our new open source TCP/IP stack for FreeRTOS.
     58          
     59              http://www.OpenRTOS.com - Real Time Engineers ltd. license FreeRTOS to High
     60              Integrity Systems ltd. to sell under the OpenRTOS brand.  Low cost OpenRTOS
     61              licenses offer ticketed support, indemnification and commercial middleware.
     62          
     63              http://www.SafeRTOS.com - High Integrity Systems also provide a safety
     64              engineered and independently SIL3 certified version for use in safety and
     65              mission critical applications that require provable dependability.
     66          
     67              1 tab == 4 spaces!
     68          */
     69          
     70          /*
     71           * A sample implementation of pvPortMalloc() that allows the heap to be defined
     72           * across multiple non-contigous blocks and combines (coalescences) adjacent
     73           * memory blocks as they are freed.
     74           *
     75           * See heap_1.c, heap_2.c, heap_3.c and heap_4.c for alternative
     76           * implementations, and the memory management pages of http://www.FreeRTOS.org
     77           * for more information.
     78           *
     79           * Usage notes:
     80           *
     81           * vPortDefineHeapRegions() ***must*** be called before pvPortMalloc().
     82           * pvPortMalloc() will be called if any task objects (tasks, queues, event
     83           * groups, etc.) are created, therefore vPortDefineHeapRegions() ***must*** be
     84           * called before any other objects are defined.
     85           *
     86           * vPortDefineHeapRegions() takes a single parameter.  The parameter is an array
     87           * of HeapRegion_t structures.  HeapRegion_t is defined in portable.h as
     88           *
     89           * typedef struct HeapRegion
     90           * {
     91           *	uint8_t *pucStartAddress; << Start address of a block of memory that will be part of the heap.
     92           *	size_t xSizeInBytes;	  << Size of the block of memory.
     93           * } HeapRegion_t;
     94           *
     95           * The array is terminated using a NULL zero sized region definition, and the
     96           * memory regions defined in the array ***must*** appear in address order from
     97           * low address to high address.  So the following is a valid example of how
     98           * to use the function.
     99           *
    100           * HeapRegion_t xHeapRegions[] =
    101           * {
    102           * 	{ ( uint8_t * ) 0x80000000UL, 0x10000 }, << Defines a block of 0x10000 bytes starting at address 0x80000000
    103           * 	{ ( uint8_t * ) 0x90000000UL, 0xa0000 }, << Defines a block of 0xa0000 bytes starting at address of 0x90000000
    104           * 	{ NULL, 0 }                << Terminates the array.
    105           * };
    106           *
    107           * vPortDefineHeapRegions( xHeapRegions ); << Pass the array into vPortDefineHeapRegions().
    108           *
    109           * Note 0x80000000 is the lower address so appears in the array first.
    110           *
    111           */
    112          #include <stdlib.h>
    113          
    114          /* Defining MPU_WRAPPERS_INCLUDED_FROM_API_FILE prevents task.h from redefining
    115          all the API functions to use the MPU wrappers.  That should only be done when
    116          task.h is included from an application file. */
    117          #define MPU_WRAPPERS_INCLUDED_FROM_API_FILE
    118          
    119          #include "../../include/FreeRTOS.h"
    120          #include "../../include/task.h"
    121          
    122          #undef MPU_WRAPPERS_INCLUDED_FROM_API_FILE
    123          
    124          #if( configSUPPORT_DYNAMIC_ALLOCATION == 0 )
    125          	#error This file must not be used if configSUPPORT_DYNAMIC_ALLOCATION is 0
    126          #endif
    127          
    128          /* Block sizes must not get too small. */
    129          #define heapMINIMUM_BLOCK_SIZE	( ( size_t ) ( xHeapStructSize << 1 ) )
    130          
    131          /* Assumes 8bit bytes! */
    132          #define heapBITS_PER_BYTE		( ( size_t ) 8 )
    133          
    134          /* Define the linked list structure.  This is used to link free blocks in order
    135          of their memory address. */
    136          typedef struct A_BLOCK_LINK
    137          {
    138          	struct A_BLOCK_LINK *pxNextFreeBlock;	/*<< The next free block in the list. */
    139          	size_t xBlockSize;						/*<< The size of the free block. */
    140          } BlockLink_t;
    141          
    142          /*-----------------------------------------------------------*/
    143          
    144          /*
    145           * Inserts a block of memory that is being freed into the correct position in
    146           * the list of free memory blocks.  The block being freed will be merged with
    147           * the block in front it and/or the block behind it if the memory blocks are
    148           * adjacent to each other.
    149           */
    150          static void prvInsertBlockIntoFreeList( BlockLink_t *pxBlockToInsert );
    151          
    152          /*-----------------------------------------------------------*/
    153          
    154          /* The size of the structure placed at the beginning of each allocated memory
    155          block must by correctly byte aligned. */

   \                                 In section .rodata, align 4
    156          static const size_t xHeapStructSize	= ( sizeof( BlockLink_t ) + ( ( size_t ) ( portBYTE_ALIGNMENT - 1 ) ) ) & ~( ( size_t ) portBYTE_ALIGNMENT_MASK );
   \                     xHeapStructSize:
   \   00000000   0x00000008         DC32 8
    157          
    158          /* Create a couple of list links to mark the start and end of the list. */

   \                                 In section .bss, align 4
    159          static BlockLink_t xStart, *pxEnd = NULL;
   \                     xStart:
   \   00000000                      DS8 8

   \                                 In section .bss, align 4
   \                     pxEnd:
   \   00000000                      DS8 4
    160          
    161          /* Keeps track of the number of free bytes remaining, but says nothing about
    162          fragmentation. */

   \                                 In section .bss, align 4
    163          static size_t xFreeBytesRemaining = 0U;
   \                     xFreeBytesRemaining:
   \   00000000                      DS8 4

   \                                 In section .bss, align 4
    164          static size_t xMinimumEverFreeBytesRemaining = 0U;
   \                     xMinimumEverFreeBytesRemaining:
   \   00000000                      DS8 4
    165          
    166          /* Gets set to the top bit of an size_t type.  When this bit in the xBlockSize
    167          member of an BlockLink_t structure is set then the block belongs to the
    168          application.  When the bit is free the block is still part of the free heap
    169          space. */

   \                                 In section .bss, align 4
    170          static size_t xBlockAllocatedBit = 0;
   \                     xBlockAllocatedBit:
   \   00000000                      DS8 4
    171          
    172          /*-----------------------------------------------------------*/
    173          

   \                                 In section .text, align 4, keep-with-next
    174          void *pvPortMalloc( size_t xWantedSize )
    175          {
   \                     pvPortMalloc:
   \   00000000   0xE92D41F0         PUSH     {R4-R8,LR}
   \   00000004   0xE1B04000         MOVS     R4,R0
    176          BlockLink_t *pxBlock, *pxPreviousBlock, *pxNewBlockLink;
    177          void *pvReturn = NULL;
   \   00000008   0xE3A08000         MOV      R8,#+0
    178          
    179          	/* The heap must be initialised before the first call to
    180          	prvPortMalloc(). */
    181          	configASSERT( pxEnd );
    182          
    183          	vTaskSuspendAll();
   \   0000000C   0x........         BL       vTaskSuspendAll
    184          	{
    185          		/* Check the requested block size is not so large that the top bit is
    186          		set.  The top bit of the block size member of the BlockLink_t structure
    187          		is used to determine who owns the block - the application or the
    188          		kernel, so it must be free. */
    189          		if( ( xWantedSize & xBlockAllocatedBit ) == 0 )
   \   00000010   0x........         LDR      R0,??DataTable5
   \   00000014   0xE5900000         LDR      R0,[R0, #+0]
   \   00000018   0xE1100004         TST      R0,R4
   \   0000001C   0x1A00004D         BNE      ??pvPortMalloc_0
    190          		{
    191          			/* The wanted size is increased so it can contain a BlockLink_t
    192          			structure in addition to the requested amount of bytes. */
    193          			if( xWantedSize > 0 )
   \   00000020   0xE3540000         CMP      R4,#+0
   \   00000024   0x0A000007         BEQ      ??pvPortMalloc_1
    194          			{
    195          				xWantedSize += xHeapStructSize;
   \   00000028   0x........         LDR      R0,??DataTable5_1
   \   0000002C   0xE5900000         LDR      R0,[R0, #+0]
   \   00000030   0xE0904004         ADDS     R4,R0,R4
    196          
    197          				/* Ensure that blocks are always aligned to the required number
    198          				of bytes. */
    199          				if( ( xWantedSize & portBYTE_ALIGNMENT_MASK ) != 0x00 )
   \   00000034   0xE3140007         TST      R4,#0x7
   \   00000038   0x0A000002         BEQ      ??pvPortMalloc_1
    200          				{
    201          					/* Byte alignment required. */
    202          					xWantedSize += ( portBYTE_ALIGNMENT - ( xWantedSize & portBYTE_ALIGNMENT_MASK ) );
   \   0000003C   0xE2940008         ADDS     R0,R4,#+8
   \   00000040   0xE2141007         ANDS     R1,R4,#0x7
   \   00000044   0xE0504001         SUBS     R4,R0,R1
    203          				}
    204          				else
    205          				{
    206          					mtCOVERAGE_TEST_MARKER();
    207          				}
    208          			}
    209          			else
    210          			{
    211          				mtCOVERAGE_TEST_MARKER();
    212          			}
    213          
    214          			if( ( xWantedSize > 0 ) && ( xWantedSize <= xFreeBytesRemaining ) )
   \                     ??pvPortMalloc_1:
   \   00000048   0xE3540000         CMP      R4,#+0
   \   0000004C   0x0A000041         BEQ      ??pvPortMalloc_0
   \   00000050   0x........         LDR      R0,??DataTable5_2
   \   00000054   0xE5900000         LDR      R0,[R0, #+0]
   \   00000058   0xE1500004         CMP      R0,R4
   \   0000005C   0x3A00003D         BCC      ??pvPortMalloc_0
    215          			{
    216          				/* Traverse the list from the start	(lowest address) block until
    217          				one	of adequate size is found. */
    218          				pxPreviousBlock = &xStart;
   \   00000060   0x........         LDR      R0,??DataTable5_3
   \   00000064   0xE1B06000         MOVS     R6,R0
    219          				pxBlock = xStart.pxNextFreeBlock;
   \   00000068   0x........         LDR      R0,??DataTable5_3
   \   0000006C   0xE5900000         LDR      R0,[R0, #+0]
   \   00000070   0xE1B05000         MOVS     R5,R0
    220          				while( ( pxBlock->xBlockSize < xWantedSize ) && ( pxBlock->pxNextFreeBlock != NULL ) )
   \                     ??pvPortMalloc_2:
   \   00000074   0xE5950004         LDR      R0,[R5, #+4]
   \   00000078   0xE1500004         CMP      R0,R4
   \   0000007C   0x2A000005         BCS      ??pvPortMalloc_3
   \   00000080   0xE5950000         LDR      R0,[R5, #+0]
   \   00000084   0xE3500000         CMP      R0,#+0
   \   00000088   0x0A000002         BEQ      ??pvPortMalloc_3
    221          				{
    222          					pxPreviousBlock = pxBlock;
   \   0000008C   0xE1B06005         MOVS     R6,R5
    223          					pxBlock = pxBlock->pxNextFreeBlock;
   \   00000090   0xE5955000         LDR      R5,[R5, #+0]
   \   00000094   0xEAFFFFF6         B        ??pvPortMalloc_2
    224          				}
    225          
    226          				/* If the end marker was reached then a block of adequate size
    227          				was	not found. */
    228          				if( pxBlock != pxEnd )
   \                     ??pvPortMalloc_3:
   \   00000098   0x........         LDR      R0,??DataTable5_4
   \   0000009C   0xE5900000         LDR      R0,[R0, #+0]
   \   000000A0   0xE1550000         CMP      R5,R0
   \   000000A4   0x0A00002B         BEQ      ??pvPortMalloc_0
    229          				{
    230          					/* Return the memory space pointed to - jumping over the
    231          					BlockLink_t structure at its start. */
    232          					pvReturn = ( void * ) ( ( ( uint8_t * ) pxPreviousBlock->pxNextFreeBlock ) + xHeapStructSize );
   \   000000A8   0xE5960000         LDR      R0,[R6, #+0]
   \   000000AC   0x........         LDR      R1,??DataTable5_1
   \   000000B0   0xE5911000         LDR      R1,[R1, #+0]
   \   000000B4   0xE0900001         ADDS     R0,R0,R1
   \   000000B8   0xE1B08000         MOVS     R8,R0
    233          
    234          					/* This block is being returned for use so must be taken out
    235          					of the list of free blocks. */
    236          					pxPreviousBlock->pxNextFreeBlock = pxBlock->pxNextFreeBlock;
   \   000000BC   0xE5950000         LDR      R0,[R5, #+0]
   \   000000C0   0xE5860000         STR      R0,[R6, #+0]
    237          
    238          					/* If the block is larger than required it can be split into
    239          					two. */
    240          					if( ( pxBlock->xBlockSize - xWantedSize ) > heapMINIMUM_BLOCK_SIZE )
   \   000000C4   0x........         LDR      R0,??DataTable5_1
   \   000000C8   0xE5900000         LDR      R0,[R0, #+0]
   \   000000CC   0xE5951004         LDR      R1,[R5, #+4]
   \   000000D0   0xE0511004         SUBS     R1,R1,R4
   \   000000D4   0xE1510080         CMP      R1,R0, LSL #+1
   \   000000D8   0x9A000007         BLS      ??pvPortMalloc_4
    241          					{
    242          						/* This block is to be split into two.  Create a new
    243          						block following the number of bytes requested. The void
    244          						cast is used to prevent byte alignment warnings from the
    245          						compiler. */
    246          						pxNewBlockLink = ( void * ) ( ( ( uint8_t * ) pxBlock ) + xWantedSize );
   \   000000DC   0xE0950004         ADDS     R0,R5,R4
   \   000000E0   0xE1B07000         MOVS     R7,R0
    247          
    248          						/* Calculate the sizes of two blocks split from the
    249          						single block. */
    250          						pxNewBlockLink->xBlockSize = pxBlock->xBlockSize - xWantedSize;
   \   000000E4   0xE5950004         LDR      R0,[R5, #+4]
   \   000000E8   0xE0500004         SUBS     R0,R0,R4
   \   000000EC   0xE5870004         STR      R0,[R7, #+4]
    251          						pxBlock->xBlockSize = xWantedSize;
   \   000000F0   0xE5854004         STR      R4,[R5, #+4]
    252          
    253          						/* Insert the new block into the list of free blocks. */
    254          						prvInsertBlockIntoFreeList( ( pxNewBlockLink ) );
   \   000000F4   0xE1B00007         MOVS     R0,R7
   \   000000F8   0x........         BL       prvInsertBlockIntoFreeList
    255          					}
    256          					else
    257          					{
    258          						mtCOVERAGE_TEST_MARKER();
    259          					}
    260          
    261          					xFreeBytesRemaining -= pxBlock->xBlockSize;
   \                     ??pvPortMalloc_4:
   \   000000FC   0x........         LDR      R0,??DataTable5_2
   \   00000100   0xE5900000         LDR      R0,[R0, #+0]
   \   00000104   0xE5951004         LDR      R1,[R5, #+4]
   \   00000108   0xE0500001         SUBS     R0,R0,R1
   \   0000010C   0x........         LDR      R1,??DataTable5_2
   \   00000110   0xE5810000         STR      R0,[R1, #+0]
    262          
    263          					if( xFreeBytesRemaining < xMinimumEverFreeBytesRemaining )
   \   00000114   0x........         LDR      R0,??DataTable5_2
   \   00000118   0xE5900000         LDR      R0,[R0, #+0]
   \   0000011C   0x........         LDR      R1,??DataTable5_5
   \   00000120   0xE5911000         LDR      R1,[R1, #+0]
   \   00000124   0xE1500001         CMP      R0,R1
   \   00000128   0x2A000003         BCS      ??pvPortMalloc_5
    264          					{
    265          						xMinimumEverFreeBytesRemaining = xFreeBytesRemaining;
   \   0000012C   0x........         LDR      R0,??DataTable5_2
   \   00000130   0xE5900000         LDR      R0,[R0, #+0]
   \   00000134   0x........         LDR      R1,??DataTable5_5
   \   00000138   0xE5810000         STR      R0,[R1, #+0]
    266          					}
    267          					else
    268          					{
    269          						mtCOVERAGE_TEST_MARKER();
    270          					}
    271          
    272          					/* The block is being returned - it is allocated and owned
    273          					by the application and has no "next" block. */
    274          					pxBlock->xBlockSize |= xBlockAllocatedBit;
   \                     ??pvPortMalloc_5:
   \   0000013C   0xE5950004         LDR      R0,[R5, #+4]
   \   00000140   0x........         LDR      R1,??DataTable5
   \   00000144   0xE5911000         LDR      R1,[R1, #+0]
   \   00000148   0xE1910000         ORRS     R0,R1,R0
   \   0000014C   0xE5850004         STR      R0,[R5, #+4]
    275          					pxBlock->pxNextFreeBlock = NULL;
   \   00000150   0xE3A00000         MOV      R0,#+0
   \   00000154   0xE5850000         STR      R0,[R5, #+0]
    276          				}
    277          				else
    278          				{
    279          					mtCOVERAGE_TEST_MARKER();
    280          				}
    281          			}
    282          			else
    283          			{
    284          				mtCOVERAGE_TEST_MARKER();
    285          			}
    286          		}
    287          		else
    288          		{
    289          			mtCOVERAGE_TEST_MARKER();
    290          		}
    291          
    292          		traceMALLOC( pvReturn, xWantedSize );
    293          	}
    294          	( void ) xTaskResumeAll();
   \                     ??pvPortMalloc_0:
   \   00000158   0x........         BL       xTaskResumeAll
    295          
    296          	#if( configUSE_MALLOC_FAILED_HOOK == 1 )
    297          	{
    298          		if( pvReturn == NULL )
    299          		{
    300          			extern void vApplicationMallocFailedHook( void );
    301          			vApplicationMallocFailedHook();
    302          		}
    303          		else
    304          		{
    305          			mtCOVERAGE_TEST_MARKER();
    306          		}
    307          	}
    308          	#endif
    309          
    310          	return pvReturn;
   \   0000015C   0xE1B00008         MOVS     R0,R8
   \   00000160   0xE8BD81F0         POP      {R4-R8,PC}       ;; return
    311          }
    312          /*-----------------------------------------------------------*/
    313          

   \                                 In section .text, align 4, keep-with-next
    314          void vPortFree( void *pv )
    315          {
   \                     vPortFree:
   \   00000000   0xE92D4070         PUSH     {R4-R6,LR}
   \   00000004   0xE1B05000         MOVS     R5,R0
    316          uint8_t *puc = ( uint8_t * ) pv;
   \   00000008   0xE1B06005         MOVS     R6,R5
    317          BlockLink_t *pxLink;
    318          
    319          	if( pv != NULL )
   \   0000000C   0xE3550000         CMP      R5,#+0
   \   00000010   0x0A00001B         BEQ      ??vPortFree_0
    320          	{
    321          		/* The memory being freed will have an BlockLink_t structure immediately
    322          		before it. */
    323          		puc -= xHeapStructSize;
   \   00000014   0x........         LDR      R0,??DataTable5_1
   \   00000018   0xE5900000         LDR      R0,[R0, #+0]
   \   0000001C   0xE2700000         RSBS     R0,R0,#+0
   \   00000020   0xE0966000         ADDS     R6,R6,R0
    324          
    325          		/* This casting is to keep the compiler from issuing warnings. */
    326          		pxLink = ( void * ) puc;
   \   00000024   0xE1B04006         MOVS     R4,R6
    327          
    328          		/* Check the block is actually allocated. */
    329          		configASSERT( ( pxLink->xBlockSize & xBlockAllocatedBit ) != 0 );
    330          		configASSERT( pxLink->pxNextFreeBlock == NULL );
    331          
    332          		if( ( pxLink->xBlockSize & xBlockAllocatedBit ) != 0 )
   \   00000028   0xE5940004         LDR      R0,[R4, #+4]
   \   0000002C   0x........         LDR      R1,??DataTable5
   \   00000030   0xE5911000         LDR      R1,[R1, #+0]
   \   00000034   0xE1110000         TST      R1,R0
   \   00000038   0x0A000011         BEQ      ??vPortFree_0
    333          		{
    334          			if( pxLink->pxNextFreeBlock == NULL )
   \   0000003C   0xE5940000         LDR      R0,[R4, #+0]
   \   00000040   0xE3500000         CMP      R0,#+0
   \   00000044   0x1A00000E         BNE      ??vPortFree_0
    335          			{
    336          				/* The block is being returned to the heap - it is no longer
    337          				allocated. */
    338          				pxLink->xBlockSize &= ~xBlockAllocatedBit;
   \   00000048   0xE5940004         LDR      R0,[R4, #+4]
   \   0000004C   0x........         LDR      R1,??DataTable5
   \   00000050   0xE5911000         LDR      R1,[R1, #+0]
   \   00000054   0xE1D00001         BICS     R0,R0,R1
   \   00000058   0xE5840004         STR      R0,[R4, #+4]
    339          
    340          				vTaskSuspendAll();
   \   0000005C   0x........         BL       vTaskSuspendAll
    341          				{
    342          					/* Add this block to the list of free blocks. */
    343          					xFreeBytesRemaining += pxLink->xBlockSize;
   \   00000060   0x........         LDR      R0,??DataTable5_2
   \   00000064   0xE5900000         LDR      R0,[R0, #+0]
   \   00000068   0xE5941004         LDR      R1,[R4, #+4]
   \   0000006C   0xE0910000         ADDS     R0,R1,R0
   \   00000070   0x........         LDR      R1,??DataTable5_2
   \   00000074   0xE5810000         STR      R0,[R1, #+0]
    344          					traceFREE( pv, pxLink->xBlockSize );
    345          					prvInsertBlockIntoFreeList( ( ( BlockLink_t * ) pxLink ) );
   \   00000078   0xE1B00004         MOVS     R0,R4
   \   0000007C   0x........         BL       prvInsertBlockIntoFreeList
    346          				}
    347          				( void ) xTaskResumeAll();
   \   00000080   0x........         BL       xTaskResumeAll
    348          			}
    349          			else
    350          			{
    351          				mtCOVERAGE_TEST_MARKER();
    352          			}
    353          		}
    354          		else
    355          		{
    356          			mtCOVERAGE_TEST_MARKER();
    357          		}
    358          	}
    359          }
   \                     ??vPortFree_0:
   \   00000084   0xE8BD8070         POP      {R4-R6,PC}       ;; return
    360          /*-----------------------------------------------------------*/
    361          

   \                                 In section .text, align 4, keep-with-next
    362          size_t xPortGetFreeHeapSize( void )
    363          {
    364          	return xFreeBytesRemaining;
   \                     xPortGetFreeHeapSize:
   \   00000000   0x........         LDR      R0,??DataTable5_2
   \   00000004   0xE5900000         LDR      R0,[R0, #+0]
   \   00000008   0xE12FFF1E         BX       LR               ;; return
    365          }
    366          /*-----------------------------------------------------------*/
    367          

   \                                 In section .text, align 4, keep-with-next
    368          size_t xPortGetMinimumEverFreeHeapSize( void )
    369          {
    370          	return xMinimumEverFreeBytesRemaining;
   \                     xPortGetMinimumEverFreeHeapSize:
   \   00000000   0x........         LDR      R0,??DataTable5_5
   \   00000004   0xE5900000         LDR      R0,[R0, #+0]
   \   00000008   0xE12FFF1E         BX       LR               ;; return
    371          }
    372          /*-----------------------------------------------------------*/
    373          

   \                                 In section .text, align 4, keep-with-next
    374          static void prvInsertBlockIntoFreeList( BlockLink_t *pxBlockToInsert )
    375          {
   \                     prvInsertBlockIntoFreeList:
   \   00000000   0xE92D4000         PUSH     {LR}
    376          BlockLink_t *pxIterator;
    377          uint8_t *puc;
    378          
    379          	/* Iterate through the list until a block is found that has a higher address
    380          	than the block being inserted. */
    381          	for( pxIterator = &xStart; pxIterator->pxNextFreeBlock < pxBlockToInsert; pxIterator = pxIterator->pxNextFreeBlock )
   \   00000004   0x........         LDR      R1,??DataTable5_3
   \                     ??prvInsertBlockIntoFreeList_0:
   \   00000008   0xE5912000         LDR      R2,[R1, #+0]
   \   0000000C   0xE1520000         CMP      R2,R0
   \   00000010   0x2A000001         BCS      ??prvInsertBlockIntoFreeList_1
   \   00000014   0xE5911000         LDR      R1,[R1, #+0]
   \   00000018   0xEAFFFFFA         B        ??prvInsertBlockIntoFreeList_0
    382          	{
    383          		/* Nothing to do here, just iterate to the right position. */
    384          	}
    385          
    386          	/* Do the block being inserted, and the block it is being inserted after
    387          	make a contiguous block of memory? */
    388          	puc = ( uint8_t * ) pxIterator;
   \                     ??prvInsertBlockIntoFreeList_1:
   \   0000001C   0xE1B03001         MOVS     R3,R1
    389          	if( ( puc + pxIterator->xBlockSize ) == ( uint8_t * ) pxBlockToInsert )
   \   00000020   0xE5912004         LDR      R2,[R1, #+4]
   \   00000024   0xE0932002         ADDS     R2,R3,R2
   \   00000028   0xE1520000         CMP      R2,R0
   \   0000002C   0x1A000004         BNE      ??prvInsertBlockIntoFreeList_2
    390          	{
    391          		pxIterator->xBlockSize += pxBlockToInsert->xBlockSize;
   \   00000030   0xE5912004         LDR      R2,[R1, #+4]
   \   00000034   0xE590C004         LDR      R12,[R0, #+4]
   \   00000038   0xE09C2002         ADDS     R2,R12,R2
   \   0000003C   0xE5812004         STR      R2,[R1, #+4]
    392          		pxBlockToInsert = pxIterator;
   \   00000040   0xE1B00001         MOVS     R0,R1
    393          	}
    394          	else
    395          	{
    396          		mtCOVERAGE_TEST_MARKER();
    397          	}
    398          
    399          	/* Do the block being inserted, and the block it is being inserted before
    400          	make a contiguous block of memory? */
    401          	puc = ( uint8_t * ) pxBlockToInsert;
   \                     ??prvInsertBlockIntoFreeList_2:
   \   00000044   0xE1B02000         MOVS     R2,R0
    402          	if( ( puc + pxBlockToInsert->xBlockSize ) == ( uint8_t * ) pxIterator->pxNextFreeBlock )
   \   00000048   0xE590C004         LDR      R12,[R0, #+4]
   \   0000004C   0xE092C00C         ADDS     R12,R2,R12
   \   00000050   0xE591E000         LDR      LR,[R1, #+0]
   \   00000054   0xE15C000E         CMP      R12,LR
   \   00000058   0x1A000011         BNE      ??prvInsertBlockIntoFreeList_3
    403          	{
    404          		if( pxIterator->pxNextFreeBlock != pxEnd )
   \   0000005C   0xE5913000         LDR      R3,[R1, #+0]
   \   00000060   0x........         LDR      R12,??DataTable5_4
   \   00000064   0xE59CC000         LDR      R12,[R12, #+0]
   \   00000068   0xE153000C         CMP      R3,R12
   \   0000006C   0x0A000008         BEQ      ??prvInsertBlockIntoFreeList_4
    405          		{
    406          			/* Form one big block from the two blocks. */
    407          			pxBlockToInsert->xBlockSize += pxIterator->pxNextFreeBlock->xBlockSize;
   \   00000070   0xE5903004         LDR      R3,[R0, #+4]
   \   00000074   0xE591C000         LDR      R12,[R1, #+0]
   \   00000078   0xE59CC004         LDR      R12,[R12, #+4]
   \   0000007C   0xE09C3003         ADDS     R3,R12,R3
   \   00000080   0xE5803004         STR      R3,[R0, #+4]
    408          			pxBlockToInsert->pxNextFreeBlock = pxIterator->pxNextFreeBlock->pxNextFreeBlock;
   \   00000084   0xE5913000         LDR      R3,[R1, #+0]
   \   00000088   0xE5933000         LDR      R3,[R3, #+0]
   \   0000008C   0xE5803000         STR      R3,[R0, #+0]
   \   00000090   0xEA000005         B        ??prvInsertBlockIntoFreeList_5
    409          		}
    410          		else
    411          		{
    412          			pxBlockToInsert->pxNextFreeBlock = pxEnd;
   \                     ??prvInsertBlockIntoFreeList_4:
   \   00000094   0x........         LDR      R3,??DataTable5_4
   \   00000098   0xE5933000         LDR      R3,[R3, #+0]
   \   0000009C   0xE5803000         STR      R3,[R0, #+0]
   \   000000A0   0xEA000001         B        ??prvInsertBlockIntoFreeList_5
    413          		}
    414          	}
    415          	else
    416          	{
    417          		pxBlockToInsert->pxNextFreeBlock = pxIterator->pxNextFreeBlock;
   \                     ??prvInsertBlockIntoFreeList_3:
   \   000000A4   0xE5913000         LDR      R3,[R1, #+0]
   \   000000A8   0xE5803000         STR      R3,[R0, #+0]
    418          	}
    419          
    420          	/* If the block being inserted plugged a gab, so was merged with the block
    421          	before and the block after, then it's pxNextFreeBlock pointer will have
    422          	already been set, and should not be set here as that would make it point
    423          	to itself. */
    424          	if( pxIterator != pxBlockToInsert )
   \                     ??prvInsertBlockIntoFreeList_5:
   \   000000AC   0xE1510000         CMP      R1,R0
   \   000000B0   0x0A000000         BEQ      ??prvInsertBlockIntoFreeList_6
    425          	{
    426          		pxIterator->pxNextFreeBlock = pxBlockToInsert;
   \   000000B4   0xE5810000         STR      R0,[R1, #+0]
    427          	}
    428          	else
    429          	{
    430          		mtCOVERAGE_TEST_MARKER();
    431          	}
    432          }
   \                     ??prvInsertBlockIntoFreeList_6:
   \   000000B8   0xE8BD8000         POP      {PC}             ;; return
    433          /*-----------------------------------------------------------*/
    434          

   \                                 In section .text, align 4, keep-with-next
    435          void vPortDefineHeapRegions( const HeapRegion_t * const pxHeapRegions )
    436          {
   \                     vPortDefineHeapRegions:
   \   00000000   0xE92D43F0         PUSH     {R4-R9,LR}
    437          BlockLink_t *pxFirstFreeBlockInRegion = NULL, *pxPreviousFreeBlock;
   \   00000004   0xE3A0C000         MOV      R12,#+0
    438          size_t xAlignedHeap;
    439          size_t xTotalRegionSize, xTotalHeapSize = 0;
   \   00000008   0xE3A0E000         MOV      LR,#+0
    440          BaseType_t xDefinedRegions = 0;
   \   0000000C   0xE3A04000         MOV      R4,#+0
    441          size_t xAddress;
    442          const HeapRegion_t *pxHeapRegion;
    443          
    444          	/* Can only call once! */
    445          	configASSERT( pxEnd == NULL );
    446          
    447          	pxHeapRegion = &( pxHeapRegions[ xDefinedRegions ] );
   \   00000010   0xE1B05184         LSLS     R5,R4,#+3
   \   00000014   0xE0905005         ADDS     R5,R0,R5
    448          
    449          	while( pxHeapRegion->xSizeInBytes > 0 )
   \                     ??vPortDefineHeapRegions_0:
   \   00000018   0xE5956004         LDR      R6,[R5, #+4]
   \   0000001C   0xE3560000         CMP      R6,#+0
   \   00000020   0x0A000033         BEQ      ??vPortDefineHeapRegions_1
    450          	{
    451          		xTotalRegionSize = pxHeapRegion->xSizeInBytes;
   \   00000024   0xE5956004         LDR      R6,[R5, #+4]
   \   00000028   0xE1B02006         MOVS     R2,R6
    452          
    453          		/* Ensure the heap region starts on a correctly aligned boundary. */
    454          		xAddress = ( size_t ) pxHeapRegion->pucStartAddress;
   \   0000002C   0xE5956000         LDR      R6,[R5, #+0]
    455          		if( ( xAddress & portBYTE_ALIGNMENT_MASK ) != 0 )
   \   00000030   0xE3160007         TST      R6,#0x7
   \   00000034   0x0A000004         BEQ      ??vPortDefineHeapRegions_2
    456          		{
    457          			xAddress += ( portBYTE_ALIGNMENT - 1 );
   \   00000038   0xE2966007         ADDS     R6,R6,#+7
    458          			xAddress &= ~portBYTE_ALIGNMENT_MASK;
   \   0000003C   0xE3D66007         BICS     R6,R6,#0x7
    459          
    460          			/* Adjust the size for the bytes lost to alignment. */
    461          			xTotalRegionSize -= xAddress - ( size_t ) pxHeapRegion->pucStartAddress;
   \   00000040   0xE0522006         SUBS     R2,R2,R6
   \   00000044   0xE5957000         LDR      R7,[R5, #+0]
   \   00000048   0xE0972002         ADDS     R2,R7,R2
    462          		}
    463          
    464          		xAlignedHeap = xAddress;
   \                     ??vPortDefineHeapRegions_2:
   \   0000004C   0xE1B01006         MOVS     R1,R6
    465          
    466          		/* Set xStart if it has not already been set. */
    467          		if( xDefinedRegions == 0 )
   \   00000050   0xE3540000         CMP      R4,#+0
   \   00000054   0x1A000004         BNE      ??vPortDefineHeapRegions_3
    468          		{
    469          			/* xStart is used to hold a pointer to the first item in the list of
    470          			free blocks.  The void cast is used to prevent compiler warnings. */
    471          			xStart.pxNextFreeBlock = ( BlockLink_t * ) xAlignedHeap;
   \   00000058   0x........         LDR      R7,??DataTable5_3
   \   0000005C   0xE5871000         STR      R1,[R7, #+0]
    472          			xStart.xBlockSize = ( size_t ) 0;
   \   00000060   0xE3A07000         MOV      R7,#+0
   \   00000064   0x........         LDR      R8,??DataTable5_3
   \   00000068   0xE5887004         STR      R7,[R8, #+4]
    473          		}
    474          		else
    475          		{
    476          			/* Should only get here if one region has already been added to the
    477          			heap. */
    478          			configASSERT( pxEnd != NULL );
    479          
    480          			/* Check blocks are passed in with increasing start addresses. */
    481          			configASSERT( xAddress > ( size_t ) pxEnd );
    482          		}
    483          
    484          		/* Remember the location of the end marker in the previous region, if
    485          		any. */
    486          		pxPreviousFreeBlock = pxEnd;
   \                     ??vPortDefineHeapRegions_3:
   \   0000006C   0x........         LDR      R7,??DataTable5_4
   \   00000070   0xE5977000         LDR      R7,[R7, #+0]
   \   00000074   0xE1B03007         MOVS     R3,R7
    487          
    488          		/* pxEnd is used to mark the end of the list of free blocks and is
    489          		inserted at the end of the region space. */
    490          		xAddress = xAlignedHeap + xTotalRegionSize;
   \   00000078   0xE0927001         ADDS     R7,R2,R1
    491          		xAddress -= xHeapStructSize;
   \   0000007C   0x........         LDR      R8,??DataTable5_1
   \   00000080   0xE5988000         LDR      R8,[R8, #+0]
   \   00000084   0xE0577008         SUBS     R7,R7,R8
    492          		xAddress &= ~portBYTE_ALIGNMENT_MASK;
   \   00000088   0xE3D77007         BICS     R7,R7,#0x7
    493          		pxEnd = ( BlockLink_t * ) xAddress;
   \   0000008C   0x........         LDR      R8,??DataTable5_4
   \   00000090   0xE5887000         STR      R7,[R8, #+0]
    494          		pxEnd->xBlockSize = 0;
   \   00000094   0xE3A08000         MOV      R8,#+0
   \   00000098   0x........         LDR      R9,??DataTable5_4
   \   0000009C   0xE5999000         LDR      R9,[R9, #+0]
   \   000000A0   0xE5898004         STR      R8,[R9, #+4]
    495          		pxEnd->pxNextFreeBlock = NULL;
   \   000000A4   0xE3A08000         MOV      R8,#+0
   \   000000A8   0x........         LDR      R9,??DataTable5_4
   \   000000AC   0xE5999000         LDR      R9,[R9, #+0]
   \   000000B0   0xE5898000         STR      R8,[R9, #+0]
    496          
    497          		/* To start with there is a single free block in this region that is
    498          		sized to take up the entire heap region minus the space taken by the
    499          		free block structure. */
    500          		pxFirstFreeBlockInRegion = ( BlockLink_t * ) xAlignedHeap;
   \   000000B4   0xE1B0C001         MOVS     R12,R1
    501          		pxFirstFreeBlockInRegion->xBlockSize = xAddress - ( size_t ) pxFirstFreeBlockInRegion;
   \   000000B8   0xE057800C         SUBS     R8,R7,R12
   \   000000BC   0xE58C8004         STR      R8,[R12, #+4]
    502          		pxFirstFreeBlockInRegion->pxNextFreeBlock = pxEnd;
   \   000000C0   0x........         LDR      R8,??DataTable5_4
   \   000000C4   0xE5988000         LDR      R8,[R8, #+0]
   \   000000C8   0xE58C8000         STR      R8,[R12, #+0]
    503          
    504          		/* If this is not the first region that makes up the entire heap space
    505          		then link the previous region to this region. */
    506          		if( pxPreviousFreeBlock != NULL )
   \   000000CC   0xE3530000         CMP      R3,#+0
   \   000000D0   0x0A000000         BEQ      ??vPortDefineHeapRegions_4
    507          		{
    508          			pxPreviousFreeBlock->pxNextFreeBlock = pxFirstFreeBlockInRegion;
   \   000000D4   0xE583C000         STR      R12,[R3, #+0]
    509          		}
    510          
    511          		xTotalHeapSize += pxFirstFreeBlockInRegion->xBlockSize;
   \                     ??vPortDefineHeapRegions_4:
   \   000000D8   0xE59C6004         LDR      R6,[R12, #+4]
   \   000000DC   0xE096E00E         ADDS     LR,R6,LR
    512          
    513          		/* Move onto the next HeapRegion_t structure. */
    514          		xDefinedRegions++;
   \   000000E0   0xE2944001         ADDS     R4,R4,#+1
    515          		pxHeapRegion = &( pxHeapRegions[ xDefinedRegions ] );
   \   000000E4   0xE1B06184         LSLS     R6,R4,#+3
   \   000000E8   0xE0906006         ADDS     R6,R0,R6
   \   000000EC   0xE1B05006         MOVS     R5,R6
   \   000000F0   0xEAFFFFC8         B        ??vPortDefineHeapRegions_0
    516          	}
    517          
    518          	xMinimumEverFreeBytesRemaining = xTotalHeapSize;
   \                     ??vPortDefineHeapRegions_1:
   \   000000F4   0x........         LDR      R6,??DataTable5_5
   \   000000F8   0xE586E000         STR      LR,[R6, #+0]
    519          	xFreeBytesRemaining = xTotalHeapSize;
   \   000000FC   0x........         LDR      R6,??DataTable5_2
   \   00000100   0xE586E000         STR      LR,[R6, #+0]
    520          
    521          	/* Check something was actually defined before it is accessed. */
    522          	configASSERT( xTotalHeapSize );
    523          
    524          	/* Work out the position of the top bit in a size_t variable. */
    525          	xBlockAllocatedBit = ( ( size_t ) 1 ) << ( ( sizeof( size_t ) * heapBITS_PER_BYTE ) - 1 );
   \   00000104   0xE3A06480         MOV      R6,#-2147483648
   \   00000108   0x........         LDR      R8,??DataTable5
   \   0000010C   0xE5886000         STR      R6,[R8, #+0]
    526          }
   \   00000110   0xE8BD83F0         POP      {R4-R9,PC}       ;; return

   \                                 In section .text, align 4, keep-with-next
   \                     ??DataTable5:
   \   00000000   0x........         DC32     xBlockAllocatedBit

   \                                 In section .text, align 4, keep-with-next
   \                     ??DataTable5_1:
   \   00000000   0x........         DC32     xHeapStructSize

   \                                 In section .text, align 4, keep-with-next
   \                     ??DataTable5_2:
   \   00000000   0x........         DC32     xFreeBytesRemaining

   \                                 In section .text, align 4, keep-with-next
   \                     ??DataTable5_3:
   \   00000000   0x........         DC32     xStart

   \                                 In section .text, align 4, keep-with-next
   \                     ??DataTable5_4:
   \   00000000   0x........         DC32     pxEnd

   \                                 In section .text, align 4, keep-with-next
   \                     ??DataTable5_5:
   \   00000000   0x........         DC32     xMinimumEverFreeBytesRemaining
    527          

   Maximum stack usage in bytes:

   .cstack Function
   ------- --------
       4   prvInsertBlockIntoFreeList
      24   pvPortMalloc
        24   -> prvInsertBlockIntoFreeList
        24   -> vTaskSuspendAll
        24   -> xTaskResumeAll
      28   vPortDefineHeapRegions
      16   vPortFree
        16   -> prvInsertBlockIntoFreeList
        16   -> vTaskSuspendAll
        16   -> xTaskResumeAll
       0   xPortGetFreeHeapSize
       0   xPortGetMinimumEverFreeHeapSize


   Section sizes:

   Bytes  Function/Label
   -----  --------------
       4  ??DataTable5
       4  ??DataTable5_1
       4  ??DataTable5_2
       4  ??DataTable5_3
       4  ??DataTable5_4
       4  ??DataTable5_5
     188  prvInsertBlockIntoFreeList
     356  pvPortMalloc
       4  pxEnd
     276  vPortDefineHeapRegions
     136  vPortFree
       4  xBlockAllocatedBit
       4  xFreeBytesRemaining
       4  xHeapStructSize
       4  xMinimumEverFreeBytesRemaining
      12  xPortGetFreeHeapSize
      12  xPortGetMinimumEverFreeHeapSize
       8  xStart

 
    24 bytes in section .bss
     4 bytes in section .rodata
 1 004 bytes in section .text
 
 1 004 bytes of CODE  memory
     4 bytes of CONST memory
    24 bytes of DATA  memory

Errors: none
Warnings: none
