###############################################################################
#
# IAR ANSI C/C++ Compiler V8.30.1.114/W32 for ARM         10/Dec/2019  12:06:38
# Copyright 1999-2018 IAR Systems AB.
#
#    Cpu mode     =  arm
#    Endian       =  little
#    Source file  =  E:\armipc\lwip\core\ipv4\ip_frag.c
#    Command line =  
#        -f C:\Users\Bill\AppData\Local\Temp\EW5BD8.tmp
#        (E:\armipc\lwip\core\ipv4\ip_frag.c -D DDRRAM_EXEC -D MMU_ENA -lC
#        "E:\armipc\DDRRAM Debug\List" -o "E:\armipc\DDRRAM Debug\Obj" --no_cse
#        --no_unroll --no_inline --no_code_motion --no_tbaa --no_clustering
#        --no_scheduling --debug --endian=little --cpu=ARM926EJ-S -e --fpu=None
#        --dlib_config "C:\Program Files\IAR Systems\Embedded Workbench
#        8.1\arm\inc\c\DLib_Config_Normal.h" -I E:\armipc\ -I E:\armipc\board\
#        -I E:\armipc\modules\ -I E:\armipc\lwip\include\lwip\ -I
#        E:\armipc\lwip\include\arch\ -I E:\armipc\rtos\include\ -I
#        E:\armipc\lwip\include\IPV4\lwip\ -I E:\armipc\lwip\netif\ppp\
#        --cpu_mode arm -On --use_c++_inline)
#    Locale       =  C
#    List file    =  E:\armipc\DDRRAM Debug\List\ip_frag.lst
#    Object file  =  E:\armipc\DDRRAM Debug\Obj\ip_frag.o
#
###############################################################################

E:\armipc\lwip\core\ipv4\ip_frag.c
      1          /* @file
      2           * 
      3           * This is the IP packet segmentation and reassembly implementation.
      4           *
      5           */
      6          
      7          /*
      8           * Copyright (c) 2001-2004 Swedish Institute of Computer Science.
      9           * All rights reserved. 
     10           * 
     11           * Redistribution and use in source and binary forms, with or without modification, 
     12           * are permitted provided that the following conditions are met:
     13           *
     14           * 1. Redistributions of source code must retain the above copyright notice,
     15           *    this list of conditions and the following disclaimer.
     16           * 2. Redistributions in binary form must reproduce the above copyright notice,
     17           *    this list of conditions and the following disclaimer in the documentation
     18           *    and/or other materials provided with the distribution.
     19           * 3. The name of the author may not be used to endorse or promote products
     20           *    derived from this software without specific prior written permission. 
     21           *
     22           * THIS SOFTWARE IS PROVIDED BY THE AUTHOR ``AS IS'' AND ANY EXPRESS OR IMPLIED 
     23           * WARRANTIES, INCLUDING, BUT NOT LIMITED TO, THE IMPLIED WARRANTIES OF 
     24           * MERCHANTABILITY AND FITNESS FOR A PARTICULAR PURPOSE ARE DISCLAIMED. IN NO EVENT 
     25           * SHALL THE AUTHOR BE LIABLE FOR ANY DIRECT, INDIRECT, INCIDENTAL, SPECIAL, 
     26           * EXEMPLARY, OR CONSEQUENTIAL DAMAGES (INCLUDING, BUT NOT LIMITED TO, PROCUREMENT 
     27           * OF SUBSTITUTE GOODS OR SERVICES; LOSS OF USE, DATA, OR PROFITS; OR BUSINESS 
     28           * INTERRUPTION) HOWEVER CAUSED AND ON ANY THEORY OF LIABILITY, WHETHER IN 
     29           * CONTRACT, STRICT LIABILITY, OR TORT (INCLUDING NEGLIGENCE OR OTHERWISE) ARISING 
     30           * IN ANY WAY OUT OF THE USE OF THIS SOFTWARE, EVEN IF ADVISED OF THE POSSIBILITY 
     31           * OF SUCH DAMAGE.
     32           *
     33           * This file is part of the lwIP TCP/IP stack.
     34           * 
     35           * Author: Jani Monoses <jani@iv.ro> 
     36           * original reassembly code by Adam Dunkels <adam@sics.se>
     37           * 
     38           */
     39          
     40          #include <string.h>
     41          
     42          #include "opt.h"
     43          /* #include "lwip/sys.h" */
     44          #include "ip.h"
     45          #include "ip_frag.h"
     46          #include "netif.h"
     47          #include "stats.h"
     48          
     49          
     50          /*
     51           * Copy len bytes from offset in pbuf to buffer 
     52           *
     53           * helper used by both ip_reass and ip_frag
     54           */

   \                                 In section .text, align 4, keep-with-next
     55          static struct pbuf *
     56          copy_from_pbuf(struct pbuf *p, u16_t * offset,
     57                     u8_t * buffer, u16_t len)
     58          {
   \                     copy_from_pbuf:
   \        0x0   0xE92D'4FF8        PUSH     {R3-R11,LR}
   \        0x4   0xE1B0'4000        MOVS     R4,R0
   \        0x8   0xE1B0'5001        MOVS     R5,R1
   \        0xC   0xE1B0'6002        MOVS     R6,R2
   \       0x10   0xE1B0'7003        MOVS     R7,R3
     59            u16_t l;
     60          
     61            p->payload = (u8_t *)p->payload + *offset;
   \       0x14   0xE594'0004        LDR      R0,[R4, #+4]
   \       0x18   0xE1D5'10B0        LDRH     R1,[R5, #+0]
   \       0x1C   0xE090'0001        ADDS     R0,R0,R1
   \       0x20   0xE584'0004        STR      R0,[R4, #+4]
     62            p->len -= *offset;
   \       0x24   0xE1D4'00BA        LDRH     R0,[R4, #+10]
   \       0x28   0xE1D5'10B0        LDRH     R1,[R5, #+0]
   \       0x2C   0xE050'0001        SUBS     R0,R0,R1
   \       0x30   0xE1C4'00BA        STRH     R0,[R4, #+10]
     63            while (len) {
   \                     ??copy_from_pbuf_0:
   \       0x34   0xE1B0'0007        MOVS     R0,R7
   \       0x38   0xE1A0'0800        LSL      R0,R0,#+16
   \       0x3C   0xE1B0'0820        LSRS     R0,R0,#+16
   \       0x40   0xE350'0000        CMP      R0,#+0
   \       0x44   0x0A00'0020        BEQ      ??copy_from_pbuf_1
     64              l = len < p->len ? len : p->len;
   \       0x48   0xE1B0'0007        MOVS     R0,R7
   \       0x4C   0xE1D4'10BA        LDRH     R1,[R4, #+10]
   \       0x50   0xE1A0'0800        LSL      R0,R0,#+16
   \       0x54   0xE1B0'0820        LSRS     R0,R0,#+16
   \       0x58   0xE150'0001        CMP      R0,R1
   \       0x5C   0x2A00'0001        BCS      ??copy_from_pbuf_2
   \       0x60   0xE1B0'8007        MOVS     R8,R7
   \       0x64   0xEA00'0000        B        ??copy_from_pbuf_3
   \                     ??copy_from_pbuf_2:
   \       0x68   0xE1D4'80BA        LDRH     R8,[R4, #+10]
     65              memcpy(buffer, p->payload, l);
   \                     ??copy_from_pbuf_3:
   \       0x6C   0xE1B0'9008        MOVS     R9,R8
   \       0x70   0xE1A0'9809        LSL      R9,R9,#+16
   \       0x74   0xE1B0'9829        LSRS     R9,R9,#+16
   \       0x78   0xE594'A004        LDR      R10,[R4, #+4]
   \       0x7C   0xE1B0'B006        MOVS     R11,R6
   \       0x80   0xE1B0'2009        MOVS     R2,R9
   \       0x84   0xE1B0'100A        MOVS     R1,R10
   \       0x88   0xE1B0'000B        MOVS     R0,R11
   \       0x8C   0x....'....        BL       __aeabi_memcpy
   \       0x90   0xE1B0'000B        MOVS     R0,R11
     66              buffer += l;
   \       0x94   0xE1B0'0008        MOVS     R0,R8
   \       0x98   0xE1A0'0800        LSL      R0,R0,#+16
   \       0x9C   0xE1B0'0820        LSRS     R0,R0,#+16
   \       0xA0   0xE096'6000        ADDS     R6,R6,R0
     67              len -= l;
   \       0xA4   0xE057'7008        SUBS     R7,R7,R8
     68              if (len)
   \       0xA8   0xE1B0'0007        MOVS     R0,R7
   \       0xAC   0xE1A0'0800        LSL      R0,R0,#+16
   \       0xB0   0xE1B0'0820        LSRS     R0,R0,#+16
   \       0xB4   0xE350'0000        CMP      R0,#+0
   \       0xB8   0x0A00'0001        BEQ      ??copy_from_pbuf_4
     69                p = p->next;
   \       0xBC   0xE594'4000        LDR      R4,[R4, #+0]
   \       0xC0   0xEAFF'FFDB        B        ??copy_from_pbuf_0
     70              else
     71                *offset = l;
   \                     ??copy_from_pbuf_4:
   \       0xC4   0xE1C5'80B0        STRH     R8,[R5, #+0]
   \       0xC8   0xEAFF'FFD9        B        ??copy_from_pbuf_0
     72            }
     73            return p;
   \                     ??copy_from_pbuf_1:
   \       0xCC   0xE1B0'0004        MOVS     R0,R4
   \       0xD0   0xE8BD'8FF2        POP      {R1,R4-R11,PC}   ;; return
     74          }
     75          
     76          #define IP_REASS_BUFSIZE 5760
     77          #define IP_REASS_MAXAGE 30
     78          #define IP_REASS_TMO 1000
     79          

   \                                 In section .bss, align 4
     80          static u8_t ip_reassbuf[IP_HLEN + IP_REASS_BUFSIZE];
   \                     ip_reassbuf:
   \        0x0                      DS8 5780

   \                                 In section .bss, align 4
     81          static u8_t ip_reassbitmap[IP_REASS_BUFSIZE / (8 * 8) + 1];
   \                     ip_reassbitmap:
   \        0x0                      DS8 92

   \                                 In section .rodata, align 4
     82          static const u8_t bitmap_bits[8] = { 0xff, 0x7f, 0x3f, 0x1f,
   \                     bitmap_bits:
   \        0x0   0xFF 0x7F          DC8 255, 127, 63, 31, 15, 7, 3, 1
   \              0x3F 0x1F    
   \              0x0F 0x07    
   \              0x03 0x01    
     83            0x0f, 0x07, 0x03, 0x01
     84          };

   \                                 In section .bss, align 2
     85          static u16_t ip_reasslen;
   \                     ip_reasslen:
   \        0x0                      DS8 2

   \                                 In section .bss, align 1
     86          static u8_t ip_reassflags;
   \                     ip_reassflags:
   \        0x0                      DS8 1
     87          #define IP_REASS_FLAG_LASTFRAG 0x01
     88          

   \                                 In section .bss, align 1
     89          static u8_t ip_reasstmr;
   \                     ip_reasstmr:
   \        0x0                      DS8 1
     90          
     91          /**
     92           * Reassembly timer base function
     93           * for both NO_SYS == 0 and 1 (!).
     94           *
     95           * Should be called every 1000 msec.
     96           */

   \                                 In section .text, align 4, keep-with-next
     97          void
     98          ip_reass_tmr(void)
     99          {
    100            if (ip_reasstmr > 0) {
   \                     ip_reass_tmr:
   \        0x0   0x....'....        LDR      R0,??DataTable3
   \        0x4   0xE5D0'1000        LDRB     R1,[R0, #+0]
   \        0x8   0xE351'0000        CMP      R1,#+0
   \        0xC   0x0A00'0002        BEQ      ??ip_reass_tmr_0
    101              ip_reasstmr--;
   \       0x10   0xE5D0'1000        LDRB     R1,[R0, #+0]
   \       0x14   0xE251'1001        SUBS     R1,R1,#+1
   \       0x18   0xE5C0'1000        STRB     R1,[R0, #+0]
    102            }
    103          }
   \                     ??ip_reass_tmr_0:
   \       0x1C   0xE12F'FF1E        BX       LR               ;; return
    104          
    105          /**
    106           * Reassembles incoming IP fragments into an IP datagram.
    107           *
    108           * @param p points to a pbuf chain of the fragment
    109           * @return NULL if reassembly is incomplete, ? otherwise
    110           */

   \                                 In section .text, align 4, keep-with-next
    111          struct pbuf *
    112          ip_reass(struct pbuf *p)
    113          {
   \                     ip_reass:
   \        0x0   0xE92D'4FF1        PUSH     {R0,R4-R11,LR}
   \        0x4   0xE24D'D010        SUB      SP,SP,#+16
    114            struct pbuf *q;
    115            struct ip_hdr *fraghdr, *iphdr;
    116            u16_t offset, len;
    117            u16_t i;
    118          
    119            IPFRAG_STATS_INC(ip_frag.recv);
   \        0x8   0x....'....        LDR      R7,??DataTable3_1
   \        0xC   0xE1D7'01BE        LDRH     R0,[R7, #+30]
   \       0x10   0xE290'0001        ADDS     R0,R0,#+1
   \       0x14   0xE1C7'01BE        STRH     R0,[R7, #+30]
    120          
    121            iphdr = (struct ip_hdr *) ip_reassbuf;
   \       0x18   0x....'....        LDR      R8,??DataTable3_2
    122            fraghdr = (struct ip_hdr *) p->payload;
   \       0x1C   0xE59D'0010        LDR      R0,[SP, #+16]
   \       0x20   0xE590'9004        LDR      R9,[R0, #+4]
    123            /* If ip_reasstmr is zero, no packet is present in the buffer, so we
    124               write the IP header of the fragment into the reassembly
    125               buffer. The timer is updated with the maximum age. */
    126            if (ip_reasstmr == 0) {
   \       0x24   0x....'....        LDR      R0,??DataTable3
   \       0x28   0xE5D0'0000        LDRB     R0,[R0, #+0]
   \       0x2C   0xE350'0000        CMP      R0,#+0
   \       0x30   0x1A00'0017        BNE      ??ip_reass_0
    127              LWIP_DEBUGF(IP_REASS_DEBUG, ("ip_reass: new packet\n"));
    128              memcpy(iphdr, fraghdr, IP_HLEN);
   \       0x34   0xE3A0'0014        MOV      R0,#+20
   \       0x38   0xE58D'0008        STR      R0,[SP, #+8]
   \       0x3C   0xE58D'9004        STR      R9,[SP, #+4]
   \       0x40   0xE1B0'A008        MOVS     R10,R8
   \       0x44   0xE59D'2008        LDR      R2,[SP, #+8]
   \       0x48   0xE59D'1004        LDR      R1,[SP, #+4]
   \       0x4C   0xE1B0'000A        MOVS     R0,R10
   \       0x50   0x....'....        BL       __aeabi_memcpy
   \       0x54   0xE1B0'000A        MOVS     R0,R10
    129              ip_reasstmr = IP_REASS_MAXAGE;
   \       0x58   0xE3A0'001E        MOV      R0,#+30
   \       0x5C   0x....'....        LDR      R1,??DataTable3
   \       0x60   0xE5C1'0000        STRB     R0,[R1, #+0]
    130              ip_reassflags = 0;
   \       0x64   0xE3A0'0000        MOV      R0,#+0
   \       0x68   0x....'....        LDR      R1,??DataTable3_3
   \       0x6C   0xE5C1'0000        STRB     R0,[R1, #+0]
    131              /* Clear the bitmap. */
    132              memset(ip_reassbitmap, 0, sizeof(ip_reassbitmap));
   \       0x70   0xE3A0'005B        MOV      R0,#+91
   \       0x74   0xE58D'0000        STR      R0,[SP, #+0]
   \       0x78   0xE3A0'A000        MOV      R10,#+0
   \       0x7C   0x....'....        LDR      R11,??DataTable3_4
   \       0x80   0xE1B0'200A        MOVS     R2,R10
   \       0x84   0xE59D'1000        LDR      R1,[SP, #+0]
   \       0x88   0xE1B0'000B        MOVS     R0,R11
   \       0x8C   0x....'....        BL       __aeabi_memset
   \       0x90   0xE1B0'000B        MOVS     R0,R11
    133            }
    134          
    135            /* Check if the incoming fragment matches the one currently present
    136               in the reasembly buffer. If so, we proceed with copying the
    137               fragment into the buffer. */
    138            if (ip_addr_cmp(&iphdr->src, &fraghdr->src) &&
    139                ip_addr_cmp(&iphdr->dest, &fraghdr->dest) &&
    140                IPH_ID(iphdr) == IPH_ID(fraghdr)) {
   \                     ??ip_reass_0:
   \       0x94   0xE598'000C        LDR      R0,[R8, #+12]
   \       0x98   0xE599'100C        LDR      R1,[R9, #+12]
   \       0x9C   0xE150'0001        CMP      R0,R1
   \       0xA0   0x1A00'014E        BNE      ??ip_reass_1
   \       0xA4   0xE598'0010        LDR      R0,[R8, #+16]
   \       0xA8   0xE599'1010        LDR      R1,[R9, #+16]
   \       0xAC   0xE150'0001        CMP      R0,R1
   \       0xB0   0x1A00'014A        BNE      ??ip_reass_1
   \       0xB4   0xE1D8'00B4        LDRH     R0,[R8, #+4]
   \       0xB8   0xE1D9'10B4        LDRH     R1,[R9, #+4]
   \       0xBC   0xE150'0001        CMP      R0,R1
   \       0xC0   0x1A00'0146        BNE      ??ip_reass_1
    141              LWIP_DEBUGF(IP_REASS_DEBUG, ("ip_reass: matching previous fragment ID=%"X16_F"\n",
    142                ntohs(IPH_ID(fraghdr))));
    143              IPFRAG_STATS_INC(ip_frag.cachehit);
   \       0xC4   0xE1D7'03B2        LDRH     R0,[R7, #+50]
   \       0xC8   0xE290'0001        ADDS     R0,R0,#+1
   \       0xCC   0xE1C7'03B2        STRH     R0,[R7, #+50]
    144              /* Find out the offset in the reassembly buffer where we should
    145                 copy the fragment. */
    146              len = ntohs(IPH_LEN(fraghdr)) - IPH_HL(fraghdr) * 4;
   \       0xD0   0xE1D9'00B2        LDRH     R0,[R9, #+2]
   \       0xD4   0x....'....        BL       ntohs
   \       0xD8   0xE1B0'A000        MOVS     R10,R0
   \       0xDC   0xE1A0'A80A        LSL      R10,R10,#+16
   \       0xE0   0xE1B0'A82A        LSRS     R10,R10,#+16
   \       0xE4   0xE1D9'00B0        LDRH     R0,[R9, #+0]
   \       0xE8   0x....'....        BL       ntohs
   \       0xEC   0xE3A0'100F        MOV      R1,#+15
   \       0xF0   0xE011'0440        ANDS     R0,R1,R0, ASR #+8
   \       0xF4   0xE1B0'0100        LSLS     R0,R0,#+2
   \       0xF8   0xE05A'0000        SUBS     R0,R10,R0
   \       0xFC   0xE1B0'6000        MOVS     R6,R0
    147              offset = (ntohs(IPH_OFFSET(fraghdr)) & IP_OFFMASK) * 8;
   \      0x100   0xE1D9'00B6        LDRH     R0,[R9, #+6]
   \      0x104   0x....'....        BL       ntohs
   \      0x108   0xE1B0'0980        LSLS     R0,R0,#+19
   \      0x10C   0xE1B0'09A0        LSRS     R0,R0,#+19
   \      0x110   0xE1B0'0180        LSLS     R0,R0,#+3
   \      0x114   0xE1B0'5000        MOVS     R5,R0
    148          
    149              /* If the offset or the offset + fragment length overflows the
    150                 reassembly buffer, we discard the entire packet. */
    151              if (offset > IP_REASS_BUFSIZE || offset + len > IP_REASS_BUFSIZE) {
   \      0x118   0xE3A0'0081        MOV      R0,#+129
   \      0x11C   0xE380'0D58        ORR      R0,R0,#0x1600
   \      0x120   0xE1B0'1005        MOVS     R1,R5
   \      0x124   0xE1A0'1801        LSL      R1,R1,#+16
   \      0x128   0xE1B0'1821        LSRS     R1,R1,#+16
   \      0x12C   0xE151'0000        CMP      R1,R0
   \      0x130   0xAA00'0008        BGE      ??ip_reass_2
   \      0x134   0xE1B0'1005        MOVS     R1,R5
   \      0x138   0xE1A0'1801        LSL      R1,R1,#+16
   \      0x13C   0xE1B0'1821        LSRS     R1,R1,#+16
   \      0x140   0xE1B0'2006        MOVS     R2,R6
   \      0x144   0xE1A0'2802        LSL      R2,R2,#+16
   \      0x148   0xE1B0'2822        LSRS     R2,R2,#+16
   \      0x14C   0xE092'1001        ADDS     R1,R2,R1
   \      0x150   0xE151'0000        CMP      R1,R0
   \      0x154   0xBA00'0003        BLT      ??ip_reass_3
    152                LWIP_DEBUGF(IP_REASS_DEBUG,
    153                 ("ip_reass: fragment outside of buffer (%"S16_F":%"S16_F"/%"S16_F").\n", offset,
    154                  offset + len, IP_REASS_BUFSIZE));
    155                ip_reasstmr = 0;
   \                     ??ip_reass_2:
   \      0x158   0xE3A0'0000        MOV      R0,#+0
   \      0x15C   0x....'....        LDR      R1,??DataTable3
   \      0x160   0xE5C1'0000        STRB     R0,[R1, #+0]
    156                goto nullreturn;
   \      0x164   0xEA00'011D        B        ??ip_reass_1
    157              }
    158          
    159              /* Copy the fragment into the reassembly buffer, at the right
    160                 offset. */
    161              LWIP_DEBUGF(IP_REASS_DEBUG,
    162               ("ip_reass: copying with offset %"S16_F" into %"S16_F":%"S16_F"\n", offset,
    163                IP_HLEN + offset, IP_HLEN + offset + len));
    164              i = IPH_HL(fraghdr) * 4;
   \                     ??ip_reass_3:
   \      0x168   0xE1D9'00B0        LDRH     R0,[R9, #+0]
   \      0x16C   0x....'....        BL       ntohs
   \      0x170   0xE1A0'0800        LSL      R0,R0,#+16
   \      0x174   0xE1B0'0820        LSRS     R0,R0,#+16
   \      0x178   0xE3A0'100F        MOV      R1,#+15
   \      0x17C   0xE011'0420        ANDS     R0,R1,R0, LSR #+8
   \      0x180   0xE1B0'0100        LSLS     R0,R0,#+2
   \      0x184   0xE1CD'00BC        STRH     R0,[SP, #+12]
    165              copy_from_pbuf(p, &i, &ip_reassbuf[IP_HLEN + offset], len);
   \      0x188   0xE1B0'3006        MOVS     R3,R6
   \      0x18C   0xE1A0'3803        LSL      R3,R3,#+16
   \      0x190   0xE1B0'3823        LSRS     R3,R3,#+16
   \      0x194   0x....'....        LDR      R0,??DataTable3_2
   \      0x198   0xE1B0'1005        MOVS     R1,R5
   \      0x19C   0xE1A0'1801        LSL      R1,R1,#+16
   \      0x1A0   0xE1B0'1821        LSRS     R1,R1,#+16
   \      0x1A4   0xE090'0001        ADDS     R0,R0,R1
   \      0x1A8   0xE290'2014        ADDS     R2,R0,#+20
   \      0x1AC   0xE28D'100C        ADD      R1,SP,#+12
   \      0x1B0   0xE59D'0010        LDR      R0,[SP, #+16]
   \      0x1B4   0x....'....        BL       copy_from_pbuf
    166          
    167              /* Update the bitmap. */
    168              if (offset / (8 * 8) == (offset + len) / (8 * 8)) {
   \      0x1B8   0xE3A0'A040        MOV      R10,#+64
   \      0x1BC   0xE1B0'0005        MOVS     R0,R5
   \      0x1C0   0xE1A0'0800        LSL      R0,R0,#+16
   \      0x1C4   0xE1B0'0820        LSRS     R0,R0,#+16
   \      0x1C8   0xE1B0'100A        MOVS     R1,R10
   \      0x1CC   0x....'....        BL       __aeabi_idiv
   \      0x1D0   0xE1B0'B000        MOVS     R11,R0
   \      0x1D4   0xE1B0'0005        MOVS     R0,R5
   \      0x1D8   0xE1A0'0800        LSL      R0,R0,#+16
   \      0x1DC   0xE1B0'0820        LSRS     R0,R0,#+16
   \      0x1E0   0xE1B0'1006        MOVS     R1,R6
   \      0x1E4   0xE1A0'1801        LSL      R1,R1,#+16
   \      0x1E8   0xE1B0'1821        LSRS     R1,R1,#+16
   \      0x1EC   0xE091'0000        ADDS     R0,R1,R0
   \      0x1F0   0xE1B0'100A        MOVS     R1,R10
   \      0x1F4   0x....'....        BL       __aeabi_idiv
   \      0x1F8   0xE15B'0000        CMP      R11,R0
   \      0x1FC   0x1A00'0029        BNE      ??ip_reass_4
    169                LWIP_DEBUGF(IP_REASS_DEBUG,
    170                 ("ip_reass: updating single byte in bitmap.\n"));
    171                /* If the two endpoints are in the same byte, we only update that byte. */
    172                LWIP_ASSERT("offset / (8 * 8) < sizeof(ip_reassbitmap)",
    173                             offset / (8 * 8) < sizeof(ip_reassbitmap));
    174                ip_reassbitmap[offset / (8 * 8)] |=
    175                  bitmap_bits[(offset / 8) & 7] &
    176                  ~bitmap_bits[((offset + len) / 8) & 7];
   \      0x200   0x....'....        LDR      R11,??DataTable3_4
   \      0x204   0xE1B0'0005        MOVS     R0,R5
   \      0x208   0xE1A0'0800        LSL      R0,R0,#+16
   \      0x20C   0xE1B0'0820        LSRS     R0,R0,#+16
   \      0x210   0xE1B0'100A        MOVS     R1,R10
   \      0x214   0x....'....        BL       __aeabi_idiv
   \      0x218   0xE58D'0008        STR      R0,[SP, #+8]
   \      0x21C   0xE1B0'0005        MOVS     R0,R5
   \      0x220   0xE1A0'0800        LSL      R0,R0,#+16
   \      0x224   0xE1B0'0820        LSRS     R0,R0,#+16
   \      0x228   0xE1B0'100A        MOVS     R1,R10
   \      0x22C   0x....'....        BL       __aeabi_idiv
   \      0x230   0xE7DB'0000        LDRB     R0,[R11, +R0]
   \      0x234   0xE58D'0004        STR      R0,[SP, #+4]
   \      0x238   0xE1B0'0005        MOVS     R0,R5
   \      0x23C   0xE1A0'0800        LSL      R0,R0,#+16
   \      0x240   0xE1B0'0820        LSRS     R0,R0,#+16
   \      0x244   0xE3A0'1008        MOV      R1,#+8
   \      0x248   0x....'....        BL       __aeabi_idiv
   \      0x24C   0xE210'0007        ANDS     R0,R0,#0x7
   \      0x250   0x....'....        LDR      R1,??DataTable3_5
   \      0x254   0xE7D1'0000        LDRB     R0,[R1, +R0]
   \      0x258   0xE58D'0000        STR      R0,[SP, #+0]
   \      0x25C   0xE1B0'0005        MOVS     R0,R5
   \      0x260   0xE1A0'0800        LSL      R0,R0,#+16
   \      0x264   0xE1B0'0820        LSRS     R0,R0,#+16
   \      0x268   0xE1B0'1006        MOVS     R1,R6
   \      0x26C   0xE1A0'1801        LSL      R1,R1,#+16
   \      0x270   0xE1B0'1821        LSRS     R1,R1,#+16
   \      0x274   0xE091'0000        ADDS     R0,R1,R0
   \      0x278   0xE3A0'1008        MOV      R1,#+8
   \      0x27C   0x....'....        BL       __aeabi_idiv
   \      0x280   0xE210'0007        ANDS     R0,R0,#0x7
   \      0x284   0x....'....        LDR      R1,??DataTable3_5
   \      0x288   0xE7D1'1000        LDRB     R1,[R1, +R0]
   \      0x28C   0xE59D'0000        LDR      R0,[SP, #+0]
   \      0x290   0xE1D0'1001        BICS     R1,R0,R1
   \      0x294   0xE59D'0004        LDR      R0,[SP, #+4]
   \      0x298   0xE191'1000        ORRS     R1,R1,R0
   \      0x29C   0xE59D'0008        LDR      R0,[SP, #+8]
   \      0x2A0   0xE7CB'1000        STRB     R1,[R11, +R0]
   \      0x2A4   0xEA00'0059        B        ??ip_reass_5
    177              } else {
    178                /* If the two endpoints are in different bytes, we update the
    179                   bytes in the endpoints and fill the stuff inbetween with
    180                   0xff. */
    181                LWIP_ASSERT("offset / (8 * 8) < sizeof(ip_reassbitmap)",
    182                             offset / (8 * 8) < sizeof(ip_reassbitmap));
    183                ip_reassbitmap[offset / (8 * 8)] |= bitmap_bits[(offset / 8) & 7];
   \                     ??ip_reass_4:
   \      0x2A8   0x....'....        LDR      R11,??DataTable3_4
   \      0x2AC   0xE1B0'0005        MOVS     R0,R5
   \      0x2B0   0xE1A0'0800        LSL      R0,R0,#+16
   \      0x2B4   0xE1B0'0820        LSRS     R0,R0,#+16
   \      0x2B8   0xE1B0'100A        MOVS     R1,R10
   \      0x2BC   0x....'....        BL       __aeabi_idiv
   \      0x2C0   0xE58D'0004        STR      R0,[SP, #+4]
   \      0x2C4   0xE1B0'0005        MOVS     R0,R5
   \      0x2C8   0xE1A0'0800        LSL      R0,R0,#+16
   \      0x2CC   0xE1B0'0820        LSRS     R0,R0,#+16
   \      0x2D0   0xE1B0'100A        MOVS     R1,R10
   \      0x2D4   0x....'....        BL       __aeabi_idiv
   \      0x2D8   0xE7DB'0000        LDRB     R0,[R11, +R0]
   \      0x2DC   0xE58D'0000        STR      R0,[SP, #+0]
   \      0x2E0   0xE1B0'0005        MOVS     R0,R5
   \      0x2E4   0xE1A0'0800        LSL      R0,R0,#+16
   \      0x2E8   0xE1B0'0820        LSRS     R0,R0,#+16
   \      0x2EC   0xE3A0'1008        MOV      R1,#+8
   \      0x2F0   0x....'....        BL       __aeabi_idiv
   \      0x2F4   0xE210'0007        ANDS     R0,R0,#0x7
   \      0x2F8   0x....'....        LDR      R1,??DataTable3_5
   \      0x2FC   0xE7D1'1000        LDRB     R1,[R1, +R0]
   \      0x300   0xE59D'0000        LDR      R0,[SP, #+0]
   \      0x304   0xE191'1000        ORRS     R1,R1,R0
   \      0x308   0xE59D'0004        LDR      R0,[SP, #+4]
   \      0x30C   0xE7CB'1000        STRB     R1,[R11, +R0]
    184                LWIP_DEBUGF(IP_REASS_DEBUG,
    185                 ("ip_reass: updating many bytes in bitmap (%"S16_F":%"S16_F").\n",
    186                  1 + offset / (8 * 8), (offset + len) / (8 * 8)));
    187                for (i = 1 + offset / (8 * 8); i < (offset + len) / (8 * 8); ++i) {
   \      0x310   0xE1B0'0005        MOVS     R0,R5
   \      0x314   0xE1A0'0800        LSL      R0,R0,#+16
   \      0x318   0xE1B0'0820        LSRS     R0,R0,#+16
   \      0x31C   0xE1B0'100A        MOVS     R1,R10
   \      0x320   0x....'....        BL       __aeabi_idiv
   \      0x324   0xE290'0001        ADDS     R0,R0,#+1
   \      0x328   0xE1CD'00BC        STRH     R0,[SP, #+12]
   \                     ??ip_reass_6:
   \      0x32C   0xE1B0'0005        MOVS     R0,R5
   \      0x330   0xE1A0'0800        LSL      R0,R0,#+16
   \      0x334   0xE1B0'0820        LSRS     R0,R0,#+16
   \      0x338   0xE1B0'1006        MOVS     R1,R6
   \      0x33C   0xE1A0'1801        LSL      R1,R1,#+16
   \      0x340   0xE1B0'1821        LSRS     R1,R1,#+16
   \      0x344   0xE091'0000        ADDS     R0,R1,R0
   \      0x348   0xE1B0'100A        MOVS     R1,R10
   \      0x34C   0x....'....        BL       __aeabi_idiv
   \      0x350   0xE1DD'10BC        LDRH     R1,[SP, #+12]
   \      0x354   0xE151'0000        CMP      R1,R0
   \      0x358   0xAA00'0006        BGE      ??ip_reass_7
    188                  ip_reassbitmap[i] = 0xff;
   \      0x35C   0xE3A0'00FF        MOV      R0,#+255
   \      0x360   0xE1DD'10BC        LDRH     R1,[SP, #+12]
   \      0x364   0xE7CB'0001        STRB     R0,[R11, +R1]
    189                }
   \      0x368   0xE1DD'00BC        LDRH     R0,[SP, #+12]
   \      0x36C   0xE290'0001        ADDS     R0,R0,#+1
   \      0x370   0xE1CD'00BC        STRH     R0,[SP, #+12]
   \      0x374   0xEAFF'FFEC        B        ??ip_reass_6
    190                LWIP_ASSERT("(offset + len) / (8 * 8) < sizeof(ip_reassbitmap)",
    191                             (offset + len) / (8 * 8) < sizeof(ip_reassbitmap));
    192                ip_reassbitmap[(offset + len) / (8 * 8)] |=
    193                  ~bitmap_bits[((offset + len) / 8) & 7];
   \                     ??ip_reass_7:
   \      0x378   0xE1B0'0005        MOVS     R0,R5
   \      0x37C   0xE1A0'0800        LSL      R0,R0,#+16
   \      0x380   0xE1B0'0820        LSRS     R0,R0,#+16
   \      0x384   0xE1B0'1006        MOVS     R1,R6
   \      0x388   0xE1A0'1801        LSL      R1,R1,#+16
   \      0x38C   0xE1B0'1821        LSRS     R1,R1,#+16
   \      0x390   0xE091'0000        ADDS     R0,R1,R0
   \      0x394   0xE1B0'100A        MOVS     R1,R10
   \      0x398   0x....'....        BL       __aeabi_idiv
   \      0x39C   0xE58D'0004        STR      R0,[SP, #+4]
   \      0x3A0   0xE1B0'0005        MOVS     R0,R5
   \      0x3A4   0xE1A0'0800        LSL      R0,R0,#+16
   \      0x3A8   0xE1B0'0820        LSRS     R0,R0,#+16
   \      0x3AC   0xE1B0'1006        MOVS     R1,R6
   \      0x3B0   0xE1A0'1801        LSL      R1,R1,#+16
   \      0x3B4   0xE1B0'1821        LSRS     R1,R1,#+16
   \      0x3B8   0xE091'0000        ADDS     R0,R1,R0
   \      0x3BC   0xE1B0'100A        MOVS     R1,R10
   \      0x3C0   0x....'....        BL       __aeabi_idiv
   \      0x3C4   0xE7DB'0000        LDRB     R0,[R11, +R0]
   \      0x3C8   0xE58D'0000        STR      R0,[SP, #+0]
   \      0x3CC   0xE1B0'0005        MOVS     R0,R5
   \      0x3D0   0xE1A0'0800        LSL      R0,R0,#+16
   \      0x3D4   0xE1B0'0820        LSRS     R0,R0,#+16
   \      0x3D8   0xE1B0'1006        MOVS     R1,R6
   \      0x3DC   0xE1A0'1801        LSL      R1,R1,#+16
   \      0x3E0   0xE1B0'1821        LSRS     R1,R1,#+16
   \      0x3E4   0xE091'0000        ADDS     R0,R1,R0
   \      0x3E8   0xE3A0'1008        MOV      R1,#+8
   \      0x3EC   0x....'....        BL       __aeabi_idiv
   \      0x3F0   0xE210'0007        ANDS     R0,R0,#0x7
   \      0x3F4   0x....'....        LDR      R1,??DataTable3_5
   \      0x3F8   0xE7D1'0000        LDRB     R0,[R1, +R0]
   \      0x3FC   0xE1F0'1000        MVNS     R1,R0
   \      0x400   0xE59D'0000        LDR      R0,[SP, #+0]
   \      0x404   0xE191'1000        ORRS     R1,R1,R0
   \      0x408   0xE59D'0004        LDR      R0,[SP, #+4]
   \      0x40C   0xE7CB'1000        STRB     R1,[R11, +R0]
    194              }
    195          
    196              /* If this fragment has the More Fragments flag set to zero, we
    197                 know that this is the last fragment, so we can calculate the
    198                 size of the entire packet. We also set the
    199                 IP_REASS_FLAG_LASTFRAG flag to indicate that we have received
    200                 the final fragment. */
    201          
    202              if ((ntohs(IPH_OFFSET(fraghdr)) & IP_MF) == 0) {
   \                     ??ip_reass_5:
   \      0x410   0xE1D9'00B6        LDRH     R0,[R9, #+6]
   \      0x414   0x....'....        BL       ntohs
   \      0x418   0xE310'0D80        TST      R0,#0x2000
   \      0x41C   0x1A00'0006        BNE      ??ip_reass_8
    203                ip_reassflags |= IP_REASS_FLAG_LASTFRAG;
   \      0x420   0x....'....        LDR      R0,??DataTable3_3
   \      0x424   0xE5D0'1000        LDRB     R1,[R0, #+0]
   \      0x428   0xE391'1001        ORRS     R1,R1,#0x1
   \      0x42C   0xE5C0'1000        STRB     R1,[R0, #+0]
    204                ip_reasslen = offset + len;
   \      0x430   0xE096'0005        ADDS     R0,R6,R5
   \      0x434   0x....'....        LDR      R1,??DataTable3_6
   \      0x438   0xE1C1'00B0        STRH     R0,[R1, #+0]
    205                LWIP_DEBUGF(IP_REASS_DEBUG,
    206                 ("ip_reass: last fragment seen, total len %"S16_F"\n",
    207                  ip_reasslen));
    208              }
    209          
    210              /* Finally, we check if we have a full packet in the buffer. We do
    211                 this by checking if we have the last fragment and if all bits
    212                 in the bitmap are set. */
    213              if (ip_reassflags & IP_REASS_FLAG_LASTFRAG) {
   \                     ??ip_reass_8:
   \      0x43C   0x....'....        LDR      R0,??DataTable3_3
   \      0x440   0xE5D0'0000        LDRB     R0,[R0, #+0]
   \      0x444   0xE310'0001        TST      R0,#0x1
   \      0x448   0x0A00'0064        BEQ      ??ip_reass_1
    214                /* Check all bytes up to and including all but the last byte in
    215                   the bitmap. */
    216                LWIP_ASSERT("ip_reasslen / (8 * 8) - 1 < sizeof(ip_reassbitmap)",
    217                             ip_reasslen / (8 * 8) - 1 < sizeof(ip_reassbitmap));
    218                for (i = 0; i < ip_reasslen / (8 * 8) - 1; ++i) {
   \      0x44C   0xE3A0'0000        MOV      R0,#+0
   \      0x450   0xE1CD'00BC        STRH     R0,[SP, #+12]
   \                     ??ip_reass_9:
   \      0x454   0x....'....        LDR      R11,??DataTable3_6
   \      0x458   0xE1DB'00B0        LDRH     R0,[R11, #+0]
   \      0x45C   0xE1B0'100A        MOVS     R1,R10
   \      0x460   0x....'....        BL       __aeabi_idiv
   \      0x464   0xE250'0001        SUBS     R0,R0,#+1
   \      0x468   0xE1DD'10BC        LDRH     R1,[SP, #+12]
   \      0x46C   0xE151'0000        CMP      R1,R0
   \      0x470   0xAA00'0008        BGE      ??ip_reass_10
    219                  if (ip_reassbitmap[i] != 0xff) {
   \      0x474   0x....'....        LDR      R0,??DataTable3_4
   \      0x478   0xE1DD'10BC        LDRH     R1,[SP, #+12]
   \      0x47C   0xE7D0'0001        LDRB     R0,[R0, +R1]
   \      0x480   0xE350'00FF        CMP      R0,#+255
   \      0x484   0x1A00'0055        BNE      ??ip_reass_1
    220                    LWIP_DEBUGF(IP_REASS_DEBUG,
    221                     ("ip_reass: last fragment seen, bitmap %"S16_F"/%"S16_F" failed (%"X16_F")\n",
    222                      i, ip_reasslen / (8 * 8) - 1, ip_reassbitmap[i]));
    223                    goto nullreturn;
    224                  }
    225                }
   \                     ??ip_reass_11:
   \      0x488   0xE1DD'00BC        LDRH     R0,[SP, #+12]
   \      0x48C   0xE290'0001        ADDS     R0,R0,#+1
   \      0x490   0xE1CD'00BC        STRH     R0,[SP, #+12]
   \      0x494   0xEAFF'FFEE        B        ??ip_reass_9
    226                /* Check the last byte in the bitmap. It should contain just the
    227                   right amount of bits. */
    228                LWIP_ASSERT("ip_reasslen / (8 * 8) < sizeof(ip_reassbitmap)",
    229                             ip_reasslen / (8 * 8) < sizeof(ip_reassbitmap));
    230                if (ip_reassbitmap[ip_reasslen / (8 * 8)] !=
    231                  (u8_t) ~ bitmap_bits[ip_reasslen / 8 & 7]) {
   \                     ??ip_reass_10:
   \      0x498   0xE1DB'00B0        LDRH     R0,[R11, #+0]
   \      0x49C   0xE1B0'100A        MOVS     R1,R10
   \      0x4A0   0x....'....        BL       __aeabi_idiv
   \      0x4A4   0x....'....        LDR      R1,??DataTable3_4
   \      0x4A8   0xE7D1'A000        LDRB     R10,[R1, +R0]
   \      0x4AC   0xE1DB'00B0        LDRH     R0,[R11, #+0]
   \      0x4B0   0xE3A0'1008        MOV      R1,#+8
   \      0x4B4   0x....'....        BL       __aeabi_idiv
   \      0x4B8   0xE210'0007        ANDS     R0,R0,#0x7
   \      0x4BC   0x....'....        LDR      R1,??DataTable3_5
   \      0x4C0   0xE7D1'0000        LDRB     R0,[R1, +R0]
   \      0x4C4   0xE1F0'0000        MVNS     R0,R0
   \      0x4C8   0xE210'00FF        ANDS     R0,R0,#0xFF      ;; Zero extend
   \      0x4CC   0xE15A'0000        CMP      R10,R0
   \      0x4D0   0x1A00'0042        BNE      ??ip_reass_1
    232                   LWIP_DEBUGF(IP_REASS_DEBUG,
    233                    ("ip_reass: last fragment seen, bitmap %"S16_F" didn't contain %"X16_F" (%"X16_F")\n",
    234                  ip_reasslen / (8 * 8), ~bitmap_bits[ip_reasslen / 8 & 7],
    235                  ip_reassbitmap[ip_reasslen / (8 * 8)]));
    236                  goto nullreturn;
    237                }
    238          
    239                /* Pretend to be a "normal" (i.e., not fragmented) IP packet
    240                   from now on. */
    241                ip_reasslen += IP_HLEN;
   \                     ??ip_reass_12:
   \      0x4D4   0xE1DB'00B0        LDRH     R0,[R11, #+0]
   \      0x4D8   0xE290'0014        ADDS     R0,R0,#+20
   \      0x4DC   0xE1CB'00B0        STRH     R0,[R11, #+0]
    242          
    243                IPH_LEN_SET(iphdr, htons(ip_reasslen));
   \      0x4E0   0xE1DB'00B0        LDRH     R0,[R11, #+0]
   \      0x4E4   0x....'....        BL       htons
   \      0x4E8   0xE1C8'00B2        STRH     R0,[R8, #+2]
    244                IPH_OFFSET_SET(iphdr, 0);
   \      0x4EC   0xE3A0'A000        MOV      R10,#+0
   \      0x4F0   0xE1C8'A0B6        STRH     R10,[R8, #+6]
    245                IPH_CHKSUM_SET(iphdr, 0);
   \      0x4F4   0xE1C8'A0BA        STRH     R10,[R8, #+10]
    246                IPH_CHKSUM_SET(iphdr, inet_chksum(iphdr, IP_HLEN));
   \      0x4F8   0xE3A0'1014        MOV      R1,#+20
   \      0x4FC   0xE1B0'0008        MOVS     R0,R8
   \      0x500   0x....'....        BL       inet_chksum
   \      0x504   0xE1C8'00BA        STRH     R0,[R8, #+10]
    247          
    248                /* If we have come this far, we have a full packet in the
    249                   buffer, so we allocate a pbuf and copy the packet into it. We
    250                   also reset the timer. */
    251                ip_reasstmr = 0;
   \      0x508   0x....'....        LDR      R0,??DataTable3
   \      0x50C   0xE5C0'A000        STRB     R10,[R0, #+0]
    252                pbuf_free(p);
   \      0x510   0xE59D'0010        LDR      R0,[SP, #+16]
   \      0x514   0x....'....        BL       pbuf_free
    253                p = pbuf_alloc(PBUF_LINK, ip_reasslen, PBUF_POOL);
   \      0x518   0xE3A0'2003        MOV      R2,#+3
   \      0x51C   0xE1DB'10B0        LDRH     R1,[R11, #+0]
   \      0x520   0xE3A0'0002        MOV      R0,#+2
   \      0x524   0x....'....        BL       pbuf_alloc
   \      0x528   0xE58D'0010        STR      R0,[SP, #+16]
    254                if (p != NULL) {
   \      0x52C   0xE59D'0010        LDR      R0,[SP, #+16]
   \      0x530   0xE350'0000        CMP      R0,#+0
   \      0x534   0x0A00'0024        BEQ      ??ip_reass_13
    255                  i = 0;
   \      0x538   0xE1CD'A0BC        STRH     R10,[SP, #+12]
    256                  for (q = p; q != NULL; q = q->next) {
   \      0x53C   0xE59D'0010        LDR      R0,[SP, #+16]
   \      0x540   0xE1B0'4000        MOVS     R4,R0
   \                     ??ip_reass_14:
   \      0x544   0xE354'0000        CMP      R4,#+0
   \      0x548   0x0A00'001B        BEQ      ??ip_reass_15
    257                    /* Copy enough bytes to fill this pbuf in the chain. The
    258                       available data in the pbuf is given by the q->len variable. */
    259                    LWIP_DEBUGF(IP_REASS_DEBUG,
    260                     ("ip_reass: memcpy from %p (%"S16_F") to %p, %"S16_F" bytes\n",
    261                      (void *)&ip_reassbuf[i], i, q->payload,
    262                      q->len > ip_reasslen - i ? ip_reasslen - i : q->len));
    263                    memcpy(q->payload, &ip_reassbuf[i],
    264                      q->len > ip_reasslen - i ? ip_reasslen - i : q->len);
   \      0x54C   0xE1DB'00B0        LDRH     R0,[R11, #+0]
   \      0x550   0xE1DD'10BC        LDRH     R1,[SP, #+12]
   \      0x554   0xE050'0001        SUBS     R0,R0,R1
   \      0x558   0xE1D4'10BA        LDRH     R1,[R4, #+10]
   \      0x55C   0xE150'0001        CMP      R0,R1
   \      0x560   0xAA00'0003        BGE      ??ip_reass_16
   \      0x564   0xE1DB'00B0        LDRH     R0,[R11, #+0]
   \      0x568   0xE1DD'10BC        LDRH     R1,[SP, #+12]
   \      0x56C   0xE050'A001        SUBS     R10,R0,R1
   \      0x570   0xEA00'0000        B        ??ip_reass_17
   \                     ??ip_reass_16:
   \      0x574   0xE1D4'A0BA        LDRH     R10,[R4, #+10]
   \                     ??ip_reass_17:
   \      0x578   0x....'....        LDR      R0,??DataTable3_2
   \      0x57C   0xE1DD'10BC        LDRH     R1,[SP, #+12]
   \      0x580   0xE090'0001        ADDS     R0,R0,R1
   \      0x584   0xE58D'0004        STR      R0,[SP, #+4]
   \      0x588   0xE594'0004        LDR      R0,[R4, #+4]
   \      0x58C   0xE58D'0000        STR      R0,[SP, #+0]
   \      0x590   0xE1B0'200A        MOVS     R2,R10
   \      0x594   0xE59D'1004        LDR      R1,[SP, #+4]
   \      0x598   0xE59D'0000        LDR      R0,[SP, #+0]
   \      0x59C   0x....'....        BL       __aeabi_memcpy
   \      0x5A0   0xE59D'0000        LDR      R0,[SP, #+0]
    265                    i += q->len;
   \      0x5A4   0xE1DD'00BC        LDRH     R0,[SP, #+12]
   \      0x5A8   0xE1D4'10BA        LDRH     R1,[R4, #+10]
   \      0x5AC   0xE091'0000        ADDS     R0,R1,R0
   \      0x5B0   0xE1CD'00BC        STRH     R0,[SP, #+12]
    266                  }
   \      0x5B4   0xE594'4000        LDR      R4,[R4, #+0]
   \      0x5B8   0xEAFF'FFE1        B        ??ip_reass_14
    267                  IPFRAG_STATS_INC(ip_frag.fw);
   \                     ??ip_reass_15:
   \      0x5BC   0xE1D7'02B0        LDRH     R0,[R7, #+32]
   \      0x5C0   0xE290'0001        ADDS     R0,R0,#+1
   \      0x5C4   0xE1C7'02B0        STRH     R0,[R7, #+32]
   \      0x5C8   0xEA00'0002        B        ??ip_reass_18
    268                } else {
    269                  IPFRAG_STATS_INC(ip_frag.memerr);
   \                     ??ip_reass_13:
   \      0x5CC   0xE1D7'02B8        LDRH     R0,[R7, #+40]
   \      0x5D0   0xE290'0001        ADDS     R0,R0,#+1
   \      0x5D4   0xE1C7'02B8        STRH     R0,[R7, #+40]
    270                }
    271                LWIP_DEBUGF(IP_REASS_DEBUG, ("ip_reass: p %p\n", (void*)p));
    272                return p;
   \                     ??ip_reass_18:
   \      0x5D8   0xE59D'0010        LDR      R0,[SP, #+16]
   \      0x5DC   0xEA00'0005        B        ??ip_reass_19
    273              }
    274            }
    275          
    276          nullreturn:
    277            IPFRAG_STATS_INC(ip_frag.drop);
   \                     ??ip_reass_1:
   \      0x5E0   0xE1D7'02B2        LDRH     R0,[R7, #+34]
   \      0x5E4   0xE290'0001        ADDS     R0,R0,#+1
   \      0x5E8   0xE1C7'02B2        STRH     R0,[R7, #+34]
    278            pbuf_free(p);
   \      0x5EC   0xE59D'0010        LDR      R0,[SP, #+16]
   \      0x5F0   0x....'....        BL       pbuf_free
    279            return NULL;
   \      0x5F4   0xE3A0'0000        MOV      R0,#+0
   \                     ??ip_reass_19:
   \      0x5F8   0xE28D'D014        ADD      SP,SP,#+20
   \      0x5FC   0xE8BD'8FF0        POP      {R4-R11,PC}      ;; return
    280          }
    281          
    282          #define MAX_MTU 1500

   \                                 In section .bss, align 4
    283          static u8_t buf[MEM_ALIGN_SIZE(MAX_MTU)];
   \                     buf:
   \        0x0                      DS8 1500
    284          
    285          /**
    286           * Fragment an IP datagram if too large for the netif.
    287           *
    288           * Chop the datagram in MTU sized chunks and send them in order
    289           * by using a fixed size static memory buffer (PBUF_ROM)
    290           */

   \                                 In section .text, align 4, keep-with-next
    291          err_t 
    292          ip_frag(struct pbuf *p, struct netif *netif, struct ip_addr *dest)
    293          {
   \                     ip_frag:
   \        0x0   0xE92D'4FF7        PUSH     {R0-R2,R4-R11,LR}
   \        0x4   0xE24D'D018        SUB      SP,SP,#+24
    294            struct pbuf *rambuf;
    295            struct pbuf *header;
    296            struct ip_hdr *iphdr;
    297            u16_t nfb = 0;
   \        0x8   0xE3A0'5000        MOV      R5,#+0
    298            u16_t left, cop;
    299            u16_t mtu = netif->mtu;
   \        0xC   0xE59D'001C        LDR      R0,[SP, #+28]
   \       0x10   0xE1D0'02B8        LDRH     R0,[R0, #+40]
   \       0x14   0xE1CD'00B0        STRH     R0,[SP, #+0]
    300            u16_t ofo, omf;
    301            u16_t last;
    302            u16_t poff = IP_HLEN;
   \       0x18   0xE3A0'8014        MOV      R8,#+20
   \       0x1C   0xE1CD'80B2        STRH     R8,[SP, #+2]
    303            u16_t tmp;
    304          
    305            /* Get a RAM based MTU sized pbuf */
    306            rambuf = pbuf_alloc(PBUF_LINK, 0, PBUF_REF);
   \       0x20   0xE3A0'2002        MOV      R2,#+2
   \       0x24   0xE3A0'1000        MOV      R1,#+0
   \       0x28   0xE3A0'0002        MOV      R0,#+2
   \       0x2C   0x....'....        BL       pbuf_alloc
   \       0x30   0xE1B0'6000        MOVS     R6,R0
    307            if (rambuf == NULL) {
   \       0x34   0xE356'0000        CMP      R6,#+0
   \       0x38   0x1A00'0001        BNE      ??ip_frag_0
    308              return ERR_MEM;
   \       0x3C   0xE3E0'0000        MVN      R0,#+0
   \       0x40   0xEA00'0085        B        ??ip_frag_1
    309            }
    310            rambuf->tot_len = rambuf->len = mtu;
   \                     ??ip_frag_0:
   \       0x44   0xE1DD'00B0        LDRH     R0,[SP, #+0]
   \       0x48   0xE1C6'00BA        STRH     R0,[R6, #+10]
   \       0x4C   0xE1D6'00BA        LDRH     R0,[R6, #+10]
   \       0x50   0xE1C6'00B8        STRH     R0,[R6, #+8]
    311            rambuf->payload = MEM_ALIGN((void *)buf);
   \       0x54   0x....'....        LDR      R0,??DataTable3_7
   \       0x58   0xE3D0'0003        BICS     R0,R0,#0x3
   \       0x5C   0xE586'0004        STR      R0,[R6, #+4]
    312          
    313            /* Copy the IP header in it */
    314            iphdr = rambuf->payload;
   \       0x60   0xE596'7004        LDR      R7,[R6, #+4]
    315            memcpy(iphdr, p->payload, IP_HLEN);
   \       0x64   0xE58D'8010        STR      R8,[SP, #+16]
   \       0x68   0xE59D'0018        LDR      R0,[SP, #+24]
   \       0x6C   0xE590'0004        LDR      R0,[R0, #+4]
   \       0x70   0xE58D'000C        STR      R0,[SP, #+12]
   \       0x74   0xE1B0'8007        MOVS     R8,R7
   \       0x78   0xE59D'2010        LDR      R2,[SP, #+16]
   \       0x7C   0xE59D'100C        LDR      R1,[SP, #+12]
   \       0x80   0xE1B0'0008        MOVS     R0,R8
   \       0x84   0x....'....        BL       __aeabi_memcpy
   \       0x88   0xE1B0'0008        MOVS     R0,R8
    316          
    317            /* Save original offset */
    318            tmp = ntohs(IPH_OFFSET(iphdr));
   \       0x8C   0xE1D7'00B6        LDRH     R0,[R7, #+6]
   \       0x90   0x....'....        BL       ntohs
   \       0x94   0xE1B0'8000        MOVS     R8,R0
    319            ofo = tmp & IP_OFFMASK;
   \       0x98   0xE1B0'0988        LSLS     R0,R8,#+19
   \       0x9C   0xE1B0'99A0        LSRS     R9,R0,#+19
    320            omf = tmp & IP_MF;
   \       0xA0   0xE218'0D80        ANDS     R0,R8,#0x2000
   \       0xA4   0xE1CD'00B8        STRH     R0,[SP, #+8]
    321          
    322            left = p->tot_len - IP_HLEN;
   \       0xA8   0xE59D'0018        LDR      R0,[SP, #+24]
   \       0xAC   0xE1D0'00B8        LDRH     R0,[R0, #+8]
   \       0xB0   0xE250'A014        SUBS     R10,R0,#+20
    323          
    324            while (left) {
   \                     ??ip_frag_2:
   \       0xB4   0xE1B0'000A        MOVS     R0,R10
   \       0xB8   0xE1A0'0800        LSL      R0,R0,#+16
   \       0xBC   0xE1B0'0820        LSRS     R0,R0,#+16
   \       0xC0   0xE350'0000        CMP      R0,#+0
   \       0xC4   0x0A00'0061        BEQ      ??ip_frag_3
    325              last = (left <= mtu - IP_HLEN);
   \       0xC8   0xE1DD'00B0        LDRH     R0,[SP, #+0]
   \       0xCC   0xE250'0014        SUBS     R0,R0,#+20
   \       0xD0   0xE1B0'100A        MOVS     R1,R10
   \       0xD4   0xE1A0'1801        LSL      R1,R1,#+16
   \       0xD8   0xE1B0'1821        LSRS     R1,R1,#+16
   \       0xDC   0xE150'0001        CMP      R0,R1
   \       0xE0   0xBA00'0001        BLT      ??ip_frag_4
   \       0xE4   0xE3A0'B001        MOV      R11,#+1
   \       0xE8   0xEA00'0000        B        ??ip_frag_5
   \                     ??ip_frag_4:
   \       0xEC   0xE3A0'B000        MOV      R11,#+0
   \                     ??ip_frag_5:
   \       0xF0   0xE21B'B0FF        ANDS     R11,R11,#0xFF    ;; Zero extend
    326          
    327              /* Set new offset and MF flag */
    328              ofo += nfb;
   \       0xF4   0xE095'9009        ADDS     R9,R5,R9
    329              tmp = omf | (IP_OFFMASK & (ofo));
   \       0xF8   0xE1DD'00B8        LDRH     R0,[SP, #+8]
   \       0xFC   0xE1B0'1989        LSLS     R1,R9,#+19
   \      0x100   0xE190'09A1        ORRS     R0,R0,R1, LSR #+19
   \      0x104   0xE1B0'8000        MOVS     R8,R0
    330              if (!last)
   \      0x108   0xE1B0'000B        MOVS     R0,R11
   \      0x10C   0xE1A0'0800        LSL      R0,R0,#+16
   \      0x110   0xE1B0'0820        LSRS     R0,R0,#+16
   \      0x114   0xE350'0000        CMP      R0,#+0
   \      0x118   0x1A00'0000        BNE      ??ip_frag_6
    331                tmp = tmp | IP_MF;
   \      0x11C   0xE398'8D80        ORRS     R8,R8,#0x2000
    332              IPH_OFFSET_SET(iphdr, htons(tmp));
   \                     ??ip_frag_6:
   \      0x120   0xE1B0'0008        MOVS     R0,R8
   \      0x124   0xE1A0'0800        LSL      R0,R0,#+16
   \      0x128   0xE1B0'0820        LSRS     R0,R0,#+16
   \      0x12C   0x....'....        BL       htons
   \      0x130   0xE1C7'00B6        STRH     R0,[R7, #+6]
    333          
    334              /* Fill this fragment */
    335              nfb = (mtu - IP_HLEN) / 8;
   \      0x134   0xE1DD'00B0        LDRH     R0,[SP, #+0]
   \      0x138   0xE250'0014        SUBS     R0,R0,#+20
   \      0x13C   0xE3A0'1008        MOV      R1,#+8
   \      0x140   0x....'....        BL       __aeabi_idiv
   \      0x144   0xE1B0'5000        MOVS     R5,R0
    336              cop = last ? left : nfb * 8;
   \      0x148   0xE1B0'000B        MOVS     R0,R11
   \      0x14C   0xE1A0'0800        LSL      R0,R0,#+16
   \      0x150   0xE1B0'0820        LSRS     R0,R0,#+16
   \      0x154   0xE350'0000        CMP      R0,#+0
   \      0x158   0x0A00'0001        BEQ      ??ip_frag_7
   \      0x15C   0xE1B0'400A        MOVS     R4,R10
   \      0x160   0xEA00'0000        B        ??ip_frag_8
   \                     ??ip_frag_7:
   \      0x164   0xE1B0'4185        LSLS     R4,R5,#+3
    337          
    338              p = copy_from_pbuf(p, &poff, (u8_t *) iphdr + IP_HLEN, cop);
   \                     ??ip_frag_8:
   \      0x168   0xE1B0'3004        MOVS     R3,R4
   \      0x16C   0xE1A0'3803        LSL      R3,R3,#+16
   \      0x170   0xE1B0'3823        LSRS     R3,R3,#+16
   \      0x174   0xE297'2014        ADDS     R2,R7,#+20
   \      0x178   0xE28D'1002        ADD      R1,SP,#+2
   \      0x17C   0xE59D'0018        LDR      R0,[SP, #+24]
   \      0x180   0x....'....        BL       copy_from_pbuf
   \      0x184   0xE58D'0018        STR      R0,[SP, #+24]
    339          
    340              /* Correct header */
    341              IPH_LEN_SET(iphdr, htons(cop + IP_HLEN));
   \      0x188   0xE294'0014        ADDS     R0,R4,#+20
   \      0x18C   0xE1A0'0800        LSL      R0,R0,#+16
   \      0x190   0xE1B0'0820        LSRS     R0,R0,#+16
   \      0x194   0x....'....        BL       htons
   \      0x198   0xE1C7'00B2        STRH     R0,[R7, #+2]
    342              IPH_CHKSUM_SET(iphdr, 0);
   \      0x19C   0xE3A0'0000        MOV      R0,#+0
   \      0x1A0   0xE1C7'00BA        STRH     R0,[R7, #+10]
    343              IPH_CHKSUM_SET(iphdr, inet_chksum(iphdr, IP_HLEN));
   \      0x1A4   0xE3A0'1014        MOV      R1,#+20
   \      0x1A8   0xE1B0'0007        MOVS     R0,R7
   \      0x1AC   0x....'....        BL       inet_chksum
   \      0x1B0   0xE1C7'00BA        STRH     R0,[R7, #+10]
    344          
    345              if (last)
   \      0x1B4   0xE1B0'000B        MOVS     R0,R11
   \      0x1B8   0xE1A0'0800        LSL      R0,R0,#+16
   \      0x1BC   0xE1B0'0820        LSRS     R0,R0,#+16
   \      0x1C0   0xE350'0000        CMP      R0,#+0
   \      0x1C4   0x0A00'0004        BEQ      ??ip_frag_9
    346                pbuf_realloc(rambuf, left + IP_HLEN);
   \      0x1C8   0xE29A'1014        ADDS     R1,R10,#+20
   \      0x1CC   0xE1A0'1801        LSL      R1,R1,#+16
   \      0x1D0   0xE1B0'1821        LSRS     R1,R1,#+16
   \      0x1D4   0xE1B0'0006        MOVS     R0,R6
   \      0x1D8   0x....'....        BL       pbuf_realloc
    347              /* This part is ugly: we alloc a RAM based pbuf for 
    348               * the link level header for each chunk and then 
    349               * free it.A PBUF_ROM style pbuf for which pbuf_header
    350               * worked would make things simpler.
    351               */
    352              header = pbuf_alloc(PBUF_LINK, 0, PBUF_RAM);
   \                     ??ip_frag_9:
   \      0x1DC   0xE3A0'2000        MOV      R2,#+0
   \      0x1E0   0xE3A0'1000        MOV      R1,#+0
   \      0x1E4   0xE3A0'0002        MOV      R0,#+2
   \      0x1E8   0x....'....        BL       pbuf_alloc
   \      0x1EC   0xE58D'0004        STR      R0,[SP, #+4]
    353              if (header != NULL) {
   \      0x1F0   0xE59D'0004        LDR      R0,[SP, #+4]
   \      0x1F4   0xE350'0000        CMP      R0,#+0
   \      0x1F8   0x0A00'0010        BEQ      ??ip_frag_10
    354                pbuf_chain(header, rambuf);
   \      0x1FC   0xE1B0'1006        MOVS     R1,R6
   \      0x200   0xE59D'0004        LDR      R0,[SP, #+4]
   \      0x204   0x....'....        BL       pbuf_chain
    355                netif->output(netif, header, dest);
   \      0x208   0xE59D'2020        LDR      R2,[SP, #+32]
   \      0x20C   0xE59D'1004        LDR      R1,[SP, #+4]
   \      0x210   0xE59D'001C        LDR      R0,[SP, #+28]
   \      0x214   0xE59D'301C        LDR      R3,[SP, #+28]
   \      0x218   0xE593'3014        LDR      R3,[R3, #+20]
   \      0x21C   0xE12F'FF33        BLX      R3
    356                IPFRAG_STATS_INC(ip_frag.xmit);
   \      0x220   0x....'....        LDR      R0,??DataTable3_1
   \      0x224   0xE1D0'11BA        LDRH     R1,[R0, #+26]
   \      0x228   0xE291'1001        ADDS     R1,R1,#+1
   \      0x22C   0xE1C0'11BA        STRH     R1,[R0, #+26]
    357                pbuf_free(header);
   \      0x230   0xE59D'0004        LDR      R0,[SP, #+4]
   \      0x234   0x....'....        BL       pbuf_free
    358              } else {
    359                pbuf_free(rambuf);      
    360                return ERR_MEM;    
    361              }
    362              left -= cop;
   \      0x238   0xE05A'A004        SUBS     R10,R10,R4
   \      0x23C   0xEAFF'FF9C        B        ??ip_frag_2
   \                     ??ip_frag_10:
   \      0x240   0xE1B0'0006        MOVS     R0,R6
   \      0x244   0x....'....        BL       pbuf_free
   \      0x248   0xE3E0'0000        MVN      R0,#+0
   \      0x24C   0xEA00'0002        B        ??ip_frag_1
    363            }
    364            pbuf_free(rambuf);
   \                     ??ip_frag_3:
   \      0x250   0xE1B0'0006        MOVS     R0,R6
   \      0x254   0x....'....        BL       pbuf_free
    365            return ERR_OK;
   \      0x258   0xE3A0'0000        MOV      R0,#+0
   \                     ??ip_frag_1:
   \      0x25C   0xE28D'D024        ADD      SP,SP,#+36
   \      0x260   0xE8BD'8FF0        POP      {R4-R11,PC}      ;; return
    366          }

   \                                 In section .text, align 4, keep-with-next
   \                     ??DataTable3:
   \        0x0   0x....'....        DC32     ip_reasstmr

   \                                 In section .text, align 4, keep-with-next
   \                     ??DataTable3_1:
   \        0x0   0x....'....        DC32     lwip_stats

   \                                 In section .text, align 4, keep-with-next
   \                     ??DataTable3_2:
   \        0x0   0x....'....        DC32     ip_reassbuf

   \                                 In section .text, align 4, keep-with-next
   \                     ??DataTable3_3:
   \        0x0   0x....'....        DC32     ip_reassflags

   \                                 In section .text, align 4, keep-with-next
   \                     ??DataTable3_4:
   \        0x0   0x....'....        DC32     ip_reassbitmap

   \                                 In section .text, align 4, keep-with-next
   \                     ??DataTable3_5:
   \        0x0   0x....'....        DC32     bitmap_bits

   \                                 In section .text, align 4, keep-with-next
   \                     ??DataTable3_6:
   \        0x0   0x....'....        DC32     ip_reasslen

   \                                 In section .text, align 4, keep-with-next
   \                     ??DataTable3_7:
   \        0x0   0x....'....        DC32     buf+0x3

   Maximum stack usage in bytes:

   .cstack Function
   ------- --------
      40   copy_from_pbuf
        40   -> __aeabi_memcpy
      72   ip_frag
        72   -- Indirect call
        72   -> __aeabi_memcpy
        72   -> copy_from_pbuf
        72   -> htons
        72   -> inet_chksum
        72   -> ntohs
        72   -> pbuf_alloc
        72   -> pbuf_chain
        72   -> pbuf_free
        72   -> pbuf_realloc
        72 __aeabi_idiv
      56   ip_reass
        56   -> __aeabi_memcpy
        56   -> __aeabi_memset
        56   -> copy_from_pbuf
        56   -> htons
        56   -> inet_chksum
        56   -> ntohs
        56   -> pbuf_alloc
        56   -> pbuf_free
        56 __aeabi_idiv
       0   ip_reass_tmr


   Section sizes:

   Bytes  Function/Label
   -----  --------------
       4  ??DataTable3
       4  ??DataTable3_1
       4  ??DataTable3_2
       4  ??DataTable3_3
       4  ??DataTable3_4
       4  ??DataTable3_5
       4  ??DataTable3_6
       4  ??DataTable3_7
       8  bitmap_bits
    1500  buf
     212  copy_from_pbuf
     612  ip_frag
    1536  ip_reass
      32  ip_reass_tmr
      92  ip_reassbitmap
    5780  ip_reassbuf
       1  ip_reassflags
       2  ip_reasslen
       1  ip_reasstmr

 
 7 376 bytes in section .bss
     8 bytes in section .rodata
 2 424 bytes in section .text
 
 2 424 bytes of CODE  memory
     8 bytes of CONST memory
 7 376 bytes of DATA  memory

Errors: none
Warnings: none
