###############################################################################
#
# IAR ANSI C/C++ Compiler V8.30.1.114/W32 for ARM         10/Dec/2019  12:06:39
# Copyright 1999-2018 IAR Systems AB.
#
#    Cpu mode     =  arm
#    Endian       =  little
#    Source file  =  E:\armipc\ipc\ipc.c
#    Command line =  
#        -f C:\Users\Bill\AppData\Local\Temp\EW5BD9.tmp (E:\armipc\ipc\ipc.c -D
#        DDRRAM_EXEC -D MMU_ENA -lC "E:\armipc\DDRRAM Debug\List" -o
#        "E:\armipc\DDRRAM Debug\Obj" --no_cse --no_unroll --no_inline
#        --no_code_motion --no_tbaa --no_clustering --no_scheduling --debug
#        --endian=little --cpu=ARM926EJ-S -e --fpu=None --dlib_config
#        "C:\Program Files\IAR Systems\Embedded Workbench
#        8.1\arm\inc\c\DLib_Config_Normal.h" -I E:\armipc\ -I E:\armipc\board\
#        -I E:\armipc\modules\ -I E:\armipc\lwip\include\lwip\ -I
#        E:\armipc\lwip\include\arch\ -I E:\armipc\rtos\include\ -I
#        E:\armipc\lwip\include\IPV4\lwip\ -I E:\armipc\lwip\netif\ppp\
#        --cpu_mode arm -On --use_c++_inline)
#    Locale       =  C
#    List file    =  E:\armipc\DDRRAM Debug\List\ipc.lst
#    Object file  =  E:\armipc\DDRRAM Debug\Obj\ipc.o
#
###############################################################################

E:\armipc\ipc\ipc.c
      1          /* MODULE Application */
      2          
      3          #include "../rtos/include/FreeRTOS.h"
      4          #include "../rtos/include/task.h"
      5          #include "board.h"

   \                                 In section .noinit, at 0x8001873c
   \   __absolute union <unnamed>#1434 volatile _A_HW_PINCTRL_DOUT3_TOG
   \                     _A_HW_PINCTRL_DOUT3_TOG:
   \        0x0                      DS8 4
      6          #include "ipc.h"
      7          
      8          

   \                                 In section .text, align 4, keep-with-next
      9          void lUDPLoggingPrintf(const char *apFmt, ...)
     10          {
   \                     lUDPLoggingPrintf:
   \        0x0   0xE92D'000E        PUSH     {R1-R3}
     11            return;
   \        0x4   0xE28D'D00C        ADD      SP,SP,#+12
   \        0x8   0xE12F'FF1E        BX       LR               ;; return
     12          }
     13          
     14          
     15          // Sets a user timer, duration is in ms

   \                                 In section .text, align 4, keep-with-next
     16          void setTimer(TIMER *timer, ulong duration)
     17          {
   \                     setTimer:
   \        0x0   0xE92D'4038        PUSH     {R3-R5,LR}
   \        0x4   0xE1B0'4000        MOVS     R4,R0
   \        0x8   0xE1B0'5001        MOVS     R5,R1
     18          	timer->start = clock();
   \        0xC   0x....'....        BL       clock
   \       0x10   0xE584'0008        STR      R0,[R4, #+8]
     19          	timer->duration = duration;
   \       0x14   0xE584'5004        STR      R5,[R4, #+4]
     20          	timer->valid = (duration)? TRUE : FALSE;
   \       0x18   0xE355'0000        CMP      R5,#+0
   \       0x1C   0x0A00'0001        BEQ      ??setTimer_0
   \       0x20   0xE3A0'0001        MOV      R0,#+1
   \       0x24   0xEA00'0000        B        ??setTimer_1
   \                     ??setTimer_0:
   \       0x28   0xE3A0'0000        MOV      R0,#+0
   \                     ??setTimer_1:
   \       0x2C   0xE584'0000        STR      R0,[R4, #+0]
     21          	return;
   \       0x30   0xE8BD'8031        POP      {R0,R4,R5,PC}    ;; return
     22          }
     23          
     24          // Checks the timer and returns (TRUE) if the timer has expired

   \                                 In section .text, align 4, keep-with-next
     25          int checkTimer(TIMER *timer)
     26          {
   \                     checkTimer:
   \        0x0   0xE92D'4010        PUSH     {R4,LR}
   \        0x4   0xE1B0'4000        MOVS     R4,R0
     27           int result;
     28          
     29          	if(timer->valid != TRUE)
   \        0x8   0xE594'0000        LDR      R0,[R4, #+0]
   \        0xC   0xE350'0001        CMP      R0,#+1
   \       0x10   0x0A00'0001        BEQ      ??checkTimer_0
     30          		result = TRUE;
   \       0x14   0xE3A0'0001        MOV      R0,#+1
   \       0x18   0xEA00'000A        B        ??checkTimer_1
     31          	else if((clock() - timer->start) > timer->duration)
   \                     ??checkTimer_0:
   \       0x1C   0x....'....        BL       clock
   \       0x20   0xE594'1004        LDR      R1,[R4, #+4]
   \       0x24   0xE594'2008        LDR      R2,[R4, #+8]
   \       0x28   0xE050'0002        SUBS     R0,R0,R2
   \       0x2C   0xE151'0000        CMP      R1,R0
   \       0x30   0x2A00'0003        BCS      ??checkTimer_2
     32          	{
     33          		timer->valid = FALSE;
   \       0x34   0xE3A0'0000        MOV      R0,#+0
   \       0x38   0xE584'0000        STR      R0,[R4, #+0]
     34          		result = TRUE;
   \       0x3C   0xE3A0'0001        MOV      R0,#+1
   \       0x40   0xEA00'0000        B        ??checkTimer_1
     35          	}else
     36          		result = FALSE;
   \                     ??checkTimer_2:
   \       0x44   0xE3A0'0000        MOV      R0,#+0
     37          	return(result);
   \                     ??checkTimer_1:
   \       0x48   0xE8BD'8010        POP      {R4,PC}          ;; return
     38          }
     39          
     40          
     41          
     42          #ifdef FFFFFFOOOOOOOOOOOOOOO
     43          static portTASK_FUNCTION(network_task2, pvParameters)
     44          {
     45           float f1, f2;
     46            (void)pvParameters; /* parameter not used */
     47            for(;;)
     48            {
     49              LED3_TOGGLE();
     50              vTaskDelay(100 / portTICK_RATE_MS);
     51            }
     52          }
     53          
     54          static portTASK_FUNCTION(bridge_task2, pvParameters)
     55          {
     56            (void)pvParameters; /* parameter not used */
     57            for(;;)
     58            {
     59              LED2_TOGGLE();
     60              vTaskDelay(50 / portTICK_RATE_MS);
     61            }
     62          }
     63          #endif
     64          

   \                                 In section .data, align 2
     65          ushort gSERIAL = kSERIAL;
   \                     gSERIAL:
   \        0x0   0x04D2             DC16 1234

   \                                 In section .data, align 2
     66          ushort gVERSION = kVERSION;
   \                     gVERSION:
   \        0x0   0x0064             DC16 100
     67          
     68          
     69          // important! put this into our nvram space
     70          static struct {
     71              volatile unsigned char oops;
     72              volatile unsigned char mode;
     73              volatile unsigned char flag;
     74              volatile unsigned char ___x;
     75              volatile int sleep;
     76              char note [124];

   \                                 In section .bss, align 4
     77          }gSTATE;
   \                     gSTATE:
   \        0x0                      DS8 132
     78          
     79          // ---------------------------------------------------------------------
     80          

   \                                 In section .text, align 4, keep-with-next
     81          void assert (const char * message)
     82          {
   \                     assert:
   \        0x0   0xE92D'4038        PUSH     {R3-R5,LR}
   \        0x4   0xE1B0'4000        MOVS     R4,R0
     83              vTaskSuspendAll ();
   \        0x8   0x....'....        BL       vTaskSuspendAll
     84              strncpy (gSTATE.note, message, 123);
   \        0xC   0x....'....        LDR      R5,??DataTable14
   \       0x10   0xE3A0'207B        MOV      R2,#+123
   \       0x14   0xE1B0'1004        MOVS     R1,R4
   \       0x18   0xE295'0008        ADDS     R0,R5,#+8
   \       0x1C   0x....'....        BL       strncpy
     85              gSTATE.note[123] = 0;
   \       0x20   0xE3A0'0000        MOV      R0,#+0
   \       0x24   0xE5C5'0083        STRB     R0,[R5, #+131]
     86              gSTATE.oops = 9;
   \       0x28   0xE3A0'0009        MOV      R0,#+9
   \       0x2C   0xE5C5'0000        STRB     R0,[R5, #+0]
     87          //    ae_reset ();
     88              xTaskResumeAll ();
   \       0x30   0x....'....        BL       xTaskResumeAll
     89          }
   \       0x34   0xE8BD'8031        POP      {R0,R4,R5,PC}    ;; return
     90          

   \                                 In section .text, align 4, keep-with-next
     91          void lwip_assert (const char * message)
     92          {
   \                     lwip_assert:
   \        0x0   0xE92D'4010        PUSH     {R4,LR}
   \        0x4   0xE1B0'4000        MOVS     R4,R0
     93              assert (message);
   \        0x8   0xE1B0'0004        MOVS     R0,R4
   \        0xC   0x....'....        BL       assert
     94          }
   \       0x10   0xE8BD'8010        POP      {R4,PC}          ;; return
     95          
     96          // ---------------------------------------------------------------------
     97          

   \                                 In section .text, align 4, keep-with-next
     98          static int __debug (const char * note)
     99          {
   \                     __debug:
   \        0x0   0xE92D'4010        PUSH     {R4,LR}
   \        0x4   0xE24D'D0E0        SUB      SP,SP,#+224
   \        0x8   0xE1B0'4000        MOVS     R4,R0
    100              char s [160];
    101              struct tm tm;
    102          
    103             RTC_read(&tm);
   \        0xC   0xE28D'0014        ADD      R0,SP,#+20
   \       0x10   0x....'....        BL       RTC_read
    104          
    105              sprintf(s, ". %02d/%02d/%02d %02d:%02d:%02dZ %1.138s\n",
    106                       tm.tm_mon,
    107                       tm.tm_mday,
    108                       tm.tm_year,
    109                       tm.tm_hour,
    110                       tm.tm_min,
    111                       tm.tm_sec,
    112                       note);
   \       0x14   0xE58D'4010        STR      R4,[SP, #+16]
   \       0x18   0xE59D'0014        LDR      R0,[SP, #+20]
   \       0x1C   0xE58D'000C        STR      R0,[SP, #+12]
   \       0x20   0xE59D'0018        LDR      R0,[SP, #+24]
   \       0x24   0xE58D'0008        STR      R0,[SP, #+8]
   \       0x28   0xE59D'001C        LDR      R0,[SP, #+28]
   \       0x2C   0xE58D'0004        STR      R0,[SP, #+4]
   \       0x30   0xE59D'0028        LDR      R0,[SP, #+40]
   \       0x34   0xE58D'0000        STR      R0,[SP, #+0]
   \       0x38   0xE59D'3020        LDR      R3,[SP, #+32]
   \       0x3C   0xE59D'2024        LDR      R2,[SP, #+36]
   \       0x40   0x....'....        LDR      R1,??DataTable14_1
   \       0x44   0xE28D'0040        ADD      R0,SP,#+64
   \       0x48   0x....'....        BL       sprintf
    113          
    114              s[159] = 0;
   \       0x4C   0xE3A0'0000        MOV      R0,#+0
   \       0x50   0xE5CD'00DF        STRB     R0,[SP, #+223]
    115          
    116          //D!    disk_append (DS_DEBUGLOG, strlen(s), (unsigned char *) s);
    117              return 0;
   \       0x54   0xE3A0'0000        MOV      R0,#+0
   \       0x58   0xE28D'D0E0        ADD      SP,SP,#+224
   \       0x5C   0xE8BD'8010        POP      {R4,PC}          ;; return
    118          }
    119          
    120          // ---------------------------------------------------------------------

   \                                 In section .text, align 4, keep-with-next
    121          int voff_arm(void)
    122          {
    123            return(1);
   \                     voff_arm:
   \        0x0   0xE3A0'0001        MOV      R0,#+1
   \        0x4   0xE12F'FF1E        BX       LR               ;; return
    124          }
    125          

   \                                 In section .text, align 4, keep-with-next
    126          void voff_off(void)
    127          {
    128            return;
   \                     voff_off:
   \        0x0   0xE12F'FF1E        BX       LR               ;; return
    129          }
    130          

   \                                 In section .text, align 4, keep-with-next
    131          void voff_arm_1s(void)
    132          {
    133            return;
   \                     voff_arm_1s:
   \        0x0   0xE12F'FF1E        BX       LR               ;; return
    134          }
    135          

   \                                 In section .text, align 4, keep-with-next
    136          void sleep(int ms)
    137          {
    138            return;
   \                     sleep:
   \        0x0   0xE12F'FF1E        BX       LR               ;; return
    139          }
    140          

   \                                 In section .text, align 4, keep-with-next
    141          void pio_wr(char bit, char state)
    142          {
    143            return;
   \                     pio_wr:
   \        0x0   0xE12F'FF1E        BX       LR               ;; return
    144          }
    145          

   \                                 In section .text, align 4, keep-with-next
    146          int pio_rd(char bit)
    147          {
   \                     pio_rd:
   \        0x0   0xE1B0'1000        MOVS     R1,R0
    148            return(1);
   \        0x4   0xE3A0'0001        MOV      R0,#+1
   \        0x8   0xE12F'FF1E        BX       LR               ;; return
    149          }
    150          

   \                                 In section .text, align 4, keep-with-next
    151          void led(int onOff)
    152          {
    153            return;
   \                     led:
   \        0x0   0xE12F'FF1E        BX       LR               ;; return
    154          }
    155          

   \                                 In section .text, align 4, keep-with-next
    156          int ee_rd(int address)
    157          {
   \                     ee_rd:
   \        0x0   0xE1B0'1000        MOVS     R1,R0
    158            return(1234);
   \        0x4   0xE3A0'00D2        MOV      R0,#+210
   \        0x8   0xE380'0E40        ORR      R0,R0,#0x400
   \        0xC   0xE12F'FF1E        BX       LR               ;; return
    159          }
    160          

   \                                 In section .text, align 4, keep-with-next
    161          static int log_oops__ (void)
    162          {
   \                     log_oops__:
   \        0x0   0xE92D'5000        PUSH     {R12,LR}
    163              gSTATE.note[123] = 0;
   \        0x4   0x....'....        LDR      R0,??DataTable14
   \        0x8   0xE3A0'1000        MOV      R1,#+0
   \        0xC   0xE5C0'1083        STRB     R1,[R0, #+131]
    164              switch (gSTATE.oops) {
   \       0x10   0xE5D0'1000        LDRB     R1,[R0, #+0]
   \       0x14   0xE351'0009        CMP      R1,#+9
   \       0x18   0x8A00'0021        BHI      ??log_oops___1
   \       0x1C   0xE7DF'2001        LDRB     R2,[PC, R1]
   \       0x20   0xE08F'F102        ADD      PC,PC,R2, LSL #+2
   \                     ??log_oops___0:
   \       0x24   0x02 0x04          DC8      0x2,0x4,0x7,0xA
   \              0x07 0x0A    
   \       0x28   0x0D 0x10          DC8      0xD,0x10,0x13,0x16
   \              0x13 0x16    
   \       0x2C   0x19 0x1C          DC8      0x19,0x1C,0x0,0x0
   \              0x00 0x00    
    165              case 0x0: return 0;
   \                     ??log_oops___2:
   \       0x30   0xE3A0'0000        MOV      R0,#+0
   \       0x34   0xEA00'001C        B        ??log_oops___3
    166              case 0x1: return __debug ("OOPS1 divide error");
   \                     ??log_oops___4:
   \       0x38   0x....'....        LDR      R0,??DataTable14_2
   \       0x3C   0x....'....        BL       __debug
   \       0x40   0xEA00'0019        B        ??log_oops___3
    167              case 0x2: return __debug ("OOPS2 trace");
   \                     ??log_oops___5:
   \       0x44   0x....'....        LDR      R0,??DataTable14_3
   \       0x48   0x....'....        BL       __debug
   \       0x4C   0xEA00'0016        B        ??log_oops___3
    168              case 0x3: return __debug ("OOPS3 non-maskable");
   \                     ??log_oops___6:
   \       0x50   0x....'....        LDR      R0,??DataTable14_4
   \       0x54   0x....'....        BL       __debug
   \       0x58   0xEA00'0013        B        ??log_oops___3
    169              case 0x4: return __debug ("OOPS4 breakpoint");
   \                     ??log_oops___7:
   \       0x5C   0x....'....        LDR      R0,??DataTable14_5
   \       0x60   0x....'....        BL       __debug
   \       0x64   0xEA00'0010        B        ??log_oops___3
    170              case 0x5: return __debug ("OOPS5 INT0 overflow");
   \                     ??log_oops___8:
   \       0x68   0x....'....        LDR      R0,??DataTable14_6
   \       0x6C   0x....'....        BL       __debug
   \       0x70   0xEA00'000D        B        ??log_oops___3
    171              case 0x6: return __debug ("OOPS6 array bounds");
   \                     ??log_oops___9:
   \       0x74   0x....'....        LDR      R0,??DataTable14_7
   \       0x78   0x....'....        BL       __debug
   \       0x7C   0xEA00'000A        B        ??log_oops___3
    172              case 0x7: return __debug ("OOPS7 unused exception");
   \                     ??log_oops___10:
   \       0x80   0x....'....        LDR      R0,??DataTable14_8
   \       0x84   0x....'....        BL       __debug
   \       0x88   0xEA00'0007        B        ??log_oops___3
    173              case 0x8: return __debug ("OOPS8 esc opcode");
   \                     ??log_oops___11:
   \       0x8C   0x....'....        LDR      R0,??DataTable14_9
   \       0x90   0x....'....        BL       __debug
   \       0x94   0xEA00'0004        B        ??log_oops___3
    174              case 0x9: return __debug (gSTATE.note);
   \                     ??log_oops___12:
   \       0x98   0xE290'0008        ADDS     R0,R0,#+8
   \       0x9C   0x....'....        BL       __debug
   \       0xA0   0xEA00'0001        B        ??log_oops___3
    175              default:  return __debug ("OOPS? bad value");
   \                     ??log_oops___1:
   \       0xA4   0x....'....        LDR      R0,??DataTable14_10
   \       0xA8   0x....'....        BL       __debug
   \                     ??log_oops___3:
   \       0xAC   0xE8BD'8002        POP      {R1,PC}          ;; return
    176              }
    177          }
    178          

   \                                 In section .text, align 4, keep-with-next
    179          static void log_oops (void) {
   \                     log_oops:
   \        0x0   0xE92D'5000        PUSH     {R12,LR}
    180              log_oops__ ();
   \        0x4   0x....'....        BL       log_oops__
    181          }
   \        0x8   0xE8BD'8001        POP      {R0,PC}          ;; return
    182          

   \                                 In section .text, align 4, keep-with-next
    183          static void clr_oops (void) {
    184              gSTATE.oops = 0;
   \                     clr_oops:
   \        0x0   0xE3A0'0000        MOV      R0,#+0
   \        0x4   0x....'....        LDR      R1,??DataTable14
   \        0x8   0xE5C1'0000        STRB     R0,[R1, #+0]
    185          }
   \        0xC   0xE12F'FF1E        BX       LR               ;; return
    186          
    187          
    188          
    189          // ---------------------------------------------------------------------
    190          

   \                                 In section .text, align 4, keep-with-next
    191          static void onoff_init (void)
    192          {
    193              // initialize the io that's used with the pic on-off-plus controller
    194          
    195          #define IO_WRN  0x0200  /* P25 (input, low) low battery warning */
    196          #define IO_ST0  0x4000  /* P30 (input, low) onoff status {1} */
    197          #define IO_ST1  0x0100  /* P24 (input, low) onoff status {1} */
    198          
    199              // {1} onoff status [ST1 ST0]
    200              // [1 1] running
    201              // [1 0] shutdown request
    202              // [0 1] short button press
    203              // [0 0] long button press
    204          
    205          #if NOT_USED
    206              pio_wr (10, 0);    // RDY (output, high) - reset Voff override,
    207              pio_init (10, 2);  // and signal that other outputs are valid
    208              pio_wr (10, 0);
    209          
    210              pio_wr (13, 0);    // RST (output, high) - reset logger, removes
    211              pio_init (13, 2);  // power from the logger when asserted
    212              pio_wr (13, 0);
    213          
    214              pio_wr (14, 0);    // MC0 (output, high) - modem on control
    215              pio_wr (15, 0);    // MC1 (output, high) - modem off control
    216              pio_init (14, 2);
    217              pio_init (15, 2);
    218              pio_wr (14, 0);
    219              pio_wr (15, 0);
    220          
    221              pio_wr (31, 0);   // OFF (output, high) - shutdown control
    222              pio_init (31, 2);
    223              pio_wr (31, 0);
    224          
    225          
    226              // not sure if this is necessary
    227              pio_init (24, 2);
    228              pio_init (30, 2);
    229              pio_wr (24, 1);
    230              pio_wr (30, 1);
    231              pio_init (24, 1);
    232              pio_init (30, 1);
    233          #endif
    234          }
   \                     onoff_init:
   \        0x0   0xE12F'FF1E        BX       LR               ;; return
    235          

   \                                 In section .text, align 4, keep-with-next
    236          static void onoff_enable_io (void)
    237          {
   \                     onoff_enable_io:
   \        0x0   0xE92D'5000        PUSH     {R12,LR}
    238              pio_wr (10, 1);
   \        0x4   0xE3A0'1001        MOV      R1,#+1
   \        0x8   0xE3A0'000A        MOV      R0,#+10
   \        0xC   0x....'....        BL       pio_wr
    239          }
   \       0x10   0xE8BD'8001        POP      {R0,PC}          ;; return
    240          
    241          #define dly0s 1200
    242          #define dly1s 2000
    243          #define dly2s 4000
    244          

   \                                 In section .text, align 4, keep-with-next
    245          static void onoff_reset_status (void)
    246          {
   \                     onoff_reset_status:
   \        0x0   0xE92D'5000        PUSH     {R12,LR}
    247              pio_wr (10, 1);
   \        0x4   0xE3A0'1001        MOV      R1,#+1
   \        0x8   0xE3A0'000A        MOV      R0,#+10
   \        0xC   0x....'....        BL       pio_wr
    248              sleep(dly0s);
   \       0x10   0xE3A0'0E4B        MOV      R0,#+1200
   \       0x14   0x....'....        BL       sleep
    249              pio_wr (10, 0);
   \       0x18   0xE3A0'1000        MOV      R1,#+0
   \       0x1C   0xE3A0'000A        MOV      R0,#+10
   \       0x20   0x....'....        BL       pio_wr
    250              sleep(dly1s);
   \       0x24   0xE3A0'0E7D        MOV      R0,#+2000
   \       0x28   0x....'....        BL       sleep
    251          }
   \       0x2C   0xE8BD'8001        POP      {R0,PC}          ;; return
    252          

   \                                 In section .text, align 4, keep-with-next
    253          static void onoff_shutdown (void)
    254          {
   \                     onoff_shutdown:
   \        0x0   0xE92D'5000        PUSH     {R12,LR}
    255              pio_wr (10, 1);
   \        0x4   0xE3A0'1001        MOV      R1,#+1
   \        0x8   0xE3A0'000A        MOV      R0,#+10
   \        0xC   0x....'....        BL       pio_wr
    256              sleep(dly0s);
   \       0x10   0xE3A0'0E4B        MOV      R0,#+1200
   \       0x14   0x....'....        BL       sleep
    257              pio_wr (31, 1);
   \       0x18   0xE3A0'1001        MOV      R1,#+1
   \       0x1C   0xE3A0'001F        MOV      R0,#+31
   \       0x20   0x....'....        BL       pio_wr
    258              sleep(dly1s);
   \       0x24   0xE3A0'0E7D        MOV      R0,#+2000
   \       0x28   0x....'....        BL       sleep
    259              sleep(dly1s);
   \       0x2C   0xE3A0'0E7D        MOV      R0,#+2000
   \       0x30   0x....'....        BL       sleep
    260          }
   \       0x34   0xE8BD'8001        POP      {R0,PC}          ;; return
    261          
    262          #define kONOFF_MASK  3
    263          #define kONOFF_LONG  3
    264          #define kONOFF_SHORT 2
    265          #define kONOFF_OFF   1
    266          #define kONOFF_RUN   0
    267          

   \                                 In section .text, align 4, keep-with-next
    268          static int __st (void)
    269          {
   \                     __st:
   \        0x0   0xE92D'40F8        PUSH     {R3-R7,LR}
    270              int a, b, c, d;
    271              a = 0;
   \        0x4   0xE3A0'4000        MOV      R4,#+0
    272              b = 0;
   \        0x8   0xE3A0'5000        MOV      R5,#+0
    273              c = 16;
   \        0xC   0xE3A0'6010        MOV      R6,#+16
    274              while (c-- > 0) {
   \                     ??__st_0:
   \       0x10   0xE1B0'0006        MOVS     R0,R6
   \       0x14   0xE250'6001        SUBS     R6,R0,#+1
   \       0x18   0xE350'0001        CMP      R0,#+1
   \       0x1C   0xBA00'000B        BLT      ??__st_1
    275                  d = pio_rd(1);
   \       0x20   0xE3A0'0001        MOV      R0,#+1
   \       0x24   0x....'....        BL       pio_rd
   \       0x28   0xE1B0'7000        MOVS     R7,R0
    276                  if (d & IO_ST1) a++;
   \       0x2C   0xE317'0F40        TST      R7,#0x100
   \       0x30   0x0A00'0000        BEQ      ??__st_2
   \       0x34   0xE294'4001        ADDS     R4,R4,#+1
    277                  if (d & IO_ST0) b++;
   \                     ??__st_2:
   \       0x38   0xE317'0C40        TST      R7,#0x4000
   \       0x3C   0x0A00'0000        BEQ      ??__st_3
   \       0x40   0xE295'5001        ADDS     R5,R5,#+1
    278                  sleep(2);
   \                     ??__st_3:
   \       0x44   0xE3A0'0002        MOV      R0,#+2
   \       0x48   0x....'....        BL       sleep
   \       0x4C   0xEAFF'FFEF        B        ??__st_0
    279              }
    280              d = 0;
   \                     ??__st_1:
   \       0x50   0xE3A0'0000        MOV      R0,#+0
    281              if (a > 7) d |= IO_ST1;
   \       0x54   0xE354'0008        CMP      R4,#+8
   \       0x58   0xBA00'0000        BLT      ??__st_4
   \       0x5C   0xE390'0F40        ORRS     R0,R0,#0x100
    282              if (b > 7) d |= IO_ST0;
   \                     ??__st_4:
   \       0x60   0xE355'0008        CMP      R5,#+8
   \       0x64   0xBA00'0000        BLT      ??__st_5
   \       0x68   0xE390'0C40        ORRS     R0,R0,#0x4000
    283              return d;
   \                     ??__st_5:
   \       0x6C   0xE8BD'80F2        POP      {R1,R4-R7,PC}    ;; return
    284          }
    285          

   \                                 In section .text, align 4, keep-with-next
    286          static int onoff_status (void)
    287          {
   \                     onoff_status:
   \        0x0   0xE92D'5000        PUSH     {R12,LR}
    288          #define __ST_MSK (IO_ST1|IO_ST0)
    289              switch (__st() & __ST_MSK) {
   \        0x4   0x....'....        BL       __st
   \        0x8   0xE210'0C41        ANDS     R0,R0,#0x4100
   \        0xC   0xE1A0'0800        LSL      R0,R0,#+16
   \       0x10   0xE1B0'0820        LSRS     R0,R0,#+16
   \       0x14   0xE350'0000        CMP      R0,#+0
   \       0x18   0x0A00'0004        BEQ      ??onoff_status_0
   \       0x1C   0xE350'0F40        CMP      R0,#+256
   \       0x20   0x0A00'0006        BEQ      ??onoff_status_1
   \       0x24   0xE350'0C40        CMP      R0,#+16384
   \       0x28   0x0A00'0002        BEQ      ??onoff_status_2
   \       0x2C   0xEA00'0005        B        ??onoff_status_3
    290              case 0:      return kONOFF_LONG;
   \                     ??onoff_status_0:
   \       0x30   0xE3A0'0003        MOV      R0,#+3
   \       0x34   0xEA00'0004        B        ??onoff_status_4
    291              case IO_ST0: return kONOFF_SHORT;
   \                     ??onoff_status_2:
   \       0x38   0xE3A0'0002        MOV      R0,#+2
   \       0x3C   0xEA00'0002        B        ??onoff_status_4
    292              case IO_ST1: return kONOFF_OFF;
   \                     ??onoff_status_1:
   \       0x40   0xE3A0'0001        MOV      R0,#+1
   \       0x44   0xEA00'0000        B        ??onoff_status_4
    293              }
    294              return kONOFF_RUN;
   \                     ??onoff_status_3:
   \       0x48   0xE3A0'0000        MOV      R0,#+0
   \                     ??onoff_status_4:
   \       0x4C   0xE8BD'8002        POP      {R1,PC}          ;; return
    295          }
    296          

   \                                 In section .text, align 4, keep-with-next
    297          static void state_init (void)
    298          {
   \                     state_init:
   \        0x0   0xE92D'4038        PUSH     {R3-R5,LR}
    299              gSTATE.flag = 0;
   \        0x4   0x....'....        LDR      R4,??DataTable14
   \        0x8   0xE3A0'0000        MOV      R0,#+0
   \        0xC   0xE5C4'0002        STRB     R0,[R4, #+2]
    300          
    301              // on-off button status, etc.
    302              gSTATE.flag |= onoff_status ();
   \       0x10   0xE5D4'5002        LDRB     R5,[R4, #+2]
   \       0x14   0x....'....        BL       onoff_status
   \       0x18   0xE190'0005        ORRS     R0,R0,R5
   \       0x1C   0xE5C4'0002        STRB     R0,[R4, #+2]
    303          
    304              // initialize serio flag
    305              if (!getCTS(BRIDGE_PORT))
   \       0x20   0xE3A0'0001        MOV      R0,#+1
   \       0x24   0x....'....        BL       getCTS
   \       0x28   0xE350'0000        CMP      R0,#+0
   \       0x2C   0x1A00'0002        BNE      ??state_init_0
    306                  gSTATE.flag |= kFLAG_SERIO;
   \       0x30   0xE5D4'0002        LDRB     R0,[R4, #+2]
   \       0x34   0xE390'0008        ORRS     R0,R0,#0x8
   \       0x38   0xE5C4'0002        STRB     R0,[R4, #+2]
    307          
    308              // initialize modem flag
    309              // if (??)
    310              //     gSTATE.flag |= kFLAG_MODEM;
    311          
    312              switch (gSTATE.flag & kONOFF_MASK) {
   \                     ??state_init_0:
   \       0x3C   0xE5D4'0002        LDRB     R0,[R4, #+2]
   \       0x40   0xE210'0003        ANDS     R0,R0,#0x3
   \       0x44   0xE210'00FF        ANDS     R0,R0,#0xFF      ;; Zero extend
   \       0x48   0xE350'0001        CMP      R0,#+1
   \       0x4C   0x0A00'0007        BEQ      ??state_init_1
   \       0x50   0x3A00'0008        BCC      ??state_init_2
   \       0x54   0xE350'0003        CMP      R0,#+3
   \       0x58   0x0A00'0000        BEQ      ??state_init_3
   \       0x5C   0x2A00'0005        BCS      ??state_init_2
    313              case kONOFF_SHORT:
    314              case kONOFF_LONG:
    315                  gSTATE.mode = kMODE_POWER;
   \                     ??state_init_3:
   \       0x60   0xE3A0'0007        MOV      R0,#+7
   \       0x64   0xE5C4'0001        STRB     R0,[R4, #+1]
    316                  gSTATE.___x = kMODE_POWER;
   \       0x68   0xE5C4'0003        STRB     R0,[R4, #+3]
    317                  break;
   \       0x6C   0xEA00'0001        B        ??state_init_2
    318              case kONOFF_OFF:
    319                  gSTATE.mode = kMODE_WAKEN;
   \                     ??state_init_1:
   \       0x70   0xE3A0'0005        MOV      R0,#+5
   \       0x74   0xE5C4'0001        STRB     R0,[R4, #+1]
    320                  break;
    321              }
    322          }
   \                     ??state_init_2:
   \       0x78   0xE8BD'8031        POP      {R0,R4,R5,PC}    ;; return
    323          
    324          // ---------------------------------------------------------------------
    325          
    326          #define kFOREVER  ((long)180L * JIFFIES_PER_SECOND)
    327          

   \                                 In section .bss, align 4
    328          static void * __supervisor = NULL;
   \                     __supervisor:
   \        0x0                      DS8 4
    329          

   \                                 In section .text, align 4, keep-with-next
    330          int supervisor_suspend_p (void)
    331          {
    332              return gSTATE.flag & kSUSPEND_ALL;
   \                     supervisor_suspend_p:
   \        0x0   0x....'....        LDR      R0,??DataTable14
   \        0x4   0xE5D0'0002        LDRB     R0,[R0, #+2]
   \        0x8   0xE210'0080        ANDS     R0,R0,#0x80
   \        0xC   0xE12F'FF1E        BX       LR               ;; return
    333          }
    334          

   \                                 In section .text, align 4, keep-with-next
    335          void supervisor_SLP (int target)
    336          {
   \                     supervisor_SLP:
   \        0x0   0xE92D'4038        PUSH     {R3-R5,LR}
   \        0x4   0xE1B0'4000        MOVS     R4,R0
    337              if (xSemaphoreTake (__supervisor, kFOREVER) == pdTRUE) {
   \        0x8   0x....'....        LDR      R5,??DataTable14_11
   \        0xC   0xE3A0'3000        MOV      R3,#+0
   \       0x10   0xE3A0'2BAC        MOV      R2,#+176128
   \       0x14   0xE382'2EF2        ORR      R2,R2,#0xF20
   \       0x18   0xE3A0'1000        MOV      R1,#+0
   \       0x1C   0xE595'0000        LDR      R0,[R5, #+0]
   \       0x20   0x....'....        BL       xQueueGenericReceive
   \       0x24   0xE350'0001        CMP      R0,#+1
   \       0x28   0x1A00'000B        BNE      ??supervisor_SLP_0
    338                  gSTATE.sleep = (target > 0) ? target : 1;
   \       0x2C   0xE354'0001        CMP      R4,#+1
   \       0x30   0xBA00'0001        BLT      ??supervisor_SLP_1
   \       0x34   0xE1B0'0004        MOVS     R0,R4
   \       0x38   0xEA00'0000        B        ??supervisor_SLP_2
   \                     ??supervisor_SLP_1:
   \       0x3C   0xE3A0'0001        MOV      R0,#+1
   \                     ??supervisor_SLP_2:
   \       0x40   0x....'....        LDR      R1,??DataTable14
   \       0x44   0xE581'0004        STR      R0,[R1, #+4]
    339                  xSemaphoreGive (__supervisor);
   \       0x48   0xE3A0'3000        MOV      R3,#+0
   \       0x4C   0xE3A0'2000        MOV      R2,#+0
   \       0x50   0xE3A0'1000        MOV      R1,#+0
   \       0x54   0xE595'0000        LDR      R0,[R5, #+0]
   \       0x58   0x....'....        BL       xQueueGenericSend
    340              }
    341          }
   \                     ??supervisor_SLP_0:
   \       0x5C   0xE8BD'8031        POP      {R0,R4,R5,PC}    ;; return
    342          

   \                                 In section .text, align 4, keep-with-next
    343          void supervisor_SET (unsigned char flag)
    344          {
   \                     supervisor_SET:
   \        0x0   0xE92D'4038        PUSH     {R3-R5,LR}
   \        0x4   0xE1B0'4000        MOVS     R4,R0
    345              if (xSemaphoreTake (__supervisor, kFOREVER) == pdTRUE) {
   \        0x8   0x....'....        LDR      R5,??DataTable14_11
   \        0xC   0xE3A0'3000        MOV      R3,#+0
   \       0x10   0xE3A0'2BAC        MOV      R2,#+176128
   \       0x14   0xE382'2EF2        ORR      R2,R2,#0xF20
   \       0x18   0xE3A0'1000        MOV      R1,#+0
   \       0x1C   0xE595'0000        LDR      R0,[R5, #+0]
   \       0x20   0x....'....        BL       xQueueGenericReceive
   \       0x24   0xE350'0001        CMP      R0,#+1
   \       0x28   0x1A00'0008        BNE      ??supervisor_SET_0
    346                  gSTATE.flag |= flag;
   \       0x2C   0x....'....        LDR      R0,??DataTable14
   \       0x30   0xE5D0'1002        LDRB     R1,[R0, #+2]
   \       0x34   0xE194'1001        ORRS     R1,R4,R1
   \       0x38   0xE5C0'1002        STRB     R1,[R0, #+2]
    347                  xSemaphoreGive (__supervisor);
   \       0x3C   0xE3A0'3000        MOV      R3,#+0
   \       0x40   0xE3A0'2000        MOV      R2,#+0
   \       0x44   0xE3A0'1000        MOV      R1,#+0
   \       0x48   0xE595'0000        LDR      R0,[R5, #+0]
   \       0x4C   0x....'....        BL       xQueueGenericSend
    348              }
    349          }
   \                     ??supervisor_SET_0:
   \       0x50   0xE8BD'8031        POP      {R0,R4,R5,PC}    ;; return
    350          

   \                                 In section .text, align 4, keep-with-next
    351          void supervisor_CLR (unsigned char flag)
    352          {
   \                     supervisor_CLR:
   \        0x0   0xE92D'4038        PUSH     {R3-R5,LR}
   \        0x4   0xE1B0'4000        MOVS     R4,R0
    353              if (xSemaphoreTake (__supervisor, kFOREVER) == pdTRUE) {
   \        0x8   0x....'....        LDR      R5,??DataTable14_11
   \        0xC   0xE3A0'3000        MOV      R3,#+0
   \       0x10   0xE3A0'2BAC        MOV      R2,#+176128
   \       0x14   0xE382'2EF2        ORR      R2,R2,#0xF20
   \       0x18   0xE3A0'1000        MOV      R1,#+0
   \       0x1C   0xE595'0000        LDR      R0,[R5, #+0]
   \       0x20   0x....'....        BL       xQueueGenericReceive
   \       0x24   0xE350'0001        CMP      R0,#+1
   \       0x28   0x1A00'0008        BNE      ??supervisor_CLR_0
    354                  gSTATE.flag &= ~flag;
   \       0x2C   0x....'....        LDR      R0,??DataTable14
   \       0x30   0xE5D0'1002        LDRB     R1,[R0, #+2]
   \       0x34   0xE1D1'1004        BICS     R1,R1,R4
   \       0x38   0xE5C0'1002        STRB     R1,[R0, #+2]
    355                  xSemaphoreGive (__supervisor);
   \       0x3C   0xE3A0'3000        MOV      R3,#+0
   \       0x40   0xE3A0'2000        MOV      R2,#+0
   \       0x44   0xE3A0'1000        MOV      R1,#+0
   \       0x48   0xE595'0000        LDR      R0,[R5, #+0]
   \       0x4C   0x....'....        BL       xQueueGenericSend
    356              }
    357          }
   \                     ??supervisor_CLR_0:
   \       0x50   0xE8BD'8031        POP      {R0,R4,R5,PC}    ;; return
    358          

   \                                 In section .text, align 4, keep-with-next
    359          void supervisor_END (unsigned char mode)
    360          {
   \                     supervisor_END:
   \        0x0   0xE92D'40F8        PUSH     {R3-R7,LR}
   \        0x4   0xE1B0'6000        MOVS     R6,R0
    361              int i = (int) (kFOREVER / 10);
   \        0x8   0xE3A0'5050        MOV      R5,#+80
   \        0xC   0xE385'5C46        ORR      R5,R5,#0x4600
    362          
    363              if (xSemaphoreTake (__supervisor, kFOREVER) == pdTRUE) {
   \       0x10   0x....'....        LDR      R7,??DataTable14_11
   \       0x14   0xE3A0'3000        MOV      R3,#+0
   \       0x18   0xE3A0'2BAC        MOV      R2,#+176128
   \       0x1C   0xE382'2EF2        ORR      R2,R2,#0xF20
   \       0x20   0xE3A0'1000        MOV      R1,#+0
   \       0x24   0xE597'0000        LDR      R0,[R7, #+0]
   \       0x28   0x....'....        BL       xQueueGenericReceive
   \       0x2C   0xE350'0001        CMP      R0,#+1
   \       0x30   0x1A00'004C        BNE      ??supervisor_END_1
    364                  gSTATE.flag |= kSUSPEND_ALL;
   \       0x34   0x....'....        LDR      R4,??DataTable14
   \       0x38   0xE5D4'0002        LDRB     R0,[R4, #+2]
   \       0x3C   0xE390'0080        ORRS     R0,R0,#0x80
   \       0x40   0xE5C4'0002        STRB     R0,[R4, #+2]
    365                  xSemaphoreGive (__supervisor);
   \       0x44   0xE3A0'3000        MOV      R3,#+0
   \       0x48   0xE3A0'2000        MOV      R2,#+0
   \       0x4C   0xE3A0'1000        MOV      R1,#+0
   \       0x50   0xE597'0000        LDR      R0,[R7, #+0]
   \       0x54   0x....'....        BL       xQueueGenericSend
    366                  while (gSTATE.flag & (kBRIDGE_BUSY | kNETWRK_BUSY)) {
   \                     ??supervisor_END_2:
   \       0x58   0xE5D4'0002        LDRB     R0,[R4, #+2]
   \       0x5C   0xE310'0030        TST      R0,#0x30
   \       0x60   0x0A00'0008        BEQ      ??supervisor_END_3
    367                      vTaskDelay (10);
   \       0x64   0xE3A0'000A        MOV      R0,#+10
   \       0x68   0x....'....        BL       vTaskDelay
    368                      if (i-- > 0) continue;
   \       0x6C   0xE1B0'0005        MOVS     R0,R5
   \       0x70   0xE250'5001        SUBS     R5,R0,#+1
   \       0x74   0xE350'0001        CMP      R0,#+1
   \       0x78   0xAAFF'FFF6        BGE      ??supervisor_END_2
    369                      assert ("supervisor_END: unable to suspend_all");
   \                     ??supervisor_END_4:
   \       0x7C   0x....'....        LDR      R0,??DataTable14_12
   \       0x80   0x....'....        BL       assert
   \       0x84   0xEAFF'FFF3        B        ??supervisor_END_2
    370                  }
    371                  vTaskSuspendAll ();
   \                     ??supervisor_END_3:
   \       0x88   0x....'....        BL       vTaskSuspendAll
    372                  switch (mode) {
   \       0x8C   0xE1B0'0006        MOVS     R0,R6
   \       0x90   0xE210'00FF        ANDS     R0,R0,#0xFF      ;; Zero extend
   \       0x94   0xE240'0001        SUB      R0,R0,#+1
   \       0x98   0xE350'0007        CMP      R0,#+7
   \       0x9C   0x8A00'002A        BHI      ??supervisor_END_5
   \       0xA0   0xE7DF'1000        LDRB     R1,[PC, R0]
   \       0xA4   0xE08F'F101        ADD      PC,PC,R1, LSL #+2
   \                     ??supervisor_END_0:
   \       0xA8   0x01 0x09          DC8      0x1,0x9,0xD,0x28
   \              0x0D 0x28    
   \       0xAC   0x28 0x0D          DC8      0x28,0xD,0x1E,0x5
   \              0x1E 0x05    
    373                  case kMODE_RESET:
    374                      bridge_logadd (MESSAGE_RESET, NULL);
   \                     ??supervisor_END_6:
   \       0xB0   0xE3A0'1000        MOV      R1,#+0
   \       0xB4   0xE3A0'00F8        MOV      R0,#+248
   \       0xB8   0xE380'0480        ORR      R0,R0,#0x80000000
   \       0xBC   0x....'....        BL       bridge_logadd
    375                  case kMODE_ERROR:
    376                      gSTATE.mode = mode;
   \                     ??supervisor_END_7:
   \       0xC0   0xE5C4'6001        STRB     R6,[R4, #+1]
    377                      //ae_reset ();
    378                      assert ("supervisor_END: TERN_ae_reset failed");
   \       0xC4   0x....'....        LDR      R0,??DataTable14_13
   \       0xC8   0x....'....        BL       assert
    379                      break;
   \       0xCC   0xEA00'0020        B        ??supervisor_END_8
    380                  case kMODE_TIMER:
    381                      bridge_logadd (MESSAGE_TIMER, NULL);
   \                     ??supervisor_END_9:
   \       0xD0   0xE3A0'1000        MOV      R1,#+0
   \       0xD4   0xE3A0'00FA        MOV      R0,#+250
   \       0xD8   0xE380'0480        ORR      R0,R0,#0x80000000
   \       0xDC   0x....'....        BL       bridge_logadd
    382                  case kMODE_FAULT:
    383                  case kMODE_SLEEP:
    384          #ifdef USE_HOKEY_VOFF
    385                      gSTATE.mode = mode;
   \                     ??supervisor_END_10:
   \       0xE0   0xE5C4'6001        STRB     R6,[R4, #+1]
    386                      onoff_reset_status ();
   \       0xE4   0x....'....        BL       onoff_reset_status
    387                      voff_arm ();
   \       0xE8   0x....'....        BL       voff_arm
    388                      voff_off ();
   \       0xEC   0x....'....        BL       voff_off
    389                      voff_arm_1s ();
   \       0xF0   0x....'....        BL       voff_arm_1s
    390                      sleep(dly1s);
   \       0xF4   0xE3A0'0E7D        MOV      R0,#+2000
   \       0xF8   0x....'....        BL       sleep
    391                      onoff_enable_io ();
   \       0xFC   0x....'....        BL       onoff_enable_io
    392                      // prepare for an unplanned shutdown
    393                      bridge_logadd (MESSAGE_EXTRA, "IF: TERN_voff_off failed");
   \      0x100   0x....'....        LDR      R1,??DataTable14_14
   \      0x104   0xE3A0'00FE        MOV      R0,#+254
   \      0x108   0xE380'0480        ORR      R0,R0,#0x80000000
   \      0x10C   0x....'....        BL       bridge_logadd
    394                      gSTATE.mode = kMODE_ERROR + kMODE_READY; // we're up
   \      0x110   0xE3A0'000C        MOV      R0,#+12
   \      0x114   0xE5C4'0001        STRB     R0,[R4, #+1]
    395                      gSTATE.___x = 0;
   \      0x118   0xE3A0'0000        MOV      R0,#+0
   \      0x11C   0xE5C4'0003        STRB     R0,[R4, #+3]
    396                      break;
   \      0x120   0xEA00'000B        B        ??supervisor_END_8
    397          #endif
    398                  case kMODE_POWER:
    399                      bridge_logadd (MESSAGE_PWRDN, NULL);
   \                     ??supervisor_END_11:
   \      0x124   0xE3A0'1000        MOV      R1,#+0
   \      0x128   0xE3A0'00FC        MOV      R0,#+252
   \      0x12C   0xE380'0480        ORR      R0,R0,#0x80000000
   \      0x130   0x....'....        BL       bridge_logadd
    400                      gSTATE.mode = mode;
   \      0x134   0xE5C4'6001        STRB     R6,[R4, #+1]
    401                      gSTATE.___x = mode;
   \      0x138   0xE5C4'6003        STRB     R6,[R4, #+3]
    402                      onoff_shutdown ();
   \      0x13C   0x....'....        BL       onoff_shutdown
    403                      assert ("supervisor_END: onoff_shutdown failed");
   \      0x140   0x....'....        LDR      R0,??DataTable14_15
   \      0x144   0x....'....        BL       assert
    404                      break;
   \      0x148   0xEA00'0001        B        ??supervisor_END_8
    405                  default:
    406                      assert ("supervisor_END: bad mode");
   \                     ??supervisor_END_5:
   \      0x14C   0x....'....        LDR      R0,??DataTable14_16
   \      0x150   0x....'....        BL       assert
    407                  }
    408                  gSTATE.flag &= ~kSUSPEND_ALL;
   \                     ??supervisor_END_8:
   \      0x154   0xE5D4'0002        LDRB     R0,[R4, #+2]
   \      0x158   0xE210'007F        ANDS     R0,R0,#0x7F
   \      0x15C   0xE5C4'0002        STRB     R0,[R4, #+2]
    409                  xTaskResumeAll ();
   \      0x160   0x....'....        BL       xTaskResumeAll
   \      0x164   0xEA00'0001        B        ??supervisor_END_12
    410              }
    411              else {
    412                  assert ("supervisor_END: can't lock");
   \                     ??supervisor_END_1:
   \      0x168   0x....'....        LDR      R0,??DataTable14_17
   \      0x16C   0x....'....        BL       assert
    413              }
    414          }
   \                     ??supervisor_END_12:
   \      0x170   0xE8BD'80F1        POP      {R0,R4-R7,PC}    ;; return
    415          

   \                                 In section .text, align 4, keep-with-next
    416          void supervisory (void * parameter)
    417          {
   \                     supervisory:
   \        0x0   0xE92D'4010        PUSH     {R4,LR}
   \        0x4   0xE1B0'4000        MOVS     R4,R0
    418              do {
    419           
    420                while (onoff_status () != kONOFF_OFF)
   \                     ??supervisory_0:
   \        0x8   0x....'....        BL       onoff_status
   \        0xC   0xE350'0001        CMP      R0,#+1
   \       0x10   0x0A00'0005        BEQ      ??supervisory_1
    421              {
    422                  LED2_TOGGLE();
   \       0x14   0xE3A0'0020        MOV      R0,#+32
   \       0x18   0x....'....        LDR      R1,??DataTable14_18  ;; 0x8001873c
   \       0x1C   0xE581'0000        STR      R0,[R1, #+0]
    423                  vTaskDelay(50 / portTICK_RATE_MS);
   \       0x20   0xE3A0'0032        MOV      R0,#+50
   \       0x24   0x....'....        BL       vTaskDelay
   \       0x28   0xEAFF'FFF6        B        ??supervisory_0
    424              };
    425                // put the recorder to sleep
    426                  supervisor_SET (kBRIDGE_PEND);
   \                     ??supervisory_1:
   \       0x2C   0xE3A0'0040        MOV      R0,#+64
   \       0x30   0x....'....        BL       supervisor_SET
    427                  bridge_SetREQ (0x47);
   \       0x34   0xE3A0'0047        MOV      R0,#+71
   \       0x38   0x....'....        BL       bridge_SetREQ
    428                  while (gSTATE.flag & kBRIDGE_PEND) {
   \                     ??supervisory_2:
   \       0x3C   0x....'....        LDR      R0,??DataTable14
   \       0x40   0xE5D0'0002        LDRB     R0,[R0, #+2]
   \       0x44   0xE310'0040        TST      R0,#0x40
   \       0x48   0x0A00'0002        BEQ      ??supervisory_3
    429                      vTaskDelay (6);
   \       0x4C   0xE3A0'0006        MOV      R0,#+6
   \       0x50   0x....'....        BL       vTaskDelay
   \       0x54   0xEAFF'FFF8        B        ??supervisory_2
    430                  }
    431                  supervisor_CLR (kBRIDGE_PEND);
   \                     ??supervisory_3:
   \       0x58   0xE3A0'0040        MOV      R0,#+64
   \       0x5C   0x....'....        BL       supervisor_CLR
    432                  sleep(dly1s);
   \       0x60   0xE3A0'0E7D        MOV      R0,#+2000
   \       0x64   0x....'....        BL       sleep
    433          
    434                  supervisor_END (kMODE_POWER);
   \       0x68   0xE3A0'0007        MOV      R0,#+7
   \       0x6C   0x....'....        BL       supervisor_END
    435          
    436                  // should never get here
    437                  assert ("supervisory: TERMINATED");
   \       0x70   0x....'....        LDR      R0,??DataTable14_19
   \       0x74   0x....'....        BL       assert
    438          
    439              } while (1);
   \       0x78   0xEAFF'FFE2        B        ??supervisory_0
   \       0x7C                      REQUIRE _A_HW_PINCTRL_DOUT3_TOG
    440              // should never get here
    441          }
    442          
    443          // ---------------------------------------------------------------------
    444          

   \                                 In section .text, align 4, keep-with-next
    445          static void button_long_press (void)
    446          {
   \                     button_long_press:
   \        0x0   0xE92D'5000        PUSH     {R12,LR}
    447              int t;
                         ^
Warning[Pe177]: variable "t" was declared but never referenced
    448          
    449              led (1);
   \        0x4   0xE3A0'0001        MOV      R0,#+1
   \        0x8   0x....'....        BL       led
    450              bridge_logadd (MESSAGE_FILES, NULL);
   \        0xC   0xE3A0'1000        MOV      R1,#+0
   \       0x10   0xE3A0'00FD        MOV      R0,#+253
   \       0x14   0xE380'0480        ORR      R0,R0,#0x80000000
   \       0x18   0x....'....        BL       bridge_logadd
    451          //D!    t = disk_fetch_default (DS_NETCFG_Q, net_share_size(), net_share_area());
    452          //D!    if (t > 0) disk_store (DS_NETCFG_Q, t, net_share_area());
    453          //D!    t = disk_fetch_default (DS_DEVSET_Q, net_share_size(), net_share_area());
    454          //D    if (t > 0) disk_store (DS_DEVSET_Q, t, net_share_area());
    455              sleep(dly2s);
   \       0x1C   0xE3A0'0EFA        MOV      R0,#+4000
   \       0x20   0x....'....        BL       sleep
    456              led (0);
   \       0x24   0xE3A0'0000        MOV      R0,#+0
   \       0x28   0x....'....        BL       led
    457          }
   \       0x2C   0xE8BD'8001        POP      {R0,PC}          ;; return
    458          

   \                                 In section .text, align 4, keep-with-next
    459          static void restore_initial_state (void)
    460          {
   \                     restore_initial_state:
   \        0x0   0xE92D'5000        PUSH     {R12,LR}
    461              gSTATE.oops = 0;
   \        0x4   0x....'....        LDR      R0,??DataTable14
   \        0x8   0xE3A0'1000        MOV      R1,#+0
   \        0xC   0xE5C0'1000        STRB     R1,[R0, #+0]
    462              gSTATE.mode = kMODE_READY;
   \       0x10   0xE3A0'1004        MOV      R1,#+4
   \       0x14   0xE5C0'1001        STRB     R1,[R0, #+1]
    463          
    464              network_nvram_init ();
   \       0x18   0x....'....        BL       network_nvram_init
    465          
    466              // whatever initial state means now (?!*)
    467          }
   \       0x1C   0xE8BD'8001        POP      {R0,PC}          ;; return
    468          

   \                                 In section .text, align 4, keep-with-next
    469          static void restore_partial_state (void)
    470          {
    471              // probably not possible to do this (?!*)
    472          }
   \                     restore_partial_state:
   \        0x0   0xE12F'FF1E        BX       LR               ;; return
    473          
    474          unsigned long network_av (void);
    475          

   \                                 In section .text, align 4, keep-with-next
    476          static void gstate_snapshot (char * s)
    477          {
   \                     gstate_snapshot:
   \        0x0   0xE92D'401C        PUSH     {R2-R4,LR}
   \        0x4   0xE1B0'4000        MOVS     R4,R0
    478              sprintf (s,"IF: gSTATE oops: %02x  mode: %02x  flag: %02x  AV: %08lx",
    479                       gSTATE.oops, gSTATE.mode, gSTATE.flag, network_av());
   \        0x8   0x....'....        BL       network_av
   \        0xC   0x....'....        LDR      R1,??DataTable14
   \       0x10   0xE5D1'2002        LDRB     R2,[R1, #+2]
   \       0x14   0xE5D1'3001        LDRB     R3,[R1, #+1]
   \       0x18   0xE58D'0004        STR      R0,[SP, #+4]
   \       0x1C   0xE212'20FF        ANDS     R2,R2,#0xFF      ;; Zero extend
   \       0x20   0xE58D'2000        STR      R2,[SP, #+0]
   \       0x24   0xE213'30FF        ANDS     R3,R3,#0xFF      ;; Zero extend
   \       0x28   0xE5D1'2000        LDRB     R2,[R1, #+0]
   \       0x2C   0x....'....        LDR      R1,??DataTable14_20
   \       0x30   0xE1B0'0004        MOVS     R0,R4
   \       0x34   0x....'....        BL       sprintf
    480          }
   \       0x38   0xE8BD'8013        POP      {R0,R1,R4,PC}    ;; return
    481          
    482          #include "fs/include/efs.h"
    483          
    484          extern volatile void *pxCurrentTCB;
    485          

   \                                 In section .text, align 4, keep-with-next
    486          void hang(void)
    487          {
    488            while(1)
   \                     hang:
   \                     ??hang_0:
   \        0x0   0xEAFF'FFFE        B        ??hang_0
    489              ;
    490          }
    491          
    492          

   \                                 In section .text, align 4, keep-with-next
    493          void startIPC(void)
    494          {
   \                     startIPC:
   \        0x0   0xE92D'403E        PUSH     {R1-R5,LR}
    495          
    496           EmbeddedFileSystem efs;
                                     ^
Warning[Pe177]: variable "efs" was declared but never referenced
    497           EmbeddedFile filew, filer;
                               ^
Warning[Pe177]: variable "filew" was declared but never referenced

   EmbeddedFile filew, filer;
                       ^
"E:\armipc\ipc\ipc.c",497  Warning[Pe177]: variable "filer" was declared but
          never referenced
    498           unsigned short i, e;
                                 ^
Warning[Pe177]: variable "i" was declared but never referenced

   unsigned short i, e;
                     ^
"E:\armipc\ipc\ipc.c",498  Warning[Pe177]: variable "e" was declared but never
          referenced
    499           euint8 buf[512];
                         ^
Warning[Pe177]: variable "buf" was declared but never referenced

      sprintf (s,"IF: gSTATE oops: %02x  mode: %02x  flag: %02x  AV: %08lx",
      ^
"E:\armipc\ipc\ipc.c",478  Warning[Pa082]: undefined behavior: the order of
          volatile accesses is undefined in this statement
    500          
    501          #ifdef FOOOOOOOOOO
    502          ///////  i = HW_PINCTRL_MUXSEL0_bit.BANK4_PIN10;
    503            if(efs_init(&efs, 0) !=0 ) 
    504            {
    505                hang();
    506            }
    507          
    508            if(file_fopen(&filer, &efs.myFs, "orig.txt", 'r') != 0)
    509            {
    510                hang();
    511            }
    512          
    513            if(file_fopen(&filew ,&efs.myFs, "copy.txt", 'w' ) != 0)
    514            {
    515                hang();
    516            }
    517          
    518            while(e = file_read(&filer, 512 , buf)) 
    519            {
    520                file_write(&filew, e, buf) ;
    521            }
    522          
    523            file_fclose(&filer);
    524            file_fclose(&filew);
    525          
    526          //////  file_umount(&efs.myFs);
    527          #endif
    528          
    529            
    530            gSERIAL = kSERIAL;
   \        0x4   0xE3A0'00D2        MOV      R0,#+210
   \        0x8   0xE380'0E40        ORR      R0,R0,#0x400
   \        0xC   0x....'....        LDR      R1,??DataTable14_21
   \       0x10   0xE1C1'00B0        STRH     R0,[R1, #+0]
    531          
    532          //    ae_init ();
    533          //    patch_interrupt_table ();
    534          
    535              onoff_init ();
   \       0x14   0x....'....        BL       onoff_init
    536              state_init ();
   \       0x18   0x....'....        BL       state_init
    537          
    538              onoff_enable_io ();
   \       0x1C   0x....'....        BL       onoff_enable_io
    539          
    540          #if USE_HOKEY_VOFF
    541              voff_arm_1s ();
   \       0x20   0x....'....        BL       voff_arm_1s
    542          
    543              if(gSTATE.mode == kMODE_TIMER)
   \       0x24   0x....'....        LDR      R4,??DataTable14
   \       0x28   0xE5D4'0001        LDRB     R0,[R4, #+1]
   \       0x2C   0xE350'0002        CMP      R0,#+2
   \       0x30   0x1A00'0009        BNE      ??startIPC_1
    544              {
    545                  if(!voff_maybe_shutdown())
   \       0x34   0x....'....        BL       voff_maybe_shutdown
   \       0x38   0xE350'0000        CMP      R0,#+0
   \       0x3C   0x1A00'0006        BNE      ??startIPC_1
    546                  {
    547                      onoff_reset_status ();
   \       0x40   0x....'....        BL       onoff_reset_status
    548                      voff_arm ();
   \       0x44   0x....'....        BL       voff_arm
    549                      voff_off ();
   \       0x48   0x....'....        BL       voff_off
    550                      voff_arm_1s ();
   \       0x4C   0x....'....        BL       voff_arm_1s
    551                      sleep(dly1s);
   \       0x50   0xE3A0'0E7D        MOV      R0,#+2000
   \       0x54   0x....'....        BL       sleep
    552                      onoff_enable_io ();
   \       0x58   0x....'....        BL       onoff_enable_io
    553                  }
    554              }
    555          
    556          #if USE_SLEEP_MODE
    557              if (gSTATE.mode == kMODE_SLEEP) {
   \                     ??startIPC_1:
   \       0x5C   0xE5D4'0001        LDRB     R0,[R4, #+1]
   \       0x60   0xE350'0003        CMP      R0,#+3
   \       0x64   0x1A00'0015        BNE      ??startIPC_2
    558                  if (! (gSTATE.flag & kFLAG_SERIO)) {
   \       0x68   0xE5D4'0002        LDRB     R0,[R4, #+2]
   \       0x6C   0xE310'0008        TST      R0,#0x8
   \       0x70   0x1A00'0012        BNE      ??startIPC_2
    559          /*            if (network_modem_always_on_p ())	      ***bt - 06/19/2015
    560                          if (network_modem_test_wakeup ())
    561                              gSTATE.flag |= kFLAG_MODEM;	      ***bt - 06/19/2015 */
    562                      if (! (gSTATE.flag & kFLAG_MODEM)) {
   \       0x74   0xE5D4'0002        LDRB     R0,[R4, #+2]
   \       0x78   0xE310'0004        TST      R0,#0x4
   \       0x7C   0x1A00'000F        BNE      ??startIPC_2
    563                          if (gSTATE.sleep > 0) {
   \       0x80   0xE594'0004        LDR      R0,[R4, #+4]
   \       0x84   0xE350'0001        CMP      R0,#+1
   \       0x88   0xBA00'000C        BLT      ??startIPC_2
    564                              gSTATE.sleep--;
   \       0x8C   0xE594'0004        LDR      R0,[R4, #+4]
   \       0x90   0xE250'0001        SUBS     R0,R0,#+1
   \       0x94   0xE584'0004        STR      R0,[R4, #+4]
    565                              if (gSTATE.sleep > 0) {
   \       0x98   0xE594'0004        LDR      R0,[R4, #+4]
   \       0x9C   0xE350'0001        CMP      R0,#+1
   \       0xA0   0xBA00'0006        BLT      ??startIPC_2
    566                                  onoff_reset_status ();
   \       0xA4   0x....'....        BL       onoff_reset_status
    567                                  voff_arm ();
   \       0xA8   0x....'....        BL       voff_arm
    568                                  voff_off ();
   \       0xAC   0x....'....        BL       voff_off
    569                                  voff_arm_1s ();
   \       0xB0   0x....'....        BL       voff_arm_1s
    570                                  sleep(dly1s);
   \       0xB4   0xE3A0'0E7D        MOV      R0,#+2000
   \       0xB8   0x....'....        BL       sleep
    571                                  onoff_enable_io ();
   \       0xBC   0x....'....        BL       onoff_enable_io
    572                              }
    573                          }
    574                      }
    575                  }
    576              }
    577          #endif
    578          #endif
    579          
    580          //D!    disk_initialize ();
    581              log_oops ();
   \                     ??startIPC_2:
   \       0xC0   0x....'....        BL       log_oops
    582          
    583              bridge_init ();
   \       0xC4   0x....'....        BL       bridge_init
    584              network_init ();
   \       0xC8   0x....'....        BL       network_init
    585          
    586              switch (gSTATE.mode) {
   \       0xCC   0xE5D4'0001        LDRB     R0,[R4, #+1]
   \       0xD0   0xE240'0001        SUB      R0,R0,#+1
   \       0xD4   0xE350'0006        CMP      R0,#+6
   \       0xD8   0x8A00'0003        BHI      ??startIPC_3
   \       0xDC   0xE7DF'1000        LDRB     R1,[PC, R0]
   \       0xE0   0xE08F'F101        ADD      PC,PC,R1, LSL #+2
   \                     ??startIPC_0:
   \       0xE4   0x0C 0x22          DC8      0xC,0x22,0x26,0x1
   \              0x26 0x01    
   \       0xE8   0x26 0x28          DC8      0x26,0x28,0xE,0x0
   \              0x0E 0x00    
    587              default:
    588              case kMODE_ERROR:
    589                  bridge_logadd (MESSAGE_FAULT, NULL);
   \                     ??startIPC_3:
   \       0xEC   0xE3A0'1000        MOV      R1,#+0
   \       0xF0   0xE3A0'00F7        MOV      R0,#+247
   \       0xF4   0xE380'0480        ORR      R0,R0,#0x80000000
   \       0xF8   0x....'....        BL       bridge_logadd
    590                  gstate_snapshot (gSTATE.note);
   \       0xFC   0xE294'5008        ADDS     R5,R4,#+8
   \      0x100   0xE1B0'0005        MOVS     R0,R5
   \      0x104   0x....'....        BL       gstate_snapshot
    591                  bridge_logadd (MESSAGE_EXTRA, gSTATE.note);
   \      0x108   0xE1B0'1005        MOVS     R1,R5
   \      0x10C   0xE3A0'00FE        MOV      R0,#+254
   \      0x110   0xE380'0480        ORR      R0,R0,#0x80000000
   \      0x114   0x....'....        BL       bridge_logadd
    592              case kMODE_RESET:
    593                  restore_initial_state ();
   \                     ??startIPC_4:
   \      0x118   0x....'....        BL       restore_initial_state
    594                  break;
   \      0x11C   0xEA00'001E        B        ??startIPC_5
    595              case kMODE_POWER:
    596                  bridge_logadd (MESSAGE_PWRUP, NULL);
   \                     ??startIPC_6:
   \      0x120   0xE3A0'1000        MOV      R1,#+0
   \      0x124   0xE3A0'00FB        MOV      R0,#+251
   \      0x128   0xE380'0480        ORR      R0,R0,#0x80000000
   \      0x12C   0x....'....        BL       bridge_logadd
    597                  if (gSTATE.mode != gSTATE.___x)
                         ^
Warning[Pa082]: undefined behavior: the order of volatile accesses is undefined
          in this statement
   \      0x130   0xE5D4'0001        LDRB     R0,[R4, #+1]
   \      0x134   0xE5D4'1003        LDRB     R1,[R4, #+3]
   \      0x138   0xE210'00FF        ANDS     R0,R0,#0xFF      ;; Zero extend
   \      0x13C   0xE150'0001        CMP      R0,R1
   \      0x140   0x0A00'0003        BEQ      ??startIPC_7
    598                      bridge_logadd (MESSAGE_EXTRA, "IF: suspicious power_on");
   \      0x144   0x....'....        LDR      R1,??DataTable14_22
   \      0x148   0xE3A0'00FE        MOV      R0,#+254
   \      0x14C   0xE380'0480        ORR      R0,R0,#0x80000000
   \      0x150   0x....'....        BL       bridge_logadd
    599                  restore_initial_state ();
   \                     ??startIPC_7:
   \      0x154   0x....'....        BL       restore_initial_state
    600                  if ((gSTATE.flag & kONOFF_MASK) == kONOFF_LONG)
   \      0x158   0xE5D4'0002        LDRB     R0,[R4, #+2]
   \      0x15C   0xE210'0003        ANDS     R0,R0,#0x3
   \      0x160   0xE350'0003        CMP      R0,#+3
   \      0x164   0x1A00'0000        BNE      ??startIPC_8
    601                      button_long_press ();
   \      0x168   0x....'....        BL       button_long_press
    602                  break;
   \                     ??startIPC_8:
   \      0x16C   0xEA00'000A        B        ??startIPC_5
    603              case kMODE_TIMER:
    604                  bridge_logadd (MESSAGE_TMRON, NULL);
   \                     ??startIPC_9:
   \      0x170   0xE3A0'1000        MOV      R1,#+0
   \      0x174   0xE3A0'00F9        MOV      R0,#+249
   \      0x178   0xE380'0480        ORR      R0,R0,#0x80000000
   \      0x17C   0x....'....        BL       bridge_logadd
    605              case kMODE_SLEEP:
    606              case kMODE_WAKEN:
    607                  restore_partial_state ();
   \                     ??startIPC_10:
   \      0x180   0x....'....        BL       restore_partial_state
    608                  break;
   \      0x184   0xEA00'0004        B        ??startIPC_5
    609              case kMODE_FAULT:
    610                  bridge_logadd (MESSAGE_EXTRA, "IF: recover from disk fault");
   \                     ??startIPC_11:
   \      0x188   0x....'....        LDR      R1,??DataTable14_23
   \      0x18C   0xE3A0'00FE        MOV      R0,#+254
   \      0x190   0xE380'0480        ORR      R0,R0,#0x80000000
   \      0x194   0x....'....        BL       bridge_logadd
    611                  restore_partial_state ();
   \      0x198   0x....'....        BL       restore_partial_state
    612                  break;
    613              }
    614          
    615              clr_oops ();
   \                     ??startIPC_5:
   \      0x19C   0x....'....        BL       clr_oops
    616          
    617              if (gSTATE.flag & kFLAG_MODEM) {
   \      0x1A0   0xE5D4'0002        LDRB     R0,[R4, #+2]
   \      0x1A4   0xE310'0004        TST      R0,#0x4
   \      0x1A8   0x0A00'0000        BEQ      ??startIPC_12
    618                  network_modem_need_wakeup ();
   \      0x1AC   0x....'....        BL       network_modem_need_wakeup
    619              }
    620          
    621          #define SLEEPING_P  ((void *) (gSTATE.mode == kMODE_SLEEP))
    622          
    623              __supervisor = xSemaphoreCreateMutex ();
   \                     ??startIPC_12:
   \      0x1B0   0xE3A0'0001        MOV      R0,#+1
   \      0x1B4   0x....'....        BL       xQueueCreateMutex
   \      0x1B8   0x....'....        LDR      R1,??DataTable14_11
   \      0x1BC   0xE581'0000        STR      R0,[R1, #+0]
    624          
    625          /////////  sys_thread_new ("N", network_task, SLEEPING_P, 512, 2);
    626          
    627              if (xTaskCreate(
    628                  network_task,  /* pointer to the task */
    629                  (const portCHAR *)"Network", /* task name for kernel awareness debugging */
    630                  configMINIMAL_STACK_SIZE, /* task stack size */
    631                  (void*)NULL, /* optional task startup argument */
    632                  tskIDLE_PRIORITY,  /* initial priority */
    633                  (xTaskHandle *)NULL /* optional task handle to create */
    634                ) != pdPASS) {
   \      0x1C0   0xE3A0'0000        MOV      R0,#+0
   \      0x1C4   0xE58D'0004        STR      R0,[SP, #+4]
   \      0x1C8   0xE3A0'0000        MOV      R0,#+0
   \      0x1CC   0xE58D'0000        STR      R0,[SP, #+0]
   \      0x1D0   0xE3A0'3000        MOV      R3,#+0
   \      0x1D4   0xE3A0'2F80        MOV      R2,#+512
   \      0x1D8   0x....'....        LDR      R1,??DataTable14_24
   \      0x1DC   0x....'....        LDR      R0,??DataTable14_25
   \      0x1E0   0x....'....        BL       xTaskCreate
   \      0x1E4   0xE350'0001        CMP      R0,#+1
   \      0x1E8   0x0A00'0000        BEQ      ??startIPC_13
    635              /*lint -e527 */
    636              for(;;){}; /* error! probably out of memory */
   \                     ??startIPC_14:
   \      0x1EC   0xEAFF'FFFE        B        ??startIPC_14
    637              /*lint +e527 */
    638            }
    639            
    640              
    641            if (xTaskCreate(
    642                  bridge_task,  /* pointer to the task */
    643                  (const portCHAR *)"Bridge", /* task name for kernel awareness debugging */
    644                  configMINIMAL_STACK_SIZE, /* task stack size */
    645                  (void*)NULL, /* optional task startup argument */
    646                  tskIDLE_PRIORITY,  /* initial priority */
    647                  (xTaskHandle *)NULL /* optional task handle to create */
    648                ) != pdPASS) {
   \                     ??startIPC_13:
   \      0x1F0   0xE3A0'0000        MOV      R0,#+0
   \      0x1F4   0xE58D'0004        STR      R0,[SP, #+4]
   \      0x1F8   0xE3A0'0000        MOV      R0,#+0
   \      0x1FC   0xE58D'0000        STR      R0,[SP, #+0]
   \      0x200   0xE3A0'3000        MOV      R3,#+0
   \      0x204   0xE3A0'2F80        MOV      R2,#+512
   \      0x208   0x....'....        LDR      R1,??DataTable14_26
   \      0x20C   0x....'....        LDR      R0,??DataTable14_27
   \      0x210   0x....'....        BL       xTaskCreate
   \      0x214   0xE350'0001        CMP      R0,#+1
   \      0x218   0x0A00'0000        BEQ      ??startIPC_15
    649              /*lint -e527 */
    650              for(;;){}; /* error! probably out of memory */
   \                     ??startIPC_16:
   \      0x21C   0xEAFF'FFFE        B        ??startIPC_16
    651              /*lint +e527 */
    652            }
    653          
    654          #ifdef FOOOOOO
    655            if (xTaskCreate(
    656                  supervisory,  /* pointer to the task */
    657                  (const portCHAR *)"SuperV", /* task name for kernel awareness debugging */
    658                  configMINIMAL_STACK_SIZE, /* task stack size */
    659                  (void*)NULL, /* optional task startup argument */
    660                  tskIDLE_PRIORITY,  /* initial priority */
    661                  (xTaskHandle *)NULL /* optional task handle to create */
    662                ) != pdPASS) {
    663              /*lint -e527 */
    664              for(;;){}; /* error! probably out of memory */
    665              /*lint +e527 */
    666            }
    667          #endif
    668            
    669          /////    xTaskCreate (bridge_task, "B", 512, NULL, 3, NULL);
    670          /////    xTaskCreate (supervisory, "S", 512, NULL, 2, NULL);
    671          
    672              // prepare for an unplanned shutdown
    673              gSTATE.mode = kMODE_ERROR + kMODE_READY; // we're up
   \                     ??startIPC_15:
   \      0x220   0xE3A0'000C        MOV      R0,#+12
   \      0x224   0xE5C4'0001        STRB     R0,[R4, #+1]
    674              gSTATE.___x = 0;
   \      0x228   0xE3A0'0000        MOV      R0,#+0
   \      0x22C   0xE5C4'0003        STRB     R0,[R4, #+3]
    675          
    676              vTaskStartScheduler ();
   \      0x230   0x....'....        BL       vTaskStartScheduler
    677          
    678              assert("main: should never get here");
   \      0x234   0x....'....        LDR      R0,??DataTable14_28
   \      0x238   0x....'....        BL       assert
    679          
    680              for(;;);
   \                     ??startIPC_17:
   \      0x23C   0xEAFF'FFFE        B        ??startIPC_17
    681          }

   \                                 In section .text, align 4, keep-with-next
   \                     ??DataTable14:
   \        0x0   0x....'....        DC32     gSTATE

   \                                 In section .text, align 4, keep-with-next
   \                     ??DataTable14_1:
   \        0x0   0x....'....        DC32     ?_0

   \                                 In section .text, align 4, keep-with-next
   \                     ??DataTable14_2:
   \        0x0   0x....'....        DC32     ?_1

   \                                 In section .text, align 4, keep-with-next
   \                     ??DataTable14_3:
   \        0x0   0x....'....        DC32     ?_2

   \                                 In section .text, align 4, keep-with-next
   \                     ??DataTable14_4:
   \        0x0   0x....'....        DC32     ?_3

   \                                 In section .text, align 4, keep-with-next
   \                     ??DataTable14_5:
   \        0x0   0x....'....        DC32     ?_4

   \                                 In section .text, align 4, keep-with-next
   \                     ??DataTable14_6:
   \        0x0   0x....'....        DC32     ?_5

   \                                 In section .text, align 4, keep-with-next
   \                     ??DataTable14_7:
   \        0x0   0x....'....        DC32     ?_6

   \                                 In section .text, align 4, keep-with-next
   \                     ??DataTable14_8:
   \        0x0   0x....'....        DC32     ?_7

   \                                 In section .text, align 4, keep-with-next
   \                     ??DataTable14_9:
   \        0x0   0x....'....        DC32     ?_8

   \                                 In section .text, align 4, keep-with-next
   \                     ??DataTable14_10:
   \        0x0   0x....'....        DC32     ?_9

   \                                 In section .text, align 4, keep-with-next
   \                     ??DataTable14_11:
   \        0x0   0x....'....        DC32     __supervisor

   \                                 In section .text, align 4, keep-with-next
   \                     ??DataTable14_12:
   \        0x0   0x....'....        DC32     ?_10

   \                                 In section .text, align 4, keep-with-next
   \                     ??DataTable14_13:
   \        0x0   0x....'....        DC32     ?_11

   \                                 In section .text, align 4, keep-with-next
   \                     ??DataTable14_14:
   \        0x0   0x....'....        DC32     ?_12

   \                                 In section .text, align 4, keep-with-next
   \                     ??DataTable14_15:
   \        0x0   0x....'....        DC32     ?_13

   \                                 In section .text, align 4, keep-with-next
   \                     ??DataTable14_16:
   \        0x0   0x....'....        DC32     ?_14

   \                                 In section .text, align 4, keep-with-next
   \                     ??DataTable14_17:
   \        0x0   0x....'....        DC32     ?_15

   \                                 In section .text, align 4, keep-with-next
   \                     ??DataTable14_18:
   \        0x0   0x8001'873C        DC32     0x8001873c

   \                                 In section .text, align 4, keep-with-next
   \                     ??DataTable14_19:
   \        0x0   0x....'....        DC32     ?_16

   \                                 In section .text, align 4, keep-with-next
   \                     ??DataTable14_20:
   \        0x0   0x....'....        DC32     ?_17

   \                                 In section .text, align 4, keep-with-next
   \                     ??DataTable14_21:
   \        0x0   0x....'....        DC32     gSERIAL

   \                                 In section .text, align 4, keep-with-next
   \                     ??DataTable14_22:
   \        0x0   0x....'....        DC32     ?_18

   \                                 In section .text, align 4, keep-with-next
   \                     ??DataTable14_23:
   \        0x0   0x....'....        DC32     ?_19

   \                                 In section .text, align 4, keep-with-next
   \                     ??DataTable14_24:
   \        0x0   0x....'....        DC32     ?_20

   \                                 In section .text, align 4, keep-with-next
   \                     ??DataTable14_25:
   \        0x0   0x....'....        DC32     network_task

   \                                 In section .text, align 4, keep-with-next
   \                     ??DataTable14_26:
   \        0x0   0x....'....        DC32     ?_21

   \                                 In section .text, align 4, keep-with-next
   \                     ??DataTable14_27:
   \        0x0   0x....'....        DC32     bridge_task

   \                                 In section .text, align 4, keep-with-next
   \                     ??DataTable14_28:
   \        0x0   0x....'....        DC32     ?_22

   \                                 In section .rodata, align 4
   \                     ?_0:
   \        0x0   0x2E 0x20          DC8 ". %02d/%02d/%02d %02d:%02d:%02dZ %1.138s\012"
   \              0x25 0x30    
   \              0x32 0x64    
   \              0x2F 0x25    
   \              0x30 0x32    
   \              0x64 0x2F    
   \              0x25 0x30    
   \              0x32 0x64    
   \              0x20 0x25    
   \              0x30 0x32    
   \              0x64 0x3A    
   \              0x25 0x30    
   \              0x32 0x64    
   \              0x3A 0x25    
   \              0x30 0x32    
   \              0x64 0x5A    
   \              0x20 0x25    
   \              0x31 0x2E    
   \              0x31 0x33    
   \              0x38 0x73    
   \              0x0A 0x00    
   \       0x2A   0x00 0x00          DC8 0, 0

   \                                 In section .rodata, align 4
   \                     ?_1:
   \        0x0   0x4F 0x4F          DC8 "OOPS1 divide error"
   \              0x50 0x53    
   \              0x31 0x20    
   \              0x64 0x69    
   \              0x76 0x69    
   \              0x64 0x65    
   \              0x20 0x65    
   \              0x72 0x72    
   \              0x6F 0x72    
   \              0x00         
   \       0x13   0x00               DC8 0

   \                                 In section .rodata, align 4
   \                     ?_2:
   \        0x0   0x4F 0x4F          DC8 "OOPS2 trace"
   \              0x50 0x53    
   \              0x32 0x20    
   \              0x74 0x72    
   \              0x61 0x63    
   \              0x65 0x00    

   \                                 In section .rodata, align 4
   \                     ?_3:
   \        0x0   0x4F 0x4F          DC8 "OOPS3 non-maskable"
   \              0x50 0x53    
   \              0x33 0x20    
   \              0x6E 0x6F    
   \              0x6E 0x2D    
   \              0x6D 0x61    
   \              0x73 0x6B    
   \              0x61 0x62    
   \              0x6C 0x65    
   \              0x00         
   \       0x13   0x00               DC8 0

   \                                 In section .rodata, align 4
   \                     ?_4:
   \        0x0   0x4F 0x4F          DC8 "OOPS4 breakpoint"
   \              0x50 0x53    
   \              0x34 0x20    
   \              0x62 0x72    
   \              0x65 0x61    
   \              0x6B 0x70    
   \              0x6F 0x69    
   \              0x6E 0x74    
   \              0x00         
   \       0x11   0x00 0x00          DC8 0, 0, 0
   \              0x00         

   \                                 In section .rodata, align 4
   \                     ?_5:
   \        0x0   0x4F 0x4F          DC8 "OOPS5 INT0 overflow"
   \              0x50 0x53    
   \              0x35 0x20    
   \              0x49 0x4E    
   \              0x54 0x30    
   \              0x20 0x6F    
   \              0x76 0x65    
   \              0x72 0x66    
   \              0x6C 0x6F    
   \              0x77 0x00    

   \                                 In section .rodata, align 4
   \                     ?_6:
   \        0x0   0x4F 0x4F          DC8 "OOPS6 array bounds"
   \              0x50 0x53    
   \              0x36 0x20    
   \              0x61 0x72    
   \              0x72 0x61    
   \              0x79 0x20    
   \              0x62 0x6F    
   \              0x75 0x6E    
   \              0x64 0x73    
   \              0x00         
   \       0x13   0x00               DC8 0

   \                                 In section .rodata, align 4
   \                     ?_7:
   \        0x0   0x4F 0x4F          DC8 "OOPS7 unused exception"
   \              0x50 0x53    
   \              0x37 0x20    
   \              0x75 0x6E    
   \              0x75 0x73    
   \              0x65 0x64    
   \              0x20 0x65    
   \              0x78 0x63    
   \              0x65 0x70    
   \              0x74 0x69    
   \              0x6F 0x6E    
   \              0x00         
   \       0x17   0x00               DC8 0

   \                                 In section .rodata, align 4
   \                     ?_8:
   \        0x0   0x4F 0x4F          DC8 "OOPS8 esc opcode"
   \              0x50 0x53    
   \              0x38 0x20    
   \              0x65 0x73    
   \              0x63 0x20    
   \              0x6F 0x70    
   \              0x63 0x6F    
   \              0x64 0x65    
   \              0x00         
   \       0x11   0x00 0x00          DC8 0, 0, 0
   \              0x00         

   \                                 In section .rodata, align 4
   \                     ?_9:
   \        0x0   0x4F 0x4F          DC8 "OOPS? bad value"
   \              0x50 0x53    
   \              0x3F 0x20    
   \              0x62 0x61    
   \              0x64 0x20    
   \              0x76 0x61    
   \              0x6C 0x75    
   \              0x65 0x00    

   \                                 In section .rodata, align 4
   \                     ?_10:
   \        0x0   0x73 0x75          DC8 "supervisor_END: unable to suspend_all"
   \              0x70 0x65    
   \              0x72 0x76    
   \              0x69 0x73    
   \              0x6F 0x72    
   \              0x5F 0x45    
   \              0x4E 0x44    
   \              0x3A 0x20    
   \              0x75 0x6E    
   \              0x61 0x62    
   \              0x6C 0x65    
   \              0x20 0x74    
   \              0x6F 0x20    
   \              0x73 0x75    
   \              0x73 0x70    
   \              0x65 0x6E    
   \              0x64 0x5F    
   \              0x61 0x6C    
   \              0x6C 0x00    
   \       0x26   0x00 0x00          DC8 0, 0

   \                                 In section .rodata, align 4
   \                     ?_11:
   \        0x0   0x73 0x75          DC8 "supervisor_END: TERN_ae_reset failed"
   \              0x70 0x65    
   \              0x72 0x76    
   \              0x69 0x73    
   \              0x6F 0x72    
   \              0x5F 0x45    
   \              0x4E 0x44    
   \              0x3A 0x20    
   \              0x54 0x45    
   \              0x52 0x4E    
   \              0x5F 0x61    
   \              0x65 0x5F    
   \              0x72 0x65    
   \              0x73 0x65    
   \              0x74 0x20    
   \              0x66 0x61    
   \              0x69 0x6C    
   \              0x65 0x64    
   \              0x00         
   \       0x25   0x00 0x00          DC8 0, 0, 0
   \              0x00         

   \                                 In section .rodata, align 4
   \                     ?_12:
   \        0x0   0x49 0x46          DC8 "IF: TERN_voff_off failed"
   \              0x3A 0x20    
   \              0x54 0x45    
   \              0x52 0x4E    
   \              0x5F 0x76    
   \              0x6F 0x66    
   \              0x66 0x5F    
   \              0x6F 0x66    
   \              0x66 0x20    
   \              0x66 0x61    
   \              0x69 0x6C    
   \              0x65 0x64    
   \              0x00         
   \       0x19   0x00 0x00          DC8 0, 0, 0
   \              0x00         

   \                                 In section .rodata, align 4
   \                     ?_13:
   \        0x0   0x73 0x75          DC8 "supervisor_END: onoff_shutdown failed"
   \              0x70 0x65    
   \              0x72 0x76    
   \              0x69 0x73    
   \              0x6F 0x72    
   \              0x5F 0x45    
   \              0x4E 0x44    
   \              0x3A 0x20    
   \              0x6F 0x6E    
   \              0x6F 0x66    
   \              0x66 0x5F    
   \              0x73 0x68    
   \              0x75 0x74    
   \              0x64 0x6F    
   \              0x77 0x6E    
   \              0x20 0x66    
   \              0x61 0x69    
   \              0x6C 0x65    
   \              0x64 0x00    
   \       0x26   0x00 0x00          DC8 0, 0

   \                                 In section .rodata, align 4
   \                     ?_14:
   \        0x0   0x73 0x75          DC8 "supervisor_END: bad mode"
   \              0x70 0x65    
   \              0x72 0x76    
   \              0x69 0x73    
   \              0x6F 0x72    
   \              0x5F 0x45    
   \              0x4E 0x44    
   \              0x3A 0x20    
   \              0x62 0x61    
   \              0x64 0x20    
   \              0x6D 0x6F    
   \              0x64 0x65    
   \              0x00         
   \       0x19   0x00 0x00          DC8 0, 0, 0
   \              0x00         

   \                                 In section .rodata, align 4
   \                     ?_15:
   \        0x0   0x73 0x75          DC8 "supervisor_END: can't lock"
   \              0x70 0x65    
   \              0x72 0x76    
   \              0x69 0x73    
   \              0x6F 0x72    
   \              0x5F 0x45    
   \              0x4E 0x44    
   \              0x3A 0x20    
   \              0x63 0x61    
   \              0x6E 0x27    
   \              0x74 0x20    
   \              0x6C 0x6F    
   \              0x63 0x6B    
   \              0x00         
   \       0x1B   0x00               DC8 0

   \                                 In section .rodata, align 4
   \                     ?_16:
   \        0x0   0x73 0x75          DC8 "supervisory: TERMINATED"
   \              0x70 0x65    
   \              0x72 0x76    
   \              0x69 0x73    
   \              0x6F 0x72    
   \              0x79 0x3A    
   \              0x20 0x54    
   \              0x45 0x52    
   \              0x4D 0x49    
   \              0x4E 0x41    
   \              0x54 0x45    
   \              0x44 0x00    

   \                                 In section .rodata, align 4
   \                     ?_17:
   \        0x0   0x49 0x46          DC8 49H, 46H, 3AH, 20H, 67H, 53H, 54H, 41H
   \              0x3A 0x20    
   \              0x67 0x53    
   \              0x54 0x41    
   \        0x8   0x54 0x45          DC8 54H, 45H, 20H, 6FH, 6FH, 70H, 73H, 3AH
   \              0x20 0x6F    
   \              0x6F 0x70    
   \              0x73 0x3A    
   \       0x10   0x20 0x25          DC8 20H, 25H, 30H, 32H, 78H, 20H, 20H, 6DH
   \              0x30 0x32    
   \              0x78 0x20    
   \              0x20 0x6D    
   \       0x18   0x6F 0x64          DC8 6FH, 64H, 65H, 3AH, 20H, 25H, 30H, 32H
   \              0x65 0x3A    
   \              0x20 0x25    
   \              0x30 0x32    
   \       0x20   0x78 0x20          DC8 78H, 20H, 20H, 66H, 6CH, 61H, 67H, 3AH
   \              0x20 0x66    
   \              0x6C 0x61    
   \              0x67 0x3A    
   \       0x28   0x20 0x25          DC8 20H, 25H, 30H, 32H, 78H, 20H, 20H, 41H
   \              0x30 0x32    
   \              0x78 0x20    
   \              0x20 0x41    
   \       0x30   0x56 0x3A          DC8 56H, 3AH, 20H, 25H, 30H, 38H, 6CH, 78H
   \              0x20 0x25    
   \              0x30 0x38    
   \              0x6C 0x78    
   \       0x38   0x00               DC8 0
   \       0x39   0x00 0x00          DC8 0, 0, 0
   \              0x00         

   \                                 In section .rodata, align 4
   \                     ?_18:
   \        0x0   0x49 0x46          DC8 "IF: suspicious power_on"
   \              0x3A 0x20    
   \              0x73 0x75    
   \              0x73 0x70    
   \              0x69 0x63    
   \              0x69 0x6F    
   \              0x75 0x73    
   \              0x20 0x70    
   \              0x6F 0x77    
   \              0x65 0x72    
   \              0x5F 0x6F    
   \              0x6E 0x00    

   \                                 In section .rodata, align 4
   \                     ?_19:
   \        0x0   0x49 0x46          DC8 "IF: recover from disk fault"
   \              0x3A 0x20    
   \              0x72 0x65    
   \              0x63 0x6F    
   \              0x76 0x65    
   \              0x72 0x20    
   \              0x66 0x72    
   \              0x6F 0x6D    
   \              0x20 0x64    
   \              0x69 0x73    
   \              0x6B 0x20    
   \              0x66 0x61    
   \              0x75 0x6C    
   \              0x74 0x00    

   \                                 In section .rodata, align 4
   \                     ?_20:
   \        0x0   0x4E 0x65          DC8 "Network"
   \              0x74 0x77    
   \              0x6F 0x72    
   \              0x6B 0x00    

   \                                 In section .rodata, align 4
   \                     ?_21:
   \        0x0   0x42 0x72          DC8 "Bridge"
   \              0x69 0x64    
   \              0x67 0x65    
   \              0x00         
   \        0x7   0x00               DC8 0

   \                                 In section .rodata, align 4
   \                     ?_22:
   \        0x0   0x6D 0x61          DC8 "main: should never get here"
   \              0x69 0x6E    
   \              0x3A 0x20    
   \              0x73 0x68    
   \              0x6F 0x75    
   \              0x6C 0x64    
   \              0x20 0x6E    
   \              0x65 0x76    
   \              0x65 0x72    
   \              0x20 0x67    
   \              0x65 0x74    
   \              0x20 0x68    
   \              0x65 0x72    
   \              0x65 0x00    
    682          
    683          /* END Application */

   Maximum stack usage in bytes:

   .cstack Function
   ------- --------
     232   __debug
       232   -> RTC_read
       232   -> sprintf
      24   __st
        24   -> pio_rd
        24   -> sleep
      16   assert
        16   -> strncpy
        16   -> vTaskSuspendAll
        16   -> xTaskResumeAll
       8   button_long_press
         8   -> bridge_logadd
         8   -> led
         8   -> sleep
       8   checkTimer
         8   -> clock
       0   clr_oops
       0   ee_rd
      16   gstate_snapshot
        16   -> network_av
        16   -> sprintf
       0   hang
      12   lUDPLoggingPrintf
       0   led
       8   log_oops
         8   -> log_oops__
       8   log_oops__
         8   -> __debug
       8   lwip_assert
         8   -> assert
       8   onoff_enable_io
         8   -> pio_wr
       0   onoff_init
       8   onoff_reset_status
         8   -> pio_wr
         8   -> sleep
       8   onoff_shutdown
         8   -> pio_wr
         8   -> sleep
       8   onoff_status
         8   -> __st
       0   pio_rd
       0   pio_wr
       8   restore_initial_state
         8   -> network_nvram_init
       0   restore_partial_state
      16   setTimer
        16   -> clock
       0   sleep
      24   startIPC
        24   -> assert
        24   -> bridge_init
        24   -> bridge_logadd
        24   -> button_long_press
        24   -> clr_oops
        24   -> gstate_snapshot
        24   -> log_oops
        24   -> network_init
        24   -> network_modem_need_wakeup
        24   -> onoff_enable_io
        24   -> onoff_init
        24   -> onoff_reset_status
        24   -> restore_initial_state
        24   -> restore_partial_state
        24   -> sleep
        24   -> state_init
        24   -> vTaskStartScheduler
        24   -> voff_arm
        24   -> voff_arm_1s
        24   -> voff_maybe_shutdown
        24   -> voff_off
        24   -> xQueueCreateMutex
        24   -> xTaskCreate
      16   state_init
        16   -> getCTS
        16   -> onoff_status
      16   supervisor_CLR
        16   -> xQueueGenericReceive
        16   -> xQueueGenericSend
      24   supervisor_END
        24   -> assert
        24   -> bridge_logadd
        24   -> onoff_enable_io
        24   -> onoff_reset_status
        24   -> onoff_shutdown
        24   -> sleep
        24   -> vTaskDelay
        24   -> vTaskSuspendAll
        24   -> voff_arm
        24   -> voff_arm_1s
        24   -> voff_off
        24   -> xQueueGenericReceive
        24   -> xQueueGenericSend
        24   -> xTaskResumeAll
      16   supervisor_SET
        16   -> xQueueGenericReceive
        16   -> xQueueGenericSend
      16   supervisor_SLP
        16   -> xQueueGenericReceive
        16   -> xQueueGenericSend
       0   supervisor_suspend_p
       8   supervisory
         8   -> assert
         8   -> bridge_SetREQ
         8   -> onoff_status
         8   -> sleep
         8   -> supervisor_CLR
         8   -> supervisor_END
         8   -> supervisor_SET
         8   -> vTaskDelay
       0   voff_arm
       0   voff_arm_1s
       0   voff_off


   Section sizes:

   Bytes  Function/Label
   -----  --------------
       4  ??DataTable14
       4  ??DataTable14_1
       4  ??DataTable14_10
       4  ??DataTable14_11
       4  ??DataTable14_12
       4  ??DataTable14_13
       4  ??DataTable14_14
       4  ??DataTable14_15
       4  ??DataTable14_16
       4  ??DataTable14_17
       4  ??DataTable14_18
       4  ??DataTable14_19
       4  ??DataTable14_2
       4  ??DataTable14_20
       4  ??DataTable14_21
       4  ??DataTable14_22
       4  ??DataTable14_23
       4  ??DataTable14_24
       4  ??DataTable14_25
       4  ??DataTable14_26
       4  ??DataTable14_27
       4  ??DataTable14_28
       4  ??DataTable14_3
       4  ??DataTable14_4
       4  ??DataTable14_5
       4  ??DataTable14_6
       4  ??DataTable14_7
       4  ??DataTable14_8
       4  ??DataTable14_9
      44  ?_0
      20  ?_1
      40  ?_10
      40  ?_11
      28  ?_12
      40  ?_13
      28  ?_14
      28  ?_15
      24  ?_16
      60  ?_17
      24  ?_18
      28  ?_19
      12  ?_2
       8  ?_20
       8  ?_21
      28  ?_22
      20  ?_3
      20  ?_4
      20  ?_5
      20  ?_6
      24  ?_7
      20  ?_8
      16  ?_9
       4  _A_HW_PINCTRL_DOUT3_TOG
      96  __debug
     112  __st
       4  __supervisor
      56  assert
      48  button_long_press
      76  checkTimer
      16  clr_oops
      16  ee_rd
       2  gSERIAL
     132  gSTATE
       2  gVERSION
      60  gstate_snapshot
       4  hang
      12  lUDPLoggingPrintf
       4  led
      12  log_oops
     176  log_oops__
      20  lwip_assert
      20  onoff_enable_io
       4  onoff_init
      48  onoff_reset_status
      56  onoff_shutdown
      80  onoff_status
      12  pio_rd
       4  pio_wr
      32  restore_initial_state
       4  restore_partial_state
      52  setTimer
       4  sleep
     576  startIPC
     124  state_init
      84  supervisor_CLR
     372  supervisor_END
      84  supervisor_SET
      96  supervisor_SLP
      16  supervisor_suspend_p
     124  supervisory
       8  voff_arm
       4  voff_arm_1s
       4  voff_off

 
   136 bytes in section .bss
     4 bytes in section .data
     4 bytes in section .noinit  (abs)
   600 bytes in section .rodata
 2 632 bytes in section .text
 
 2 632 bytes of CODE  memory
   600 bytes of CONST memory
   140 bytes of DATA  memory (+ 4 bytes shared)

Errors: none
Warnings: 9
