###############################################################################
#
# IAR ANSI C/C++ Compiler V8.30.1.114/W32 for ARM         10/Dec/2019  12:06:40
# Copyright 1999-2018 IAR Systems AB.
#
#    Cpu mode     =  arm
#    Endian       =  little
#    Source file  =  E:\armipc\fs\mkfs.c
#    Command line =  
#        -f C:\Users\Bill\AppData\Local\Temp\EW614E.tmp (E:\armipc\fs\mkfs.c -D
#        DDRRAM_EXEC -D MMU_ENA -lC "E:\armipc\DDRRAM Debug\List" -o
#        "E:\armipc\DDRRAM Debug\Obj" --no_cse --no_unroll --no_inline
#        --no_code_motion --no_tbaa --no_clustering --no_scheduling --debug
#        --endian=little --cpu=ARM926EJ-S -e --fpu=None --dlib_config
#        "C:\Program Files\IAR Systems\Embedded Workbench
#        8.1\arm\inc\c\DLib_Config_Normal.h" -I E:\armipc\ -I E:\armipc\board\
#        -I E:\armipc\modules\ -I E:\armipc\lwip\include\lwip\ -I
#        E:\armipc\lwip\include\arch\ -I E:\armipc\rtos\include\ -I
#        E:\armipc\lwip\include\IPV4\lwip\ -I E:\armipc\lwip\netif\ppp\
#        --cpu_mode arm -On --use_c++_inline)
#    Locale       =  C
#    List file    =  E:\armipc\DDRRAM Debug\List\mkfs.lst
#    Object file  =  E:\armipc\DDRRAM Debug\Obj\mkfs.o
#
###############################################################################

E:\armipc\fs\mkfs.c
      1          /*****************************************************************************/
      2          #include "include/mkfs.h"
      3          /*****************************************************************************/
      4          

   \                                 In section .text, align 4, keep-with-next
      5          signed short mkfs_makevfat(Partition *part)
      6          {
   \                     mkfs_makevfat:
   \        0x0   0xE92D'4FF1        PUSH     {R0,R4-R11,LR}
   \        0x4   0xE24D'DF82        SUB      SP,SP,#+520
      7          	unsigned long c,cc,ret;
      8          	unsigned long ns,fs,ds,dc;
      9          	unsigned char buf[512];
     10          	
     11          	ns=part->disc->partitions[part->activePartition].numSectors;
   \        0x8   0xE59D'0208        LDR      R0,[SP, #+520]
   \        0xC   0xE590'0000        LDR      R0,[R0, #+0]
   \       0x10   0xE59D'1208        LDR      R1,[SP, #+520]
   \       0x14   0xE1D1'10D4        LDRSB    R1,[R1, #+4]
   \       0x18   0xE1B0'1201        LSLS     R1,R1,#+4
   \       0x1C   0xE090'0001        ADDS     R0,R0,R1
   \       0x20   0xE590'7010        LDR      R7,[R0, #+16]
     12          	
     13          	if( ns < 66581 ){
   \       0x24   0xE3A0'0015        MOV      R0,#+21
   \       0x28   0xE380'0B41        ORR      R0,R0,#0x10400
   \       0x2C   0xE157'0000        CMP      R7,R0
   \       0x30   0x2A00'0001        BCS      ??mkfs_makevfat_1
     14          		DBG((TXT("This is not possible due to insufficient sectors. Sorry\n")));
     15          		return(MKFS_ERR_TOOLITTLESECTORS);
   \       0x34   0xE3A0'0001        MOV      R0,#+1
   \       0x38   0xEA00'0086        B        ??mkfs_makevfat_2
     16          	}
     17          	
     18          	ret=0;
   \                     ??mkfs_makevfat_1:
   \       0x3C   0xE3A0'0000        MOV      R0,#+0
   \       0x40   0xE58D'0004        STR      R0,[SP, #+4]
     19          	
     20          	for(c=1<<6;c>=1;c>>=1){
   \       0x44   0xE3A0'8040        MOV      R8,#+64
   \                     ??mkfs_makevfat_3:
   \       0x48   0xE358'0000        CMP      R8,#+0
   \       0x4C   0x0A00'0035        BEQ      ??mkfs_makevfat_4
     21          		
     22          		/* First guess */
     23          		ds = ns - 32;
   \       0x50   0xE257'9020        SUBS     R9,R7,#+32
     24          		fs = ((ds/c)+127)/128;
   \       0x54   0xE1B0'0009        MOVS     R0,R9
   \       0x58   0xE1B0'1008        MOVS     R1,R8
   \       0x5C   0x....'....        BL       __aeabi_uidiv
   \       0x60   0xE290'007F        ADDS     R0,R0,#+127
   \       0x64   0xE1B0'03A0        LSRS     R0,R0,#+7
   \       0x68   0xE1B0'5000        MOVS     R5,R0
     25          		/* ds was guess too large, so fs is too large now too. */
     26          		
     27          		for(cc=0;cc<2;cc++){
   \       0x6C   0xE3A0'0000        MOV      R0,#+0
   \       0x70   0xE1B0'4000        MOVS     R4,R0
   \                     ??mkfs_makevfat_5:
   \       0x74   0xE354'0002        CMP      R4,#+2
   \       0x78   0x2A00'0013        BCS      ??mkfs_makevfat_6
     28          		
     29          			/* Round 2, error round */
     30          			ds = ns - 32 - 2*fs;
   \       0x7C   0xE257'0020        SUBS     R0,R7,#+32
   \       0x80   0xE1B0'1085        LSLS     R1,R5,#+1
   \       0x84   0xE050'A001        SUBS     R10,R0,R1
     31          			fs = ((ds/c)+127)/128; 
   \       0x88   0xE1B0'000A        MOVS     R0,R10
   \       0x8C   0xE1B0'1008        MOVS     R1,R8
   \       0x90   0x....'....        BL       __aeabi_uidiv
   \       0x94   0xE290'007F        ADDS     R0,R0,#+127
   \       0x98   0xE1B0'B3A0        LSRS     R11,R0,#+7
     32          			/* Since fs was too large, ds became too small. So the fs for this small ds is too small as well. */
     33          			
     34          			/* Round 3, correction round */
     35          			ds = ns - 32 - 2*fs;
   \       0x9C   0xE257'0020        SUBS     R0,R7,#+32
   \       0xA0   0xE1B0'108B        LSLS     R1,R11,#+1
   \       0xA4   0xE050'0001        SUBS     R0,R0,R1
   \       0xA8   0xE1B0'9000        MOVS     R9,R0
     36          			fs = ((ds/c)+127)/128; 
   \       0xAC   0xE1B0'0009        MOVS     R0,R9
   \       0xB0   0xE1B0'1008        MOVS     R1,R8
   \       0xB4   0x....'....        BL       __aeabi_uidiv
   \       0xB8   0xE290'007F        ADDS     R0,R0,#+127
   \       0xBC   0xE1B0'03A0        LSRS     R0,R0,#+7
   \       0xC0   0xE1B0'5000        MOVS     R5,R0
     37          			/* The fs was too small, so ds was too large. The calculated fs should be slightly too large. */
     38          		
     39          		}
   \       0xC4   0xE294'4001        ADDS     R4,R4,#+1
   \       0xC8   0xEAFF'FFE9        B        ??mkfs_makevfat_5
     40          		
     41          		/* Round 4, finalise */
     42          		ds = ns - 32 - 2*fs; 
   \                     ??mkfs_makevfat_6:
   \       0xCC   0xE257'0020        SUBS     R0,R7,#+32
   \       0xD0   0xE1B0'1085        LSLS     R1,R5,#+1
   \       0xD4   0xE050'0001        SUBS     R0,R0,R1
   \       0xD8   0xE58D'0000        STR      R0,[SP, #+0]
     43          
     44          		dc = ds / c;
   \       0xDC   0xE59D'0000        LDR      R0,[SP, #+0]
   \       0xE0   0xE1B0'1008        MOVS     R1,R8
   \       0xE4   0x....'....        BL       __aeabi_uidiv
   \       0xE8   0xE1B0'6000        MOVS     R6,R0
     45          		if(ret<(fs*128-dc)/128)ret=(fs*128-dc)/128;
   \       0xEC   0xE59D'0004        LDR      R0,[SP, #+4]
   \       0xF0   0xE1B0'1385        LSLS     R1,R5,#+7
   \       0xF4   0xE051'1006        SUBS     R1,R1,R6
   \       0xF8   0xE150'03A1        CMP      R0,R1, LSR #+7
   \       0xFC   0x2A00'0003        BCS      ??mkfs_makevfat_7
   \      0x100   0xE1B0'0385        LSLS     R0,R5,#+7
   \      0x104   0xE050'0006        SUBS     R0,R0,R6
   \      0x108   0xE1B0'03A0        LSRS     R0,R0,#+7
   \      0x10C   0xE58D'0004        STR      R0,[SP, #+4]
     46          		
     47          		/* Check if with current setting we have a valid fat ? */
     48          		
     49          		if(dc >= 65525 + 16){
   \                     ??mkfs_makevfat_7:
   \      0x110   0xE3A0'0005        MOV      R0,#+5
   \      0x114   0xE380'0B40        ORR      R0,R0,#0x10000
   \      0x118   0xE156'0000        CMP      R6,R0
   \      0x11C   0x2A00'0001        BCS      ??mkfs_makevfat_4
     50          			break;
     51          		}
     52          	}
   \                     ??mkfs_makevfat_8:
   \      0x120   0xE1B0'80A8        LSRS     R8,R8,#+1
   \      0x124   0xEAFF'FFC7        B        ??mkfs_makevfat_3
     53          
     54          	/* Generate BPB */
     55          	memClr(buf,512);
   \                     ??mkfs_makevfat_4:
   \      0x128   0xE3A0'1F80        MOV      R1,#+512
   \      0x12C   0xE28D'0008        ADD      R0,SP,#+8
   \      0x130   0x....'....        BL       memClr
     56          	
     57          	/* Boot code */
     58          	*(buf+0)=0xE9;	*(buf+1)=0x00;	*(buf+2)=0x00; /* RESET */
   \      0x134   0xE3A0'00E9        MOV      R0,#+233
   \      0x138   0xE5CD'0008        STRB     R0,[SP, #+8]
   \      0x13C   0xE3A0'9000        MOV      R9,#+0
   \      0x140   0xE28D'A008        ADD      R10,SP,#+8
   \      0x144   0xE5CA'9001        STRB     R9,[R10, #+1]
   \      0x148   0xE5CA'9002        STRB     R9,[R10, #+2]
     59          	
     60          	/* OEM name */
     61          	memCpy("DSCOSMSH",buf+3,8);
   \      0x14C   0xE3A0'2008        MOV      R2,#+8
   \      0x150   0xE28D'100B        ADD      R1,SP,#+11
   \      0x154   0xE59F'0104        LDR      R0,??mkfs_makevfat_0
   \      0x158   0x....'....        BL       memCpy
     62          	
     63          	/* Bytes/Sector */
     64          	*((unsigned short*)(buf+11)) = 512;
   \      0x15C   0xE3A0'0F80        MOV      R0,#+512
   \      0x160   0xE1CA'00BB        STRH     R0,[R10, #+11]
     65          	
     66          	/* Sectors/Cluster */
     67          	*(buf+13) = c;
   \      0x164   0xE5CD'8015        STRB     R8,[SP, #+21]
     68          	
     69          	/* Reserved Sectors */
     70          	*((unsigned short*)(buf+14)) = 32;
   \      0x168   0xE3A0'B020        MOV      R11,#+32
   \      0x16C   0xE1CD'B1B6        STRH     R11,[SP, #+22]
     71          	
     72          	/* Number of FAT Tables */
     73          	*(buf+16) = 2;
   \      0x170   0xE3A0'0002        MOV      R0,#+2
   \      0x174   0xE5CA'0010        STRB     R0,[R10, #+16]
     74          	
     75          	/* RootEntryCount */
     76          	*((unsigned short*)(buf+17)) = 0;
   \      0x178   0xE1CD'91B9        STRH     R9,[SP, #+25]
     77          	
     78          	/* Total Sector Count __16 */
     79          	*((unsigned short*)(buf+19)) = 0;
   \      0x17C   0xE1CD'91BB        STRH     R9,[SP, #+27]
     80          	
     81          	/* Media (crap) */
     82          	*(buf+21) = 0xF8;
   \      0x180   0xE3A0'10F8        MOV      R1,#+248
   \      0x184   0xE5CD'101D        STRB     R1,[SP, #+29]
     83          	
     84          	/* FAT size 16 */
     85          	*((unsigned short*)(buf+22)) = 0;
   \      0x188   0xE1CD'91BE        STRH     R9,[SP, #+30]
     86          	
     87          	/* Total Sector Count __32 */
     88          	*((unsigned long*)(buf+32)) = ns;
   \      0x18C   0xE58A'7020        STR      R7,[R10, #+32]
     89          	
     90          	/* Fat Size 32 */
     91          	*((unsigned long*)(buf+36)) = fs;
   \      0x190   0xE58D'502C        STR      R5,[SP, #+44]
     92          	
     93          	/* First Cluster Root Dir */
     94          	*((unsigned long*)(buf+44)) = 2;
   \      0x194   0xE58D'0034        STR      R0,[SP, #+52]
     95          	
     96          	/* VolumeID */
     97          	*((unsigned long*)(buf+67)) = 0x13371337;
   \      0x198   0xE59F'00C4        LDR      R0,??mkfs_makevfat_0+0x4  ;; 0x13371337
   \      0x19C   0xE58D'004B        STR      R0,[SP, #+75]
     98          	
     99          	/* Volume Label */
    100          	memCpy("DISCOSMASH!",buf+71,11);
   \      0x1A0   0xE3A0'200B        MOV      R2,#+11
   \      0x1A4   0xE28D'104F        ADD      R1,SP,#+79
   \      0x1A8   0xE59F'00B8        LDR      R0,??mkfs_makevfat_0+0x8
   \      0x1AC   0x....'....        BL       memCpy
    101          	
    102          	/* Filesystemtype */
    103          	memCpy("FAT32   ",buf+82,8);
   \      0x1B0   0xE3A0'2008        MOV      R2,#+8
   \      0x1B4   0xE28D'105A        ADD      R1,SP,#+90
   \      0x1B8   0xE59F'00AC        LDR      R0,??mkfs_makevfat_0+0xC
   \      0x1BC   0x....'....        BL       memCpy
    104          	
    105          	/* Magic */
    106          	*(buf+510) = 0x55; *(buf+511) = 0xAA;
   \      0x1C0   0xE3A0'0055        MOV      R0,#+85
   \      0x1C4   0xE5CD'0206        STRB     R0,[SP, #+518]
   \      0x1C8   0xE3A0'00AA        MOV      R0,#+170
   \      0x1CC   0xE5CD'0207        STRB     R0,[SP, #+519]
    107          	
    108          	part_writeBuf(part,0,buf);
   \      0x1D0   0xE28D'2008        ADD      R2,SP,#+8
   \      0x1D4   0xE3A0'1000        MOV      R1,#+0
   \      0x1D8   0xE59D'0208        LDR      R0,[SP, #+520]
   \      0x1DC   0x....'....        BL       part_writeBuf
    109          	
    110          	memClr(buf,512);
   \      0x1E0   0xE3A0'1F80        MOV      R1,#+512
   \      0x1E4   0xE28D'0008        ADD      R0,SP,#+8
   \      0x1E8   0x....'....        BL       memClr
    111          	for(c=32;c<(32+2*fs);c++){
   \      0x1EC   0xE1B0'900B        MOVS     R9,R11
   \                     ??mkfs_makevfat_9:
   \      0x1F0   0xE3A0'0002        MOV      R0,#+2
   \      0x1F4   0xE011'0590        MULS     R1,R0,R5
   \      0x1F8   0xE291'0020        ADDS     R0,R1,#+32
   \      0x1FC   0xE159'0000        CMP      R9,R0
   \      0x200   0x2A00'0005        BCS      ??mkfs_makevfat_10
    112          		part_writeBuf(part,c,buf);
   \      0x204   0xE28D'2008        ADD      R2,SP,#+8
   \      0x208   0xE1B0'1009        MOVS     R1,R9
   \      0x20C   0xE59D'0208        LDR      R0,[SP, #+520]
   \      0x210   0x....'....        BL       part_writeBuf
    113          	}
   \      0x214   0xE299'9001        ADDS     R9,R9,#+1
   \      0x218   0xEAFF'FFF4        B        ??mkfs_makevfat_9
    114          	*(((unsigned long*)buf)  )=0x0FFFFFF8;
   \                     ??mkfs_makevfat_10:
   \      0x21C   0xE3E0'027F        MVN      R0,#-268435449
   \      0x220   0xE58D'0008        STR      R0,[SP, #+8]
    115          	*(((unsigned long*)buf)+1)=0x0FFFFFFF;
   \      0x224   0xE3E0'04F0        MVN      R0,#-268435456
   \      0x228   0xE58A'0004        STR      R0,[R10, #+4]
    116          	*(((unsigned long*)buf)+2)=0x0FFFFFF8;
   \      0x22C   0xE3E0'027F        MVN      R0,#-268435449
   \      0x230   0xE58A'0008        STR      R0,[R10, #+8]
    117          	part_writeBuf(part,32,buf);
   \      0x234   0xE28D'2008        ADD      R2,SP,#+8
   \      0x238   0xE3A0'1020        MOV      R1,#+32
   \      0x23C   0xE59D'0208        LDR      R0,[SP, #+520]
   \      0x240   0x....'....        BL       part_writeBuf
    118          	part_writeBuf(part,32+fs,buf);
   \      0x244   0xE28D'2008        ADD      R2,SP,#+8
   \      0x248   0xE295'1020        ADDS     R1,R5,#+32
   \      0x24C   0xE59D'0208        LDR      R0,[SP, #+520]
   \      0x250   0x....'....        BL       part_writeBuf
    119          	
    120          	return(0);
   \      0x254   0xE3A0'0000        MOV      R0,#+0
   \                     ??mkfs_makevfat_2:
   \      0x258   0xE28D'DF83        ADD      SP,SP,#+524
   \      0x25C   0xE8BD'8FF0        POP      {R4-R11,PC}      ;; return
   \                     ??mkfs_makevfat_0:
   \      0x260   0x....'....        DC32     ?_0
   \      0x264   0x1337'1337        DC32     0x13371337
   \      0x268   0x....'....        DC32     ?_1
   \      0x26C   0x....'....        DC32     ?_2
    121          }

   \                                 In section .rodata, align 4
   \                     ?_0:
   \        0x0   0x44 0x53          DC8 "DSCOSMSH"
   \              0x43 0x4F    
   \              0x53 0x4D    
   \              0x53 0x48    
   \              0x00         
   \        0x9   0x00 0x00          DC8 0, 0, 0
   \              0x00         

   \                                 In section .rodata, align 4
   \                     ?_1:
   \        0x0   0x44 0x49          DC8 "DISCOSMASH!"
   \              0x53 0x43    
   \              0x4F 0x53    
   \              0x4D 0x41    
   \              0x53 0x48    
   \              0x21 0x00    

   \                                 In section .rodata, align 4
   \                     ?_2:
   \        0x0   0x46 0x41          DC8 "FAT32   "
   \              0x54 0x33    
   \              0x32 0x20    
   \              0x20 0x20    
   \              0x00         
   \        0x9   0x00 0x00          DC8 0, 0, 0
   \              0x00         

   Maximum stack usage in bytes:

   .cstack Function
   ------- --------
     560   mkfs_makevfat
       560   -> memClr
       560   -> memCpy
       560   -> part_writeBuf
       560 __aeabi_uidiv


   Section sizes:

   Bytes  Function/Label
   -----  --------------
      12  ?_0
      12  ?_1
      12  ?_2
     624  mkfs_makevfat

 
  36 bytes in section .rodata
 624 bytes in section .text
 
 624 bytes of CODE  memory
  36 bytes of CONST memory

Errors: none
Warnings: none
