###############################################################################
#
# IAR ANSI C/C++ Compiler V8.30.1.114/W32 for ARM         10/Dec/2019  12:06:41
# Copyright 1999-2018 IAR Systems AB.
#
#    Cpu mode     =  arm
#    Endian       =  little
#    Source file  =  E:\armipc\fs\plibc.c
#    Command line =  
#        -f C:\Users\Bill\AppData\Local\Temp\EW6740.tmp (E:\armipc\fs\plibc.c
#        -D DDRRAM_EXEC -D MMU_ENA -lC "E:\armipc\DDRRAM Debug\List" -o
#        "E:\armipc\DDRRAM Debug\Obj" --no_cse --no_unroll --no_inline
#        --no_code_motion --no_tbaa --no_clustering --no_scheduling --debug
#        --endian=little --cpu=ARM926EJ-S -e --fpu=None --dlib_config
#        "C:\Program Files\IAR Systems\Embedded Workbench
#        8.1\arm\inc\c\DLib_Config_Normal.h" -I E:\armipc\ -I E:\armipc\board\
#        -I E:\armipc\modules\ -I E:\armipc\lwip\include\lwip\ -I
#        E:\armipc\lwip\include\arch\ -I E:\armipc\rtos\include\ -I
#        E:\armipc\lwip\include\IPV4\lwip\ -I E:\armipc\lwip\netif\ppp\
#        --cpu_mode arm -On --use_c++_inline)
#    Locale       =  C
#    List file    =  E:\armipc\DDRRAM Debug\List\plibc.lst
#    Object file  =  E:\armipc\DDRRAM Debug\Obj\plibc.o
#
###############################################################################

E:\armipc\fs\plibc.c
      1          /*****************************************************************************\
      2          *              efs - General purpose Embedded Filesystem library              *
      3          *          --------------------- -----------------------------------          *
      4          *                                                                             *
      5          * Filename : plibc.c                                                          *
      6          * Revision : Initial developement                                             *
      7          * Description : This file contains replacements of common c library functions *
      8          *                                                                             *
      9          * This library is free software; you can redistribute it and/or               *
     10          * modify it under the terms of the GNU Lesser General Public                  *
     11          * License as published by the Free Software Foundation; either                *
     12          * version 2.1 of the License, or (at your option) any later version.          *
     13          *                                                                             *
     14          * This library is distributed in the hope that it will be useful,             *
     15          * but WITHOUT ANY WARRANTY; without even the implied warranty of              *
     16          * MERCHANTABILITY or FITNESS FOR A PARTICULAR PURPOSE.  See the GNU           *
     17          * Lesser General Public License for more details.                             *
     18          *                                                                             *
     19          *                                                    (c)2004 Lennart Yseboodt *
     20          *                                                    (c)2004 Michael De Nil   *
     21          \*****************************************************************************/
     22          
     23          /*****************************************************************************/
     24          #include "include/plibc.h"
     25          /*****************************************************************************/
     26          
     27          /* ****************************************************************************  
     28           * unsigned short strMatch(char* bufa, char*bufb, unsigned long n)
     29           * Description: Compares bufa and bufb for a length of n bytes.
     30           * Return value: Returns the number of character NOT matching.
     31          */

   \                                 In section .text, align 4, keep-with-next
     32          euint16 strMatch(eint8* bufa, eint8*bufb,euint32 n)
     33          {
   \                     strMatch:
   \        0x0   0xE92D'4010        PUSH     {R4,LR}
   \        0x4   0xE1B0'3000        MOVS     R3,R0
     34          	euint32 c;
     35          	euint16 res=0;
   \        0x8   0xE3A0'0000        MOV      R0,#+0
     36          	for(c=0;c<n;c++)if(bufa[c]!=bufb[c])res++;
   \        0xC   0xE3A0'C000        MOV      R12,#+0
   \                     ??strMatch_0:
   \       0x10   0xE15C'0002        CMP      R12,R2
   \       0x14   0x2A00'0006        BCS      ??strMatch_1
   \       0x18   0xE7D3'E00C        LDRB     LR,[R3, +R12]
   \       0x1C   0xE7D1'400C        LDRB     R4,[R1, +R12]
   \       0x20   0xE15E'0004        CMP      LR,R4
   \       0x24   0x0A00'0000        BEQ      ??strMatch_2
   \       0x28   0xE290'0001        ADDS     R0,R0,#+1
   \                     ??strMatch_2:
   \       0x2C   0xE29C'C001        ADDS     R12,R12,#+1
   \       0x30   0xEAFF'FFF6        B        ??strMatch_0
     37          	return(res);
   \                     ??strMatch_1:
   \       0x34   0xE1A0'0800        LSL      R0,R0,#+16
   \       0x38   0xE1B0'0820        LSRS     R0,R0,#+16
   \       0x3C   0xE8BD'8010        POP      {R4,PC}          ;; return
     38          }
     39          /*****************************************************************************/ 
     40          
     41          
     42          /* ****************************************************************************  
     43           * void memCpy(void* psrc, void* pdest, unsigned long size)
     44           * Description: Copies the contents of psrc into pdest on a byte per byte basis.
     45           * The total number of bytes copies is size.
     46          */

   \                                 In section .text, align 4, keep-with-next
     47          void memCpy(void* psrc, void* pdest, euint32 size)
     48          {
     49          	while(size>0){
   \                     memCpy:
   \                     ??memCpy_0:
   \        0x0   0xE352'0000        CMP      R2,#+0
   \        0x4   0x0A00'0005        BEQ      ??memCpy_1
     50          		*((eint8*)pdest+size-1)=*((eint8*)psrc+size-1);
   \        0x8   0xE090'3002        ADDS     R3,R0,R2
   \        0xC   0xE553'3001        LDRB     R3,[R3, #-1]
   \       0x10   0xE091'C002        ADDS     R12,R1,R2
   \       0x14   0xE54C'3001        STRB     R3,[R12, #-1]
     51          		size--;
   \       0x18   0xE252'2001        SUBS     R2,R2,#+1
   \       0x1C   0xEAFF'FFF7        B        ??memCpy_0
     52          	}
     53          }
   \                     ??memCpy_1:
   \       0x20   0xE12F'FF1E        BX       LR               ;; return
     54          /*****************************************************************************/ 
     55          

   \                                 In section .text, align 4, keep-with-next
     56          void memClr(void *pdest,euint32 size)
     57          {
     58          	while(size>0){
   \                     memClr:
   \                     ??memClr_0:
   \        0x0   0xE351'0000        CMP      R1,#+0
   \        0x4   0x0A00'0004        BEQ      ??memClr_1
     59          		*(((eint8*)pdest)+size-1)=0x00;
   \        0x8   0xE3A0'2000        MOV      R2,#+0
   \        0xC   0xE090'3001        ADDS     R3,R0,R1
   \       0x10   0xE543'2001        STRB     R2,[R3, #-1]
     60          		size--;
   \       0x14   0xE251'1001        SUBS     R1,R1,#+1
   \       0x18   0xEAFF'FFF8        B        ??memClr_0
     61          	}
     62          }
   \                     ??memClr_1:
   \       0x1C   0xE12F'FF1E        BX       LR               ;; return
     63          

   \                                 In section .text, align 4, keep-with-next
     64          void memSet(void *pdest,euint32 size,euint8 data)
     65          {
     66          	while(size>0){
   \                     memSet:
   \                     ??memSet_0:
   \        0x0   0xE351'0000        CMP      R1,#+0
   \        0x4   0x0A00'0003        BEQ      ??memSet_1
     67          		*(((eint8*)pdest)+size-1)=data;
   \        0x8   0xE090'3001        ADDS     R3,R0,R1
   \        0xC   0xE543'2001        STRB     R2,[R3, #-1]
     68          		size--;
   \       0x10   0xE251'1001        SUBS     R1,R1,#+1
   \       0x14   0xEAFF'FFF9        B        ??memSet_0
     69          	}
     70          }
   \                     ??memSet_1:
   \       0x18   0xE12F'FF1E        BX       LR               ;; return
     71          
     72          

   Maximum stack usage in bytes:

   .cstack Function
   ------- --------
       0   memClr
       0   memCpy
       0   memSet
       8   strMatch


   Section sizes:

   Bytes  Function/Label
   -----  --------------
      32  memClr
      36  memCpy
      28  memSet
      64  strMatch

 
 160 bytes in section .text
 
 160 bytes of CODE memory

Errors: none
Warnings: none
