###############################################################################
#
# IAR ANSI C/C++ Compiler V8.22.1.15669/W32 for ARM       18/Apr/2018  08:57:52
# Copyright 1999-2018 IAR Systems AB.
#
#    Cpu mode     =  arm
#    Endian       =  little
#    Source file  =  E:\armipc\fs\sd_mmc.c
#    Command line =  
#        -f C:\Users\Bill\AppData\Local\Temp\EW22F3.tmp (E:\armipc\fs\sd_mmc.c
#        -D DDRRAM_EXEC -D MMU_ENA -lC "E:\armipc\DDRRAM Debug\List" -o
#        "E:\armipc\DDRRAM Debug\Obj" --no_cse --no_unroll --no_inline
#        --no_code_motion --no_tbaa --no_clustering --no_scheduling --debug
#        --endian=little --cpu=ARM926EJ-S -e --fpu=None --dlib_config
#        "C:\Program Files\IAR Systems\Embedded Workbench
#        8.0\arm\INC\c\DLib_Config_Normal.h" -I E:\armipc\ -I E:\armipc\board\
#        -I E:\armipc\modules\ -I E:\armipc\lwip\include\lwip\ -I
#        E:\armipc\lwip\lwip\include\arch\ -I E:\armipc\rtos\include\ -I
#        E:\armipc\lwip\include\IPV4\lwip\ -I E:\armipc\lwip\netif\ppp\
#        --cpu_mode arm -On --use_c++_inline)
#    Locale       =  C
#    List file    =  E:\armipc\DDRRAM Debug\List\sd_mmc.lst
#    Object file  =  E:\armipc\DDRRAM Debug\Obj\sd_mmc.o
#
###############################################################################

E:\armipc\fs\sd_mmc.c
      1          /*------------------------------------------------------------------------/
      2          /  Foolproof MMCv3/SDv1/SDv2 (in SPI mode) control module
      3          /-------------------------------------------------------------------------/
      4          /
      5          /  Copyright (C) 2013, ChaN, all right reserved.
      6          /
      7          / * This software is a free software and there is NO WARRANTY.
      8          / * No restriction on use. You can use, modify and redistribute it for
      9          /   personal, non-profit or commercial products UNDER YOUR RESPONSIBILITY.
     10          / * Redistributions of source code must retain the above copyright notice.
     11          /
     12          /-------------------------------------------------------------------------/
     13            Features and Limitations:
     14          
     15            * Easy to Port Bit-banging SPI
     16              It uses only four GPIO pins. No complex peripheral needs to be used.
     17          
     18            * Platform Independent
     19              You need to modify only a few macros to control the GPIO port.
     20          
     21            * Low Speed
     22              The data transfer rate will be several times slower than hardware SPI.
     23          
     24            * No Media Change Detection
     25              Application program needs to perform a f_mount() after media change.
     26          
     27          /-------------------------------------------------------------------------*/
     28          
     29          
     30          #include "diskio.h"		/* Common include file for FatFs and disk I/O layer */
     31          
     32          
     33          /*-------------------------------------------------------------------------*/
     34          /* Platform dependent macros and functions needed to be modified           */
     35          /*-------------------------------------------------------------------------*/
     36          
     37          //~!~!~!#include <avr/io.h>			/* Include device specific declareation file here */
     38          
     39          
     40          #define DO_INIT()					/* Initialize port for MMC DO as input */
     41          #define DO			(PINB &	0x01)	/* Test for MMC DO ('H':true, 'L':false) */
     42          
     43          #define DI_INIT()	DDRB  |= 0x02	/* Initialize port for MMC DI as output */
     44          #define DI_H()		PORTB |= 0x02	/* Set MMC DI "high" */
     45          #define DI_L()		PORTB &= 0xFD	/* Set MMC DI "low" */
     46          
     47          #define CK_INIT()	DDRB  |= 0x04	/* Initialize port for MMC SCLK as output */
     48          #define CK_H()		PORTB |= 0x04	/* Set MMC SCLK "high" */
     49          #define	CK_L()		PORTB &= 0xFB	/* Set MMC SCLK "low" */
     50          
     51          #define CS_INIT()	DDRB  |= 0x08	/* Initialize port for MMC CS as output */
     52          #define	CS_H()		PORTB |= 0x08	/* Set MMC CS "high" */
     53          #define CS_L()		PORTB &= 0xF7	/* Set MMC CS "low" */
     54          
     55          
     56          static
     57          void dly_us (UINT n)	/* Delay n microseconds (avr-gcc -Os) */
     58          {
     59          	do {
     60          		PINB;
                 		^
Error[Pe020]: identifier "PINB" is undefined
     61          #if F_CPU >= 6000000
     62          		PINB;
     63          #endif
     64          #if F_CPU >= 7000000
     65          		PINB;
     66          #endif
     67          #if F_CPU >= 8000000
     68          		PINB;
     69          #endif
     70          #if F_CPU >= 9000000
     71          		PINB;
     72          #endif
     73          #if F_CPU >= 10000000
     74          		PINB;
     75          #endif
     76          #if F_CPU >= 12000000
     77          		PINB; PINB;
     78          #endif
     79          #if F_CPU >= 14000000
     80          #error Too fast clock
     81          #endif
     82          	} while (--n);
     83          }
     84          
     85          
     86          
     87          /*--------------------------------------------------------------------------
     88          
     89             Module Private Functions
     90          
     91          ---------------------------------------------------------------------------*/
     92          
     93          /* MMC/SD command (SPI mode) */
     94          #define CMD0	(0)			/* GO_IDLE_STATE */
     95          #define CMD1	(1)			/* SEND_OP_COND */
     96          #define	ACMD41	(0x80+41)	/* SEND_OP_COND (SDC) */
     97          #define CMD8	(8)			/* SEND_IF_COND */
     98          #define CMD9	(9)			/* SEND_CSD */
     99          #define CMD10	(10)		/* SEND_CID */
    100          #define CMD12	(12)		/* STOP_TRANSMISSION */
    101          #define CMD13	(13)		/* SEND_STATUS */
    102          #define ACMD13	(0x80+13)	/* SD_STATUS (SDC) */
    103          #define CMD16	(16)		/* SET_BLOCKLEN */
    104          #define CMD17	(17)		/* READ_SINGLE_BLOCK */
    105          #define CMD18	(18)		/* READ_MULTIPLE_BLOCK */
    106          #define CMD23	(23)		/* SET_BLOCK_COUNT */
    107          #define	ACMD23	(0x80+23)	/* SET_WR_BLK_ERASE_COUNT (SDC) */
    108          #define CMD24	(24)		/* WRITE_BLOCK */
    109          #define CMD25	(25)		/* WRITE_MULTIPLE_BLOCK */
    110          #define CMD32	(32)		/* ERASE_ER_BLK_START */
    111          #define CMD33	(33)		/* ERASE_ER_BLK_END */
    112          #define CMD38	(38)		/* ERASE */
    113          #define CMD55	(55)		/* APP_CMD */
    114          #define CMD58	(58)		/* READ_OCR */
    115          
    116          
    117          static
    118          DSTATUS Stat = STA_NOINIT;	/* Disk status */
    119          
    120          static
    121          BYTE CardType;			/* b0:MMC, b1:SDv1, b2:SDv2, b3:Block addressing */
    122          
    123          
    124          
    125          /*-----------------------------------------------------------------------*/
    126          /* Transmit bytes to the card (bitbanging)                               */
    127          /*-----------------------------------------------------------------------*/
    128          
    129          static
    130          void xmit_mmc (
    131          	const BYTE* buff,	/* Data to be sent */
    132          	UINT bc				/* Number of bytes to send */
    133          )
    134          {
    135          	BYTE d;
    136          
    137          
    138          	do {
    139          		d = *buff++;	/* Get a byte to be sent */
    140          		if (d & 0x80) DI_H(); else DI_L();	/* bit7 */
                 		              ^
Error[Pe020]: identifier "PORTB" is undefined

  		if (d & 0x80) DI_H(); else DI_L();	/* bit7 */
  		                           ^
"E:\armipc\fs\sd_mmc.c",140  Error[Pe020]: identifier "PORTB" is undefined
    141          		CK_H(); CK_L();
                 		^
Error[Pe020]: identifier "PORTB" is undefined
    142          		if (d & 0x40) DI_H(); else DI_L();	/* bit6 */
    143          		CK_H(); CK_L();
    144          		if (d & 0x20) DI_H(); else DI_L();	/* bit5 */
    145          		CK_H(); CK_L();
    146          		if (d & 0x10) DI_H(); else DI_L();	/* bit4 */
    147          		CK_H(); CK_L();
    148          		if (d & 0x08) DI_H(); else DI_L();	/* bit3 */
    149          		CK_H(); CK_L();
    150          		if (d & 0x04) DI_H(); else DI_L();	/* bit2 */
    151          		CK_H(); CK_L();
    152          		if (d & 0x02) DI_H(); else DI_L();	/* bit1 */
    153          		CK_H(); CK_L();
    154          		if (d & 0x01) DI_H(); else DI_L();	/* bit0 */
    155          		CK_H(); CK_L();
    156          	} while (--bc);
    157          }
    158          
    159          
    160          
    161          /*-----------------------------------------------------------------------*/
    162          /* Receive bytes from the card (bitbanging)                              */
    163          /*-----------------------------------------------------------------------*/
    164          
    165          static
    166          void rcvr_mmc (
    167          	BYTE *buff,	/* Pointer to read buffer */
    168          	UINT bc		/* Number of bytes to receive */
    169          )
    170          {
    171          	BYTE r;
    172          
    173          
    174          	DI_H();	/* Send 0xFF */
                 	^
Error[Pe020]: identifier "PORTB" is undefined
    175          
    176          	do {
    177          		r = 0;	 if (DO) r++;	/* bit7 */
                 		      	     ^
Error[Pe020]: identifier "PINB" is undefined
    178          		CK_H(); CK_L();
    179          		r <<= 1; if (DO) r++;	/* bit6 */
                 		             ^
Error[Pe020]: identifier "PINB" is undefined
    180          		CK_H(); CK_L();
    181          		r <<= 1; if (DO) r++;	/* bit5 */
                 		             ^
Error[Pe020]: identifier "PINB" is undefined
    182          		CK_H(); CK_L();
    183          		r <<= 1; if (DO) r++;	/* bit4 */
                 		             ^
Error[Pe020]: identifier "PINB" is undefined
    184          		CK_H(); CK_L();
    185          		r <<= 1; if (DO) r++;	/* bit3 */
                 		             ^
Error[Pe020]: identifier "PINB" is undefined
    186          		CK_H(); CK_L();
    187          		r <<= 1; if (DO) r++;	/* bit2 */
                 		             ^
Error[Pe020]: identifier "PINB" is undefined
    188          		CK_H(); CK_L();
    189          		r <<= 1; if (DO) r++;	/* bit1 */
                 		             ^
Error[Pe020]: identifier "PINB" is undefined
    190          		CK_H(); CK_L();
    191          		r <<= 1; if (DO) r++;	/* bit0 */
                 		             ^
Error[Pe020]: identifier "PINB" is undefined
    192          		CK_H(); CK_L();
    193          		*buff++ = r;			/* Store a received byte */
    194          	} while (--bc);
    195          }
    196          
    197          
    198          
    199          /*-----------------------------------------------------------------------*/
    200          /* Wait for card ready                                                   */
    201          /*-----------------------------------------------------------------------*/
    202          
    203          static
    204          int wait_ready (void)	/* 1:OK, 0:Timeout */
    205          {
    206          	BYTE d;
    207          	UINT tmr;
    208          
    209          
    210          	for (tmr = 5000; tmr; tmr--) {	/* Wait for ready in timeout of 500ms */
    211          		rcvr_mmc(&d, 1);
    212          		if (d == 0xFF) break;
    213          		dly_us(100);
    214          	}
    215          
    216          	return tmr ? 1 : 0;
    217          }
    218          
    219          
    220          
    221          /*-----------------------------------------------------------------------*/
    222          /* Deselect the card and release SPI bus                                 */
    223          /*-----------------------------------------------------------------------*/
    224          
    225          static
    226          void deselect (void)
    227          {
    228          	BYTE d;
    229          
    230          	CS_H();				/* Set CS# high */
                 	^
Error[Pe020]: identifier "PORTB" is undefined
    231          	rcvr_mmc(&d, 1);	/* Dummy clock (force DO hi-z for multiple slave SPI) */
    232          }
    233          
    234          
    235          
    236          /*-----------------------------------------------------------------------*/
    237          /* Select the card and wait for ready                                    */
    238          /*-----------------------------------------------------------------------*/
    239          
    240          static
    241          int select (void)	/* 1:OK, 0:Timeout */
    242          {
    243          	BYTE d;
    244          
    245          	CS_L();				/* Set CS# low */
                 	^
Error[Pe020]: identifier "PORTB" is undefined
    246          	rcvr_mmc(&d, 1);	/* Dummy clock (force DO enabled) */
    247          	if (wait_ready()) return 1;	/* Wait for card ready */
    248          
    249          	deselect();
    250          	return 0;			/* Failed */
    251          }
    252          
    253          
    254          
    255          /*-----------------------------------------------------------------------*/
    256          /* Receive a data packet from the card                                   */
    257          /*-----------------------------------------------------------------------*/
    258          
    259          static
    260          int rcvr_datablock (	/* 1:OK, 0:Failed */
    261          	BYTE *buff,			/* Data buffer to store received data */
    262          	UINT btr			/* Byte count */
    263          )
    264          {
    265          	BYTE d[2];
    266          	UINT tmr;
    267          
    268          
    269          	for (tmr = 1000; tmr; tmr--) {	/* Wait for data packet in timeout of 100ms */
    270          		rcvr_mmc(d, 1);
    271          		if (d[0] != 0xFF) break;
    272          		dly_us(100);
    273          	}
    274          	if (d[0] != 0xFE) return 0;		/* If not valid data token, return with error */
    275          
    276          	rcvr_mmc(buff, btr);			/* Receive the data block into buffer */
    277          	rcvr_mmc(d, 2);					/* Discard CRC */
    278          
    279          	return 1;						/* Return with success */
    280          }
    281          
    282          
    283          
    284          /*-----------------------------------------------------------------------*/
    285          /* Send a data packet to the card                                        */
    286          /*-----------------------------------------------------------------------*/
    287          
    288          static
    289          int xmit_datablock (	/* 1:OK, 0:Failed */
    290          	const BYTE *buff,	/* 512 byte data block to be transmitted */
    291          	BYTE token			/* Data/Stop token */
    292          )
    293          {
    294          	BYTE d[2];
    295          
    296          
    297          	if (!wait_ready()) return 0;
    298          
    299          	d[0] = token;
    300          	xmit_mmc(d, 1);				/* Xmit a token */
    301          	if (token != 0xFD) {		/* Is it data token? */
    302          		xmit_mmc(buff, 512);	/* Xmit the 512 byte data block to MMC */
    303          		rcvr_mmc(d, 2);			/* Xmit dummy CRC (0xFF,0xFF) */
    304          		rcvr_mmc(d, 1);			/* Receive data response */
    305          		if ((d[0] & 0x1F) != 0x05)	/* If not accepted, return with error */
    306          			return 0;
    307          	}
    308          
    309          	return 1;
    310          }
    311          
    312          
    313          
    314          /*-----------------------------------------------------------------------*/
    315          /* Send a command packet to the card                                     */
    316          /*-----------------------------------------------------------------------*/
    317          
    318          static
    319          BYTE send_cmd (		/* Returns command response (bit7==1:Send failed)*/
    320          	BYTE cmd,		/* Command byte */
    321          	DWORD arg		/* Argument */
    322          )
    323          {
    324          	BYTE n, d, buf[6];
    325          
    326          
    327          	if (cmd & 0x80) {	/* ACMD<n> is the command sequense of CMD55-CMD<n> */
    328          		cmd &= 0x7F;
    329          		n = send_cmd(CMD55, 0);
    330          		if (n > 1) return n;
    331          	}
    332          
    333          	/* Select the card and wait for ready except to stop multiple block read */
    334          	if (cmd != CMD12) {
    335          		deselect();
    336          		if (!select()) return 0xFF;
    337          	}
    338          
    339          	/* Send a command packet */
    340          	buf[0] = 0x40 | cmd;			/* Start + Command index */
    341          	buf[1] = (BYTE)(arg >> 24);		/* Argument[31..24] */
    342          	buf[2] = (BYTE)(arg >> 16);		/* Argument[23..16] */
    343          	buf[3] = (BYTE)(arg >> 8);		/* Argument[15..8] */
    344          	buf[4] = (BYTE)arg;				/* Argument[7..0] */
    345          	n = 0x01;						/* Dummy CRC + Stop */
    346          	if (cmd == CMD0) n = 0x95;		/* (valid CRC for CMD0(0)) */
    347          	if (cmd == CMD8) n = 0x87;		/* (valid CRC for CMD8(0x1AA)) */
    348          	buf[5] = n;
    349          	xmit_mmc(buf, 6);
    350          
    351          	/* Receive command response */
    352          	if (cmd == CMD12) rcvr_mmc(&d, 1);	/* Skip a stuff byte when stop reading */
    353          	n = 10;								/* Wait for a valid response in timeout of 10 attempts */
    354          	do
    355          		rcvr_mmc(&d, 1);
    356          	while ((d & 0x80) && --n);
    357          
    358          	return d;			/* Return with the response value */
    359          }
    360          
    361          
    362          
    363          /*--------------------------------------------------------------------------
    364          
    365             Public Functions
    366          
    367          ---------------------------------------------------------------------------*/
    368          
    369          
    370          /*-----------------------------------------------------------------------*/
    371          /* Get Disk Status                                                       */
    372          /*-----------------------------------------------------------------------*/
    373          
    374          DSTATUS disk_status (
    375          	BYTE drv			/* Drive number (always 0) */
    376          )
    377          {
    378          	if (drv) return STA_NOINIT;
    379          
    380          	return Stat;
    381          }
    382          
    383          
    384          
    385          /*-----------------------------------------------------------------------*/
    386          /* Initialize Disk Drive                                                 */
    387          /*-----------------------------------------------------------------------*/
    388          
    389          DSTATUS disk_initialize (
    390          	BYTE drv		/* Physical drive nmuber (0) */
    391          )
    392          {
    393          	BYTE n, ty, cmd, buf[4];
    394          	UINT tmr;
    395          	DSTATUS s;
    396          
    397          
    398          	if (drv) return RES_NOTRDY;
    399          
    400          	dly_us(10000);			/* 10ms */
    401          	CS_INIT(); CS_H();		/* Initialize port pin tied to CS */
                 	^
Error[Pe020]: identifier "DDRB" is undefined

  	CS_INIT(); CS_H();		/* Initialize port pin tied to CS */
  	           ^
"E:\armipc\fs\sd_mmc.c",401  Error[Pe020]: identifier "PORTB" is undefined
    402          	CK_INIT(); CK_L();		/* Initialize port pin tied to SCLK */
    403          	DI_INIT();				/* Initialize port pin tied to DI */
    404          	DO_INIT();				/* Initialize port pin tied to DO */
    405          
    406          	for (n = 10; n; n--) rcvr_mmc(buf, 1);	/* Apply 80 dummy clocks and the card gets ready to receive command */
    407          
    408          	ty = 0;
    409          	if (send_cmd(CMD0, 0) == 1) {			/* Enter Idle state */
    410          		if (send_cmd(CMD8, 0x1AA) == 1) {	/* SDv2? */
    411          			rcvr_mmc(buf, 4);							/* Get trailing return value of R7 resp */
    412          			if (buf[2] == 0x01 && buf[3] == 0xAA) {		/* The card can work at vdd range of 2.7-3.6V */
    413          				for (tmr = 1000; tmr; tmr--) {			/* Wait for leaving idle state (ACMD41 with HCS bit) */
    414          					if (send_cmd(ACMD41, 1UL << 30) == 0) break;
    415          					dly_us(1000);
    416          				}
    417          				if (tmr && send_cmd(CMD58, 0) == 0) {	/* Check CCS bit in the OCR */
    418          					rcvr_mmc(buf, 4);
    419          					ty = (buf[0] & 0x40) ? CT_SD2 | CT_BLOCK : CT_SD2;	/* SDv2 */
                 					                       ^
Error[Pe020]: identifier "CT_SD2" is undefined

  					ty = (buf[0] & 0x40) ? CT_SD2 | CT_BLOCK : CT_SD2;	/* SDv2 */
  					                                ^
"E:\armipc\fs\sd_mmc.c",419  Error[Pe020]: identifier "CT_BLOCK" is undefined
    420          				}
    421          			}
    422          		} else {							/* SDv1 or MMCv3 */
    423          			if (send_cmd(ACMD41, 0) <= 1) 	{
    424          				ty = CT_SD1; cmd = ACMD41;	/* SDv1 */
                 				     ^
Error[Pe020]: identifier "CT_SD1" is undefined
    425          			} else {
    426          				ty = CT_MMC; cmd = CMD1;	/* MMCv3 */
                 				     ^
Error[Pe020]: identifier "CT_MMC" is undefined
    427          			}
    428          			for (tmr = 1000; tmr; tmr--) {			/* Wait for leaving idle state */
    429          				if (send_cmd(cmd, 0) == 0) break;
    430          				dly_us(1000);
    431          			}
    432          			if (!tmr || send_cmd(CMD16, 512) != 0)	/* Set R/W block length to 512 */
    433          				ty = 0;
    434          		}
    435          	}
    436          	CardType = ty;
    437          	s = ty ? 0 : STA_NOINIT;
    438          	Stat = s;
    439          
    440          	deselect();
    441          
    442          	return s;
    443          }
    444          
    445          
    446          
    447          /*-----------------------------------------------------------------------*/
    448          /* Read Sector(s)                                                        */
    449          /*-----------------------------------------------------------------------*/
    450          
    451          DRESULT disk_read (
    452          	BYTE drv,			/* Physical drive nmuber (0) */
    453          	BYTE *buff,			/* Pointer to the data buffer to store read data */
    454          	DWORD sector,		/* Start sector number (LBA) */
    455          	UINT count			/* Sector count (1..128) */
    456          )
    457          {
    458          	BYTE cmd;
    459          
    460          
    461          	if (disk_status(drv) & STA_NOINIT) return RES_NOTRDY;
    462          	if (!(CardType & CT_BLOCK)) sector *= 512;	/* Convert LBA to byte address if needed */
                 	                 ^
Error[Pe020]: identifier "CT_BLOCK" is undefined
    463          
    464          	cmd = count > 1 ? CMD18 : CMD17;			/*  READ_MULTIPLE_BLOCK : READ_SINGLE_BLOCK */
    465          	if (send_cmd(cmd, sector) == 0) {
    466          		do {
    467          			if (!rcvr_datablock(buff, 512)) break;
    468          			buff += 512;
    469          		} while (--count);
    470          		if (cmd == CMD18) send_cmd(CMD12, 0);	/* STOP_TRANSMISSION */
    471          	}
    472          	deselect();
    473          
    474          	return count ? RES_ERROR : RES_OK;
    475          }
    476          
    477          
    478          
    479          /*-----------------------------------------------------------------------*/
    480          /* Write Sector(s)                                                       */
    481          /*-----------------------------------------------------------------------*/
    482          
    483          DRESULT disk_write (
    484          	BYTE drv,			/* Physical drive nmuber (0) */
    485          	const BYTE *buff,	/* Pointer to the data to be written */
    486          	DWORD sector,		/* Start sector number (LBA) */
    487          	UINT count			/* Sector count (1..128) */
    488          )
    489          {
    490          	if (disk_status(drv) & STA_NOINIT) return RES_NOTRDY;
    491          	if (!(CardType & CT_BLOCK)) sector *= 512;	/* Convert LBA to byte address if needed */
                 	                 ^
Error[Pe020]: identifier "CT_BLOCK" is undefined
    492          
    493          	if (count == 1) {	/* Single block write */
    494          		if ((send_cmd(CMD24, sector) == 0)	/* WRITE_BLOCK */
    495          			&& xmit_datablock(buff, 0xFE))
    496          			count = 0;
    497          	}
    498          	else {				/* Multiple block write */
    499          		if (CardType & CT_SDC) send_cmd(ACMD23, count);
                 		               ^
Error[Pe020]: identifier "CT_SDC" is undefined
    500          		if (send_cmd(CMD25, sector) == 0) {	/* WRITE_MULTIPLE_BLOCK */
    501          			do {
    502          				if (!xmit_datablock(buff, 0xFC)) break;
    503          				buff += 512;
    504          			} while (--count);
    505          			if (!xmit_datablock(0, 0xFD))	/* STOP_TRAN token */
    506          				count = 1;
    507          		}
    508          	}
    509          	deselect();
    510          
    511          	return count ? RES_ERROR : RES_OK;
    512          }
    513          
    514          
    515          /*-----------------------------------------------------------------------*/
    516          /* Miscellaneous Functions                                               */
    517          /*-----------------------------------------------------------------------*/
    518          
    519          DRESULT disk_ioctl (
    520          	BYTE drv,		/* Physical drive nmuber (0) */
    521          	BYTE ctrl,		/* Control code */
    522          	void *buff		/* Buffer to send/receive control data */
    523          )
    524          {
    525          	DRESULT res;
    526          	BYTE n, csd[16];
    527          	DWORD cs;
    528          
    529          
    530          	if (disk_status(drv) & STA_NOINIT) return RES_NOTRDY;	/* Check if card is in the socket */
    531          
    532          	res = RES_ERROR;
    533          	switch (ctrl) {
    534          		case CTRL_SYNC :		/* Make sure that no pending write process */
    535          			if (select()) res = RES_OK;
    536          			break;
    537          
    538          		case GET_SECTOR_COUNT :	/* Get number of sectors on the disk (DWORD) */
    539          			if ((send_cmd(CMD9, 0) == 0) && rcvr_datablock(csd, 16)) {
    540          				if ((csd[0] >> 6) == 1) {	/* SDC ver 2.00 */
    541          					cs = csd[9] + ((WORD)csd[8] << 8) + ((DWORD)(csd[7] & 63) << 16) + 1;
    542          					*(DWORD*)buff = cs << 10;
    543          				} else {					/* SDC ver 1.XX or MMC */
    544          					n = (csd[5] & 15) + ((csd[10] & 128) >> 7) + ((csd[9] & 3) << 1) + 2;
    545          					cs = (csd[8] >> 6) + ((WORD)csd[7] << 2) + ((WORD)(csd[6] & 3) << 10) + 1;
    546          					*(DWORD*)buff = cs << (n - 9);
    547          				}
    548          				res = RES_OK;
    549          			}
    550          			break;
    551          
    552          		case GET_BLOCK_SIZE :	/* Get erase block size in unit of sector (DWORD) */
    553          			*(DWORD*)buff = 128;
    554          			res = RES_OK;
    555          			break;
    556          
    557          		default:
    558          			res = RES_PARERR;
    559          	}
    560          
    561          	deselect();
    562          
    563          	return res;
    564          }
    565          
    566          

Errors: 24
Warnings: none
