###############################################################################
#
# IAR ANSI C/C++ Compiler V8.30.1.114/W32 for ARM         10/Dec/2019  12:06:42
# Copyright 1999-2018 IAR Systems AB.
#
#    Cpu mode     =  arm
#    Endian       =  little
#    Source file  =  E:\armipc\lwip\core\sys.c
#    Command line =  
#        -f C:\Users\Bill\AppData\Local\Temp\EW6B7F.tmp
#        (E:\armipc\lwip\core\sys.c -D DDRRAM_EXEC -D MMU_ENA -lC
#        "E:\armipc\DDRRAM Debug\List" -o "E:\armipc\DDRRAM Debug\Obj" --no_cse
#        --no_unroll --no_inline --no_code_motion --no_tbaa --no_clustering
#        --no_scheduling --debug --endian=little --cpu=ARM926EJ-S -e --fpu=None
#        --dlib_config "C:\Program Files\IAR Systems\Embedded Workbench
#        8.1\arm\inc\c\DLib_Config_Normal.h" -I E:\armipc\ -I E:\armipc\board\
#        -I E:\armipc\modules\ -I E:\armipc\lwip\include\lwip\ -I
#        E:\armipc\lwip\include\arch\ -I E:\armipc\rtos\include\ -I
#        E:\armipc\lwip\include\IPV4\lwip\ -I E:\armipc\lwip\netif\ppp\
#        --cpu_mode arm -On --use_c++_inline)
#    Locale       =  C
#    List file    =  E:\armipc\DDRRAM Debug\List\sys.lst
#    Object file  =  E:\armipc\DDRRAM Debug\Obj\sys.o
#
###############################################################################

E:\armipc\lwip\core\sys.c
      1          /*
      2           * Copyright (c) 2001-2004 Swedish Institute of Computer Science.
      3           * All rights reserved.
      4           *
      5           * Redistribution and use in source and binary forms, with or without modification,
      6           * are permitted provided that the following conditions are met:
      7           *
      8           * 1. Redistributions of source code must retain the above copyright notice,
      9           *    this list of conditions and the following disclaimer.
     10           * 2. Redistributions in binary form must reproduce the above copyright notice,
     11           *    this list of conditions and the following disclaimer in the documentation
     12           *    and/or other materials provided with the distribution.
     13           * 3. The name of the author may not be used to endorse or promote products
     14           *    derived from this software without specific prior written permission.
     15           *
     16           * THIS SOFTWARE IS PROVIDED BY THE AUTHOR ``AS IS'' AND ANY EXPRESS OR IMPLIED
     17           * WARRANTIES, INCLUDING, BUT NOT LIMITED TO, THE IMPLIED WARRANTIES OF
     18           * MERCHANTABILITY AND FITNESS FOR A PARTICULAR PURPOSE ARE DISCLAIMED. IN NO EVENT
     19           * SHALL THE AUTHOR BE LIABLE FOR ANY DIRECT, INDIRECT, INCIDENTAL, SPECIAL,
     20           * EXEMPLARY, OR CONSEQUENTIAL DAMAGES (INCLUDING, BUT NOT LIMITED TO, PROCUREMENT
     21           * OF SUBSTITUTE GOODS OR SERVICES; LOSS OF USE, DATA, OR PROFITS; OR BUSINESS
     22           * INTERRUPTION) HOWEVER CAUSED AND ON ANY THEORY OF LIABILITY, WHETHER IN
     23           * CONTRACT, STRICT LIABILITY, OR TORT (INCLUDING NEGLIGENCE OR OTHERWISE) ARISING
     24           * IN ANY WAY OUT OF THE USE OF THIS SOFTWARE, EVEN IF ADVISED OF THE POSSIBILITY
     25           * OF SUCH DAMAGE.
     26           *
     27           * This file is part of the lwIP TCP/IP stack.
     28           *
     29           * Author: Adam Dunkels <adam@sics.se>
     30           *
     31           */
     32          
     33          #include "../include/lwip/sys.h"
     34          #include "../include/lwip/opt.h"
     35          #include "../include/lwip/def.h"
     36          #include "../include/lwip/memp.h"
     37          
     38          #if (NO_SYS == 0)
     39          
     40          struct sswt_cb
     41          {
     42              s16_t timeflag;
     43              sys_sem_t *psem;
     44          };
     45          
     46          
     47          

   \                                 In section .text, align 4, keep-with-next
     48          void
     49          sys_mbox_fetch(sys_mbox_t mbox, void **msg)
     50          {
   \                     sys_mbox_fetch:
   \        0x0   0xE92D'47F0        PUSH     {R4-R10,LR}
   \        0x4   0xE1B0'4000        MOVS     R4,R0
   \        0x8   0xE1B0'5001        MOVS     R5,R1
     51            u32_t time;
     52            struct sys_timeouts *timeouts;
     53            struct sys_timeo *tmptimeout;
     54            sys_timeout_handler h;
     55            void *arg;
     56          
     57          
     58           again:
     59            timeouts = sys_arch_timeouts();
   \                     ??sys_mbox_fetch_0:
   \        0xC   0x....'....        BL       sys_arch_timeouts
   \       0x10   0xE1B0'7000        MOVS     R7,R0
     60          
     61            if (!timeouts || !timeouts->next) {
   \       0x14   0xE357'0000        CMP      R7,#+0
   \       0x18   0x0A00'0002        BEQ      ??sys_mbox_fetch_1
   \       0x1C   0xE597'0000        LDR      R0,[R7, #+0]
   \       0x20   0xE350'0000        CMP      R0,#+0
   \       0x24   0x1A00'0004        BNE      ??sys_mbox_fetch_2
     62              sys_arch_mbox_fetch(mbox, msg, 0);
   \                     ??sys_mbox_fetch_1:
   \       0x28   0xE3A0'2000        MOV      R2,#+0
   \       0x2C   0xE1B0'1005        MOVS     R1,R5
   \       0x30   0xE1B0'0004        MOVS     R0,R4
   \       0x34   0x....'....        BL       sys_arch_mbox_fetch
   \       0x38   0xEA00'002C        B        ??sys_mbox_fetch_3
     63            } else {
     64              if (timeouts->next->time > 0) {
   \                     ??sys_mbox_fetch_2:
   \       0x3C   0xE597'0000        LDR      R0,[R7, #+0]
   \       0x40   0xE590'0004        LDR      R0,[R0, #+4]
   \       0x44   0xE350'0000        CMP      R0,#+0
   \       0x48   0x0A00'0006        BEQ      ??sys_mbox_fetch_4
     65                time = sys_arch_mbox_fetch(mbox, msg, timeouts->next->time);
   \       0x4C   0xE597'0000        LDR      R0,[R7, #+0]
   \       0x50   0xE590'2004        LDR      R2,[R0, #+4]
   \       0x54   0xE1B0'1005        MOVS     R1,R5
   \       0x58   0xE1B0'0004        MOVS     R0,R4
   \       0x5C   0x....'....        BL       sys_arch_mbox_fetch
   \       0x60   0xE1B0'6000        MOVS     R6,R0
   \       0x64   0xEA00'0001        B        ??sys_mbox_fetch_5
     66              } else {
     67                time = SYS_ARCH_TIMEOUT;
   \                     ??sys_mbox_fetch_4:
   \       0x68   0xE3E0'0000        MVN      R0,#+0
   \       0x6C   0xE1B0'6000        MOVS     R6,R0
     68              }
     69          
     70              if (time == SYS_ARCH_TIMEOUT) {
   \                     ??sys_mbox_fetch_5:
   \       0x70   0xE376'0001        CMN      R6,#+1
   \       0x74   0x1A00'0010        BNE      ??sys_mbox_fetch_6
     71                /* If time == SYS_ARCH_TIMEOUT, a timeout occured before a message
     72             could be fetched. We should now call the timeout handler and
     73             deallocate the memory allocated for the timeout. */
     74                tmptimeout = timeouts->next;
   \       0x78   0xE597'0000        LDR      R0,[R7, #+0]
   \       0x7C   0xE1B0'8000        MOVS     R8,R0
     75                timeouts->next = tmptimeout->next;
   \       0x80   0xE598'0000        LDR      R0,[R8, #+0]
   \       0x84   0xE587'0000        STR      R0,[R7, #+0]
     76                h = tmptimeout->h;
   \       0x88   0xE598'0008        LDR      R0,[R8, #+8]
   \       0x8C   0xE1B0'9000        MOVS     R9,R0
     77                arg = tmptimeout->arg;
   \       0x90   0xE598'000C        LDR      R0,[R8, #+12]
   \       0x94   0xE1B0'A000        MOVS     R10,R0
     78                memp_free(MEMP_SYS_TIMEOUT, tmptimeout);
   \       0x98   0xE1B0'1008        MOVS     R1,R8
   \       0x9C   0xE3A0'000A        MOV      R0,#+10
   \       0xA0   0x....'....        BL       memp_free
     79                if (h != NULL) {
   \       0xA4   0xE1B0'0009        MOVS     R0,R9
   \       0xA8   0xE350'0000        CMP      R0,#+0
   \       0xAC   0x0A00'0001        BEQ      ??sys_mbox_fetch_7
     80                  LWIP_DEBUGF(SYS_DEBUG, ("smf calling h=%p(%p)\n", (void *)h, (void *)arg));
     81                	h(arg);
   \       0xB0   0xE1B0'000A        MOVS     R0,R10
   \       0xB4   0xE12F'FF39        BLX      R9
     82                }
     83          
     84                /* We try again to fetch a message from the mbox. */
     85                goto again;
   \                     ??sys_mbox_fetch_7:
   \       0xB8   0xEAFF'FFD3        B        ??sys_mbox_fetch_0
     86              } else {
     87                /* If time != SYS_ARCH_TIMEOUT, a message was received before the timeout
     88             occured. The time variable is set to the number of
     89             milliseconds we waited for the message. */
     90                if (time <= timeouts->next->time) {
   \                     ??sys_mbox_fetch_6:
   \       0xBC   0xE597'0000        LDR      R0,[R7, #+0]
   \       0xC0   0xE590'0004        LDR      R0,[R0, #+4]
   \       0xC4   0xE150'0006        CMP      R0,R6
   \       0xC8   0x3A00'0005        BCC      ??sys_mbox_fetch_8
     91            timeouts->next->time -= time;
   \       0xCC   0xE597'0000        LDR      R0,[R7, #+0]
   \       0xD0   0xE590'0004        LDR      R0,[R0, #+4]
   \       0xD4   0xE050'0006        SUBS     R0,R0,R6
   \       0xD8   0xE597'1000        LDR      R1,[R7, #+0]
   \       0xDC   0xE581'0004        STR      R0,[R1, #+4]
   \       0xE0   0xEA00'0002        B        ??sys_mbox_fetch_3
     92                } else {
     93            timeouts->next->time = 0;
   \                     ??sys_mbox_fetch_8:
   \       0xE4   0xE3A0'0000        MOV      R0,#+0
   \       0xE8   0xE597'1000        LDR      R1,[R7, #+0]
   \       0xEC   0xE581'0004        STR      R0,[R1, #+4]
     94                }
     95              }
     96          
     97            }
     98          }
   \                     ??sys_mbox_fetch_3:
   \       0xF0   0xE8BD'87F0        POP      {R4-R10,PC}      ;; return
     99          

   \                                 In section .text, align 4, keep-with-next
    100          void
    101          sys_sem_wait(sys_sem_t sem)
    102          {
   \                     sys_sem_wait:
   \        0x0   0xE92D'43F8        PUSH     {R3-R9,LR}
   \        0x4   0xE1B0'4000        MOVS     R4,R0
    103            u32_t time;
    104            struct sys_timeouts *timeouts;
    105            struct sys_timeo *tmptimeout;
    106            sys_timeout_handler h;
    107            void *arg;
    108          
    109            /*  while (sys_arch_sem_wait(sem, 1000) == 0);
    110                return;*/
    111          
    112           again:
    113          
    114            timeouts = sys_arch_timeouts();
   \                     ??sys_sem_wait_0:
   \        0x8   0x....'....        BL       sys_arch_timeouts
   \        0xC   0xE1B0'6000        MOVS     R6,R0
    115          
    116            if (!timeouts || !timeouts->next) {
   \       0x10   0xE356'0000        CMP      R6,#+0
   \       0x14   0x0A00'0002        BEQ      ??sys_sem_wait_1
   \       0x18   0xE596'0000        LDR      R0,[R6, #+0]
   \       0x1C   0xE350'0000        CMP      R0,#+0
   \       0x20   0x1A00'0003        BNE      ??sys_sem_wait_2
    117              sys_arch_sem_wait(sem, 0);
   \                     ??sys_sem_wait_1:
   \       0x24   0xE3A0'1000        MOV      R1,#+0
   \       0x28   0xE1B0'0004        MOVS     R0,R4
   \       0x2C   0x....'....        BL       sys_arch_sem_wait
   \       0x30   0xEA00'002B        B        ??sys_sem_wait_3
    118            } else {
    119              if (timeouts->next->time > 0) {
   \                     ??sys_sem_wait_2:
   \       0x34   0xE596'0000        LDR      R0,[R6, #+0]
   \       0x38   0xE590'0004        LDR      R0,[R0, #+4]
   \       0x3C   0xE350'0000        CMP      R0,#+0
   \       0x40   0x0A00'0005        BEQ      ??sys_sem_wait_4
    120                time = sys_arch_sem_wait(sem, timeouts->next->time);
   \       0x44   0xE596'0000        LDR      R0,[R6, #+0]
   \       0x48   0xE590'1004        LDR      R1,[R0, #+4]
   \       0x4C   0xE1B0'0004        MOVS     R0,R4
   \       0x50   0x....'....        BL       sys_arch_sem_wait
   \       0x54   0xE1B0'5000        MOVS     R5,R0
   \       0x58   0xEA00'0001        B        ??sys_sem_wait_5
    121              } else {
    122                time = SYS_ARCH_TIMEOUT;
   \                     ??sys_sem_wait_4:
   \       0x5C   0xE3E0'0000        MVN      R0,#+0
   \       0x60   0xE1B0'5000        MOVS     R5,R0
    123              }
    124          
    125              if (time == SYS_ARCH_TIMEOUT) {
   \                     ??sys_sem_wait_5:
   \       0x64   0xE375'0001        CMN      R5,#+1
   \       0x68   0x1A00'0010        BNE      ??sys_sem_wait_6
    126                /* If time == SYS_ARCH_TIMEOUT, a timeout occured before a message
    127             could be fetched. We should now call the timeout handler and
    128             deallocate the memory allocated for the timeout. */
    129                tmptimeout = timeouts->next;
   \       0x6C   0xE596'0000        LDR      R0,[R6, #+0]
   \       0x70   0xE1B0'7000        MOVS     R7,R0
    130                timeouts->next = tmptimeout->next;
   \       0x74   0xE597'0000        LDR      R0,[R7, #+0]
   \       0x78   0xE586'0000        STR      R0,[R6, #+0]
    131                h = tmptimeout->h;
   \       0x7C   0xE597'0008        LDR      R0,[R7, #+8]
   \       0x80   0xE1B0'8000        MOVS     R8,R0
    132                arg = tmptimeout->arg;
   \       0x84   0xE597'000C        LDR      R0,[R7, #+12]
   \       0x88   0xE1B0'9000        MOVS     R9,R0
    133                memp_free(MEMP_SYS_TIMEOUT, tmptimeout);
   \       0x8C   0xE1B0'1007        MOVS     R1,R7
   \       0x90   0xE3A0'000A        MOV      R0,#+10
   \       0x94   0x....'....        BL       memp_free
    134                if (h != NULL) {
   \       0x98   0xE1B0'0008        MOVS     R0,R8
   \       0x9C   0xE350'0000        CMP      R0,#+0
   \       0xA0   0x0A00'0001        BEQ      ??sys_sem_wait_7
    135                  LWIP_DEBUGF(SYS_DEBUG, ("ssw h=%p(%p)\n", (void *)h, (void *)arg));
    136                  h(arg);
   \       0xA4   0xE1B0'0009        MOVS     R0,R9
   \       0xA8   0xE12F'FF38        BLX      R8
    137                }
    138          
    139          
    140                /* We try again to fetch a message from the mbox. */
    141                goto again;
   \                     ??sys_sem_wait_7:
   \       0xAC   0xEAFF'FFD5        B        ??sys_sem_wait_0
    142              } else {
    143                /* If time != SYS_ARCH_TIMEOUT, a message was received before the timeout
    144             occured. The time variable is set to the number of
    145             milliseconds we waited for the message. */
    146                if (time <= timeouts->next->time) {
   \                     ??sys_sem_wait_6:
   \       0xB0   0xE596'0000        LDR      R0,[R6, #+0]
   \       0xB4   0xE590'0004        LDR      R0,[R0, #+4]
   \       0xB8   0xE150'0005        CMP      R0,R5
   \       0xBC   0x3A00'0005        BCC      ??sys_sem_wait_8
    147            timeouts->next->time -= time;
   \       0xC0   0xE596'0000        LDR      R0,[R6, #+0]
   \       0xC4   0xE590'0004        LDR      R0,[R0, #+4]
   \       0xC8   0xE050'0005        SUBS     R0,R0,R5
   \       0xCC   0xE596'1000        LDR      R1,[R6, #+0]
   \       0xD0   0xE581'0004        STR      R0,[R1, #+4]
   \       0xD4   0xEA00'0002        B        ??sys_sem_wait_3
    148                } else {
    149            timeouts->next->time = 0;
   \                     ??sys_sem_wait_8:
   \       0xD8   0xE3A0'0000        MOV      R0,#+0
   \       0xDC   0xE596'1000        LDR      R1,[R6, #+0]
   \       0xE0   0xE581'0004        STR      R0,[R1, #+4]
    150                }
    151              }
    152          
    153            }
    154          }
   \                     ??sys_sem_wait_3:
   \       0xE4   0xE8BD'83F1        POP      {R0,R4-R9,PC}    ;; return
    155          

   \                                 In section .text, align 4, keep-with-next
    156          void
    157          sys_timeout(u32_t msecs, sys_timeout_handler h, void *arg)
    158          {
   \                     sys_timeout:
   \        0x0   0xE92D'41F0        PUSH     {R4-R8,LR}
   \        0x4   0xE1B0'4000        MOVS     R4,R0
   \        0x8   0xE1B0'5001        MOVS     R5,R1
   \        0xC   0xE1B0'6002        MOVS     R6,R2
    159            struct sys_timeouts *timeouts;
    160            struct sys_timeo *timeout, *t;
    161          
    162            timeout = memp_malloc(MEMP_SYS_TIMEOUT);
   \       0x10   0xE3A0'000A        MOV      R0,#+10
   \       0x14   0x....'....        BL       memp_malloc
   \       0x18   0xE1B0'8000        MOVS     R8,R0
    163            if (timeout == NULL) {
   \       0x1C   0xE358'0000        CMP      R8,#+0
   \       0x20   0x0A00'0036        BEQ      ??sys_timeout_0
    164              return;
    165            }
    166            timeout->next = NULL;
   \                     ??sys_timeout_1:
   \       0x24   0xE3A0'0000        MOV      R0,#+0
   \       0x28   0xE588'0000        STR      R0,[R8, #+0]
    167            timeout->h = h;
   \       0x2C   0xE588'5008        STR      R5,[R8, #+8]
    168            timeout->arg = arg;
   \       0x30   0xE588'600C        STR      R6,[R8, #+12]
    169            timeout->time = msecs;
   \       0x34   0xE588'4004        STR      R4,[R8, #+4]
    170          
    171            timeouts = sys_arch_timeouts();
   \       0x38   0x....'....        BL       sys_arch_timeouts
    172          
    173            LWIP_DEBUGF(SYS_DEBUG, ("sys_timeout: %p msecs=%"U32_F" h=%p arg=%p\n",
    174              (void *)timeout, msecs, (void *)h, (void *)arg));
    175          
    176            LWIP_ASSERT("sys_timeout: timeouts != NULL", timeouts != NULL);
    177          
    178            if (timeouts->next == NULL) {
   \       0x3C   0xE590'1000        LDR      R1,[R0, #+0]
   \       0x40   0xE351'0000        CMP      R1,#+0
   \       0x44   0x1A00'0001        BNE      ??sys_timeout_2
    179              timeouts->next = timeout;
   \       0x48   0xE580'8000        STR      R8,[R0, #+0]
    180              return;
   \       0x4C   0xEA00'002B        B        ??sys_timeout_0
    181            }
    182          
    183            if (timeouts->next->time > msecs) {
   \                     ??sys_timeout_2:
   \       0x50   0xE590'1000        LDR      R1,[R0, #+0]
   \       0x54   0xE591'1004        LDR      R1,[R1, #+4]
   \       0x58   0xE154'0001        CMP      R4,R1
   \       0x5C   0x2A00'0008        BCS      ??sys_timeout_3
    184              timeouts->next->time -= msecs;
   \       0x60   0xE590'1000        LDR      R1,[R0, #+0]
   \       0x64   0xE591'1004        LDR      R1,[R1, #+4]
   \       0x68   0xE051'1004        SUBS     R1,R1,R4
   \       0x6C   0xE590'2000        LDR      R2,[R0, #+0]
   \       0x70   0xE582'1004        STR      R1,[R2, #+4]
    185              timeout->next = timeouts->next;
   \       0x74   0xE590'1000        LDR      R1,[R0, #+0]
   \       0x78   0xE588'1000        STR      R1,[R8, #+0]
    186              timeouts->next = timeout;
   \       0x7C   0xE580'8000        STR      R8,[R0, #+0]
   \       0x80   0xEA00'001E        B        ??sys_timeout_4
    187            } else {
    188              for(t = timeouts->next; t != NULL; t = t->next) {
   \                     ??sys_timeout_3:
   \       0x84   0xE590'1000        LDR      R1,[R0, #+0]
   \       0x88   0xE1B0'7001        MOVS     R7,R1
   \                     ??sys_timeout_5:
   \       0x8C   0xE357'0000        CMP      R7,#+0
   \       0x90   0x0A00'001A        BEQ      ??sys_timeout_4
    189                timeout->time -= t->time;
   \       0x94   0xE598'1004        LDR      R1,[R8, #+4]
   \       0x98   0xE597'2004        LDR      R2,[R7, #+4]
   \       0x9C   0xE051'1002        SUBS     R1,R1,R2
   \       0xA0   0xE588'1004        STR      R1,[R8, #+4]
    190                if (t->next == NULL || t->next->time > timeout->time) {
   \       0xA4   0xE597'1000        LDR      R1,[R7, #+0]
   \       0xA8   0xE351'0000        CMP      R1,#+0
   \       0xAC   0x0A00'0004        BEQ      ??sys_timeout_6
   \       0xB0   0xE598'1004        LDR      R1,[R8, #+4]
   \       0xB4   0xE597'2000        LDR      R2,[R7, #+0]
   \       0xB8   0xE592'2004        LDR      R2,[R2, #+4]
   \       0xBC   0xE151'0002        CMP      R1,R2
   \       0xC0   0x2A00'000C        BCS      ??sys_timeout_7
    191                  if (t->next != NULL) {
   \                     ??sys_timeout_6:
   \       0xC4   0xE597'1000        LDR      R1,[R7, #+0]
   \       0xC8   0xE351'0000        CMP      R1,#+0
   \       0xCC   0x0A00'0005        BEQ      ??sys_timeout_8
    192                    t->next->time -= timeout->time;
   \       0xD0   0xE597'1000        LDR      R1,[R7, #+0]
   \       0xD4   0xE591'1004        LDR      R1,[R1, #+4]
   \       0xD8   0xE598'2004        LDR      R2,[R8, #+4]
   \       0xDC   0xE051'1002        SUBS     R1,R1,R2
   \       0xE0   0xE597'2000        LDR      R2,[R7, #+0]
   \       0xE4   0xE582'1004        STR      R1,[R2, #+4]
    193                  }
    194                  timeout->next = t->next;
   \                     ??sys_timeout_8:
   \       0xE8   0xE597'1000        LDR      R1,[R7, #+0]
   \       0xEC   0xE588'1000        STR      R1,[R8, #+0]
    195                  t->next = timeout;
   \       0xF0   0xE587'8000        STR      R8,[R7, #+0]
    196                  break;
   \       0xF4   0xEA00'0001        B        ??sys_timeout_4
    197                }
    198              }
   \                     ??sys_timeout_7:
   \       0xF8   0xE597'7000        LDR      R7,[R7, #+0]
   \       0xFC   0xEAFF'FFE2        B        ??sys_timeout_5
    199            }
    200          
    201          }
   \                     ??sys_timeout_4:
   \                     ??sys_timeout_0:
   \      0x100   0xE8BD'81F0        POP      {R4-R8,PC}       ;; return
    202          
    203          /* Go through timeout list (for this task only) and remove the first matching entry,
    204             even though the timeout has not triggered yet.
    205          */
    206          

   \                                 In section .text, align 4, keep-with-next
    207          void
    208          sys_untimeout(sys_timeout_handler h, void *arg)
    209          {
   \                     sys_untimeout:
   \        0x0   0xE92D'41F0        PUSH     {R4-R8,LR}
   \        0x4   0xE1B0'4000        MOVS     R4,R0
   \        0x8   0xE1B0'5001        MOVS     R5,R1
    210              struct sys_timeouts *timeouts;
    211              struct sys_timeo *prev_t, *t;
    212          
    213              timeouts = sys_arch_timeouts();
   \        0xC   0x....'....        BL       sys_arch_timeouts
   \       0x10   0xE1B0'6000        MOVS     R6,R0
    214          
    215              if (timeouts->next == NULL)
   \       0x14   0xE596'0000        LDR      R0,[R6, #+0]
   \       0x18   0xE350'0000        CMP      R0,#+0
   \       0x1C   0x0A00'0021        BEQ      ??sys_untimeout_0
    216                  return;
    217          
    218              for (t = timeouts->next, prev_t = NULL; t != NULL; prev_t = t, t = t->next)
   \                     ??sys_untimeout_1:
   \       0x20   0xE596'7000        LDR      R7,[R6, #+0]
   \       0x24   0xE3A0'8000        MOV      R8,#+0
   \                     ??sys_untimeout_2:
   \       0x28   0xE357'0000        CMP      R7,#+0
   \       0x2C   0x0A00'001D        BEQ      ??sys_untimeout_3
    219              {
    220                  if ((t->h == h) && (t->arg == arg))
   \       0x30   0xE597'0008        LDR      R0,[R7, #+8]
   \       0x34   0xE1B0'1004        MOVS     R1,R4
   \       0x38   0xE150'0001        CMP      R0,R1
   \       0x3C   0x1A00'0016        BNE      ??sys_untimeout_4
   \       0x40   0xE597'000C        LDR      R0,[R7, #+12]
   \       0x44   0xE150'0005        CMP      R0,R5
   \       0x48   0x1A00'0013        BNE      ??sys_untimeout_4
    221                  {
    222                      /* We have a match */
    223                      /* Unlink from previous in list */
    224                      if (prev_t == NULL)
   \       0x4C   0xE358'0000        CMP      R8,#+0
   \       0x50   0x1A00'0002        BNE      ??sys_untimeout_5
    225                          timeouts->next = t->next;
   \       0x54   0xE597'0000        LDR      R0,[R7, #+0]
   \       0x58   0xE586'0000        STR      R0,[R6, #+0]
   \       0x5C   0xEA00'0001        B        ??sys_untimeout_6
    226                      else
    227                          prev_t->next = t->next;
   \                     ??sys_untimeout_5:
   \       0x60   0xE597'0000        LDR      R0,[R7, #+0]
   \       0x64   0xE588'0000        STR      R0,[R8, #+0]
    228                      /* If not the last one, add time of this one back to next */
    229                      if (t->next != NULL)
   \                     ??sys_untimeout_6:
   \       0x68   0xE597'0000        LDR      R0,[R7, #+0]
   \       0x6C   0xE350'0000        CMP      R0,#+0
   \       0x70   0x0A00'0005        BEQ      ??sys_untimeout_7
    230                          t->next->time += t->time;
   \       0x74   0xE597'0000        LDR      R0,[R7, #+0]
   \       0x78   0xE590'0004        LDR      R0,[R0, #+4]
   \       0x7C   0xE597'1004        LDR      R1,[R7, #+4]
   \       0x80   0xE091'0000        ADDS     R0,R1,R0
   \       0x84   0xE597'1000        LDR      R1,[R7, #+0]
   \       0x88   0xE581'0004        STR      R0,[R1, #+4]
    231                      memp_free(MEMP_SYS_TIMEOUT, t);
   \                     ??sys_untimeout_7:
   \       0x8C   0xE1B0'1007        MOVS     R1,R7
   \       0x90   0xE3A0'000A        MOV      R0,#+10
   \       0x94   0x....'....        BL       memp_free
    232                      return;
   \       0x98   0xEA00'0002        B        ??sys_untimeout_0
    233                  }
    234              }
   \                     ??sys_untimeout_4:
   \       0x9C   0xE1B0'8007        MOVS     R8,R7
   \       0xA0   0xE597'7000        LDR      R7,[R7, #+0]
   \       0xA4   0xEAFF'FFDF        B        ??sys_untimeout_2
    235              return;
   \                     ??sys_untimeout_3:
   \                     ??sys_untimeout_0:
   \       0xA8   0xE8BD'81F0        POP      {R4-R8,PC}       ;; return
    236          }
    237          
    238          
    239          
    240          
    241          

   \                                 In section .text, align 4, keep-with-next
    242          static void
    243          sswt_handler(void *arg)
    244          {
   \                     sswt_handler:
   \        0x0   0xE92D'4038        PUSH     {R3-R5,LR}
   \        0x4   0xE1B0'4000        MOVS     R4,R0
    245              struct sswt_cb *sswt_cb = (struct sswt_cb *) arg;
   \        0x8   0xE1B0'5004        MOVS     R5,R4
    246          
    247              /* Timeout. Set flag to TRUE and signal semaphore */
    248              sswt_cb->timeflag = 1;
   \        0xC   0xE3A0'0001        MOV      R0,#+1
   \       0x10   0xE1C5'00B0        STRH     R0,[R5, #+0]
    249              sys_sem_signal(*(sswt_cb->psem));
   \       0x14   0xE595'0004        LDR      R0,[R5, #+4]
   \       0x18   0xE590'0000        LDR      R0,[R0, #+0]
   \       0x1C   0x....'....        BL       sys_sem_signal
    250          }
   \       0x20   0xE8BD'8031        POP      {R0,R4,R5,PC}    ;; return
    251          
    252          /* Wait for a semaphore with timeout (specified in ms) */
    253          /* timeout = 0: wait forever */
    254          /* Returns 0 on timeout. 1 otherwise */
    255          

   \                                 In section .text, align 4, keep-with-next
    256          int
    257          sys_sem_wait_timeout(sys_sem_t sem, u32_t timeout)
    258          {
   \                     sys_sem_wait_timeout:
   \        0x0   0xE92D'4011        PUSH     {R0,R4,LR}
   \        0x4   0xE24D'D00C        SUB      SP,SP,#+12
   \        0x8   0xE1B0'4001        MOVS     R4,R1
    259              struct sswt_cb sswt_cb;
    260          
    261              sswt_cb.psem = &sem;
   \        0xC   0xE28D'000C        ADD      R0,SP,#+12
   \       0x10   0xE58D'0004        STR      R0,[SP, #+4]
    262              sswt_cb.timeflag = 0;
   \       0x14   0xE3A0'0000        MOV      R0,#+0
   \       0x18   0xE1CD'00B0        STRH     R0,[SP, #+0]
    263          
    264              /* If timeout is zero, then just wait forever */
    265              if (timeout > 0)
   \       0x1C   0xE354'0000        CMP      R4,#+0
   \       0x20   0x0A00'0003        BEQ      ??sys_sem_wait_timeout_0
    266                  /* Create a timer and pass it the address of our flag */
    267                  sys_timeout(timeout, sswt_handler, &sswt_cb);
   \       0x24   0xE1B0'200D        MOVS     R2,SP
   \       0x28   0x....'....        ADR      R1,sswt_handler
   \       0x2C   0xE1B0'0004        MOVS     R0,R4
   \       0x30   0x....'....        BL       sys_timeout
    268              sys_sem_wait(sem);
   \                     ??sys_sem_wait_timeout_0:
   \       0x34   0xE59D'000C        LDR      R0,[SP, #+12]
   \       0x38   0x....'....        BL       sys_sem_wait
    269              /* Was it a timeout? */
    270              if (sswt_cb.timeflag)
   \       0x3C   0xE1DD'00F0        LDRSH    R0,[SP, #+0]
   \       0x40   0xE350'0000        CMP      R0,#+0
   \       0x44   0x0A00'0001        BEQ      ??sys_sem_wait_timeout_1
    271              {
    272                  /* timeout */
    273                  return 0;
   \       0x48   0xE3A0'0000        MOV      R0,#+0
   \       0x4C   0xEA00'0003        B        ??sys_sem_wait_timeout_2
    274              } else {
    275                  /* Not a timeout. Remove timeout entry */
    276                  sys_untimeout(sswt_handler, &sswt_cb);
   \                     ??sys_sem_wait_timeout_1:
   \       0x50   0xE1B0'100D        MOVS     R1,SP
   \       0x54   0x....'....        ADR      R0,sswt_handler
   \       0x58   0x....'....        BL       sys_untimeout
    277                  return 1;
   \       0x5C   0xE3A0'0001        MOV      R0,#+1
   \                     ??sys_sem_wait_timeout_2:
   \       0x60   0xE28D'D010        ADD      SP,SP,#+16
   \       0x64   0xE8BD'8010        POP      {R4,PC}          ;; return
    278              }
    279          
    280          }
    281          
    282          

   \                                 In section .text, align 4, keep-with-next
    283          void
    284          sys_msleep(u32_t ms)
    285          {
   \                     sys_msleep:
   \        0x0   0xE92D'4038        PUSH     {R3-R5,LR}
   \        0x4   0xE1B0'4000        MOVS     R4,R0
    286            sys_sem_t delaysem = sys_sem_new(0);
   \        0x8   0xE3A0'0000        MOV      R0,#+0
   \        0xC   0x....'....        BL       sys_sem_new
   \       0x10   0xE1B0'5000        MOVS     R5,R0
    287          
    288            sys_sem_wait_timeout(delaysem, ms);
   \       0x14   0xE1B0'1004        MOVS     R1,R4
   \       0x18   0xE1B0'0005        MOVS     R0,R5
   \       0x1C   0x....'....        BL       sys_sem_wait_timeout
    289          
    290            sys_sem_free(delaysem);
   \       0x20   0xE1B0'0005        MOVS     R0,R5
   \       0x24   0x....'....        BL       sys_sem_free
    291          }
   \       0x28   0xE8BD'8031        POP      {R0,R4,R5,PC}    ;; return
    292          
    293          
    294          #endif /* NO_SYS */

   Maximum stack usage in bytes:

   .cstack Function
   ------- --------
      16   sswt_handler
        16   -> sys_sem_signal
      32   sys_mbox_fetch
        32   -- Indirect call
        32   -> memp_free
        32   -> sys_arch_mbox_fetch
        32   -> sys_arch_timeouts
      16   sys_msleep
        16   -> sys_sem_free
        16   -> sys_sem_new
        16   -> sys_sem_wait_timeout
      32   sys_sem_wait
        32   -- Indirect call
        32   -> memp_free
        32   -> sys_arch_sem_wait
        32   -> sys_arch_timeouts
      24   sys_sem_wait_timeout
        24   -> sys_sem_wait
        24   -> sys_timeout
        24   -> sys_untimeout
      24   sys_timeout
        24   -> memp_malloc
        24   -> sys_arch_timeouts
      24   sys_untimeout
        24   -> memp_free
        24   -> sys_arch_timeouts


   Section sizes:

   Bytes  Function/Label
   -----  --------------
      36  sswt_handler
     244  sys_mbox_fetch
      44  sys_msleep
     232  sys_sem_wait
     104  sys_sem_wait_timeout
     260  sys_timeout
     172  sys_untimeout

 
 1 092 bytes in section .text
 
 1 092 bytes of CODE memory

Errors: none
Warnings: none
