###############################################################################
#
# IAR ANSI C/C++ Compiler V8.30.1.114/W32 for ARM         10/Dec/2019  12:06:42
# Copyright 1999-2018 IAR Systems AB.
#
#    Cpu mode     =  arm
#    Endian       =  little
#    Source file  =  E:\armipc\lwip\api\sys_arch.c
#    Command line =  
#        -f C:\Users\Bill\AppData\Local\Temp\EW6C0C.tmp
#        (E:\armipc\lwip\api\sys_arch.c -D DDRRAM_EXEC -D MMU_ENA -lC
#        "E:\armipc\DDRRAM Debug\List" -o "E:\armipc\DDRRAM Debug\Obj" --no_cse
#        --no_unroll --no_inline --no_code_motion --no_tbaa --no_clustering
#        --no_scheduling --debug --endian=little --cpu=ARM926EJ-S -e --fpu=None
#        --dlib_config "C:\Program Files\IAR Systems\Embedded Workbench
#        8.1\arm\inc\c\DLib_Config_Normal.h" -I E:\armipc\ -I E:\armipc\board\
#        -I E:\armipc\modules\ -I E:\armipc\lwip\include\lwip\ -I
#        E:\armipc\lwip\include\arch\ -I E:\armipc\rtos\include\ -I
#        E:\armipc\lwip\include\IPV4\lwip\ -I E:\armipc\lwip\netif\ppp\
#        --cpu_mode arm -On --use_c++_inline)
#    Locale       =  C
#    List file    =  E:\armipc\DDRRAM Debug\List\sys_arch.lst
#    Object file  =  E:\armipc\DDRRAM Debug\Obj\sys_arch.o
#
###############################################################################

E:\armipc\lwip\api\sys_arch.c
      1          /*
      2           * Copyright (c) 2001-2003 Swedish Institute of Computer Science.
      3           * All rights reserved.
      4           *
      5           * Redistribution and use in source and binary forms, with or without modification,
      6           * are permitted provided that the following conditions are met:
      7           *
      8           * 1. Redistributions of source code must retain the above copyright notice,
      9           *    this list of conditions and the following disclaimer.
     10           * 2. Redistributions in binary form must reproduce the above copyright notice,
     11           *    this list of conditions and the following disclaimer in the documentation
     12           *    and/or other materials provided with the distribution.
     13           * 3. The name of the author may not be used to endorse or promote products
     14           *    derived from this software without specific prior written permission.
     15           *
     16           * THIS SOFTWARE IS PROVIDED BY THE AUTHOR ``AS IS'' AND ANY EXPRESS OR IMPLIED
     17           * WARRANTIES, INCLUDING, BUT NOT LIMITED TO, THE IMPLIED WARRANTIES OF
     18           * MERCHANTABILITY AND FITNESS FOR A PARTICULAR PURPOSE ARE DISCLAIMED. IN NO EVENT
     19           * SHALL THE AUTHOR BE LIABLE FOR ANY DIRECT, INDIRECT, INCIDENTAL, SPECIAL,
     20           * EXEMPLARY, OR CONSEQUENTIAL DAMAGES (INCLUDING, BUT NOT LIMITED TO, PROCUREMENT
     21           * OF SUBSTITUTE GOODS OR SERVICES; LOSS OF USE, DATA, OR PROFITS; OR BUSINESS
     22           * INTERRUPTION) HOWEVER CAUSED AND ON ANY THEORY OF LIABILITY, WHETHER IN
     23           * CONTRACT, STRICT LIABILITY, OR TORT (INCLUDING NEGLIGENCE OR OTHERWISE) ARISING
     24           * IN ANY WAY OUT OF THE USE OF THIS SOFTWARE, EVEN IF ADVISED OF THE POSSIBILITY
     25           * OF SUCH DAMAGE.
     26           *
     27           * This file is part of the lwIP TCP/IP stack.
     28           *
     29           * Author: Adam Dunkels <adam@sics.se>
     30           *
     31           */
     32          
     33          /* lwIP includes. */
     34          #include "../include/lwip/debug.h"
     35          #include "../include/lwip/def.h"
     36          #include "../include/lwip/sys.h"
     37          #include "../include/lwip/mem.h"
     38          
     39          #include <stdio.h>
     40          
     41          /* Message queue constants. */
     42          #define archMESG_QUEUE_LENGTH	( 6 )
     43          #define archPOST_BLOCK_TIME_MS	( ( unsigned long ) 10000 )
     44          
     45          struct timeoutlist
     46          {
     47          	struct sys_timeouts timeouts;
     48          	TaskHandle_t pid;
     49          };
     50          
     51          /* This is the number of threads that can be started with sys_thread_new() */
     52          #define SYS_THREAD_MAX 4
     53          

   \                                 In section .bss, align 4
     54          static struct timeoutlist timeoutlist[SYS_THREAD_MAX];
   \                     timeoutlist:
   \        0x0                      DS8 32

   \                                 In section .bss, align 2
     55          static u16_t nextthread = 0;
   \                     nextthread:
   \        0x0                      DS8 2

   \                                 In section .bss, align 4
     56          int intlevel = 0;
   \                     intlevel:
   \        0x0                      DS8 4
     57          

   \                                 In section .bss, align 4
     58          static sys_arch_state_t s_sys_arch_state;
   \                     s_sys_arch_state:
   \        0x0                      DS8 20
     59          
     60          /*-----------------------------------------------------------------------------------*/
     61          //  Creates an empty mailbox.

   \                                 In section .text, align 4, keep-with-next
     62          sys_mbox_t
     63          sys_mbox_new(void)
     64          {
   \                     sys_mbox_new:
   \        0x0   0xE92D'5000        PUSH     {R12,LR}
     65          	QueueHandle_t mbox;
     66          
     67          	mbox = xQueueCreate( archMESG_QUEUE_LENGTH, sizeof( void * ) );
   \        0x4   0xE3A0'2000        MOV      R2,#+0
   \        0x8   0xE3A0'1004        MOV      R1,#+4
   \        0xC   0xE3A0'0006        MOV      R0,#+6
   \       0x10   0x....'....        BL       xQueueGenericCreate
     68          
     69          	return mbox;
   \       0x14   0xE8BD'8002        POP      {R1,PC}          ;; return
     70          }
     71          
     72          /*-----------------------------------------------------------------------------------*/
     73          /*
     74            Deallocates a mailbox. If there are messages still present in the
     75            mailbox when the mailbox is deallocated, it is an indication of a
     76            programming error in lwIP and the developer should be notified.
     77          */

   \                                 In section .text, align 4, keep-with-next
     78          void
     79          sys_mbox_free(sys_mbox_t mbox)
     80          {
   \                     sys_mbox_free:
   \        0x0   0xE92D'4010        PUSH     {R4,LR}
   \        0x4   0xE1B0'4000        MOVS     R4,R0
     81          	if( uxQueueMessagesWaiting( mbox ) )
   \        0x8   0xE1B0'0004        MOVS     R0,R4
   \        0xC   0x....'....        BL       uxQueueMessagesWaiting
     82          	{
     83          		/* Line for breakpoint.  Should never break here! */
     84          //		__asm volatile ( "NOP" );
     85          	}
     86          
     87          	vQueueDelete( mbox );
   \       0x10   0xE1B0'0004        MOVS     R0,R4
   \       0x14   0x....'....        BL       vQueueDelete
     88          }
   \       0x18   0xE8BD'8010        POP      {R4,PC}          ;; return
     89          
     90          /*-----------------------------------------------------------------------------------*/
     91          //   Posts the "msg" to the mailbox.

   \                                 In section .text, align 4, keep-with-next
     92          void
     93          sys_mbox_post(sys_mbox_t mbox, void *data)
     94          {
   \                     sys_mbox_post:
   \        0x0   0xE92D'4013        PUSH     {R0,R1,R4,LR}
   \        0x4   0xE1B0'4000        MOVS     R4,R0
     95          	xQueueSend( mbox, &data, ( TickType_t ) ( archPOST_BLOCK_TIME_MS / portTICK_PERIOD_MS ) );
   \        0x8   0xE3A0'3000        MOV      R3,#+0
   \        0xC   0xE3A0'2010        MOV      R2,#+16
   \       0x10   0xE382'2D9C        ORR      R2,R2,#0x2700
   \       0x14   0xE28D'1004        ADD      R1,SP,#+4
   \       0x18   0xE1B0'0004        MOVS     R0,R4
   \       0x1C   0x....'....        BL       xQueueGenericSend
     96          }
   \       0x20   0xE8BD'8013        POP      {R0,R1,R4,PC}    ;; return
     97          
     98          
     99          /*-----------------------------------------------------------------------------------*/
    100          /*
    101            Blocks the thread until a message arrives in the mailbox, but does
    102            not block the thread longer than "timeout" milliseconds (similar to
    103            the sys_arch_sem_wait() function). The "msg" argument is a result
    104            parameter that is set by the function (i.e., by doing "*msg =
    105            ptr"). The "msg" parameter maybe NULL to indicate that the message
    106            should be dropped.
    107          
    108            The return values are the same as for the sys_arch_sem_wait() function:
    109            Number of milliseconds spent waiting or SYS_ARCH_TIMEOUT if there was a
    110            timeout.
    111          
    112            Note that a function with a similar name, sys_mbox_fetch(), is
    113            implemented by lwIP.
    114          */

   \                                 In section .text, align 4, keep-with-next
    115          u32_t sys_arch_mbox_fetch(sys_mbox_t mbox, void **msg, u32_t timeout)
    116          {
   \                     sys_arch_mbox_fetch:
   \        0x0   0xE92D'40F8        PUSH     {R3-R7,LR}
   \        0x4   0xE1B0'4000        MOVS     R4,R0
   \        0x8   0xE1B0'5001        MOVS     R5,R1
   \        0xC   0xE1B0'6002        MOVS     R6,R2
    117          void *dummyptr;
    118          TickType_t StartTime, EndTime, Elapsed;
    119          
    120          	StartTime = xTaskGetTickCount();
   \       0x10   0x....'....        BL       xTaskGetTickCount
   \       0x14   0xE1B0'7000        MOVS     R7,R0
    121          
    122          	if( msg == NULL )
   \       0x18   0xE355'0000        CMP      R5,#+0
   \       0x1C   0x1A00'0001        BNE      ??sys_arch_mbox_fetch_0
    123          	{
    124          		msg = &dummyptr;
   \       0x20   0xE1B0'000D        MOVS     R0,SP
   \       0x24   0xE1B0'5000        MOVS     R5,R0
    125          	}
    126          
    127          	if(	timeout != 0 )
   \                     ??sys_arch_mbox_fetch_0:
   \       0x28   0xE356'0000        CMP      R6,#+0
   \       0x2C   0x0A00'0012        BEQ      ??sys_arch_mbox_fetch_1
    128          	{
    129          		if(pdTRUE == xQueueReceive( mbox, &(*msg), timeout ) )
   \       0x30   0xE3A0'3000        MOV      R3,#+0
   \       0x34   0xE1B0'2006        MOVS     R2,R6
   \       0x38   0xE1B0'1005        MOVS     R1,R5
   \       0x3C   0xE1B0'0004        MOVS     R0,R4
   \       0x40   0x....'....        BL       xQueueGenericReceive
   \       0x44   0xE350'0001        CMP      R0,#+1
   \       0x48   0x1A00'0007        BNE      ??sys_arch_mbox_fetch_2
    130          		{
    131          			EndTime = xTaskGetTickCount();
   \       0x4C   0x....'....        BL       xTaskGetTickCount
   \       0x50   0xE1B0'1000        MOVS     R1,R0
    132          			Elapsed = EndTime - StartTime;
   \       0x54   0xE051'0007        SUBS     R0,R1,R7
    133          			if( Elapsed == 0 )
   \       0x58   0xE350'0000        CMP      R0,#+0
   \       0x5C   0x1A00'0001        BNE      ??sys_arch_mbox_fetch_3
    134          			{
    135          				Elapsed = 1;
   \       0x60   0xE3A0'2001        MOV      R2,#+1
   \       0x64   0xE1B0'0002        MOVS     R0,R2
    136          			}
    137          			return ( Elapsed );
   \                     ??sys_arch_mbox_fetch_3:
   \       0x68   0xEA00'0012        B        ??sys_arch_mbox_fetch_4
    138          		}
    139          		else // timed out blocking for message
    140          		{
    141          			*msg = NULL;
   \                     ??sys_arch_mbox_fetch_2:
   \       0x6C   0xE3A0'0000        MOV      R0,#+0
   \       0x70   0xE585'0000        STR      R0,[R5, #+0]
    142          			return SYS_ARCH_TIMEOUT;
   \       0x74   0xE3E0'0000        MVN      R0,#+0
   \       0x78   0xEA00'000E        B        ??sys_arch_mbox_fetch_4
    143          		}
    144          	}
    145          	else // block forever for a message.
    146          	{
    147          		while( pdTRUE != xQueueReceive( mbox, &(*msg), 10000 ) ) // time is arbitrary
   \                     ??sys_arch_mbox_fetch_1:
   \       0x7C   0xE3A0'3000        MOV      R3,#+0
   \       0x80   0xE3A0'2010        MOV      R2,#+16
   \       0x84   0xE382'2D9C        ORR      R2,R2,#0x2700
   \       0x88   0xE1B0'1005        MOVS     R1,R5
   \       0x8C   0xE1B0'0004        MOVS     R0,R4
   \       0x90   0x....'....        BL       xQueueGenericReceive
   \       0x94   0xE350'0001        CMP      R0,#+1
   \       0x98   0x1AFF'FFF7        BNE      ??sys_arch_mbox_fetch_1
    148          		{
    149          			;
    150          		}
    151          		EndTime = xTaskGetTickCount();
   \       0x9C   0x....'....        BL       xTaskGetTickCount
   \       0xA0   0xE1B0'1000        MOVS     R1,R0
    152          		Elapsed = EndTime - StartTime;
   \       0xA4   0xE051'0007        SUBS     R0,R1,R7
    153          		if( Elapsed == 0 )
   \       0xA8   0xE350'0000        CMP      R0,#+0
   \       0xAC   0x1A00'0001        BNE      ??sys_arch_mbox_fetch_5
    154          		{
    155          			Elapsed = 1;
   \       0xB0   0xE3A0'2001        MOV      R2,#+1
   \       0xB4   0xE1B0'0002        MOVS     R0,R2
    156          		}
    157          		return ( Elapsed ); // return time blocked TBD test
   \                     ??sys_arch_mbox_fetch_5:
   \                     ??sys_arch_mbox_fetch_4:
   \       0xB8   0xE8BD'80F2        POP      {R1,R4-R7,PC}    ;; return
    158          	}
    159          }
    160          
    161          /*-----------------------------------------------------------------------------------*/
    162          //  Creates and returns a new semaphore. The "count" argument specifies
    163          //  the initial state of the semaphore. TBD finish and test

   \                                 In section .text, align 4, keep-with-next
    164          sys_sem_t
    165          sys_sem_new(u8_t count)
    166          {
   \                     sys_sem_new:
   \        0x0   0xE92D'4038        PUSH     {R3-R5,LR}
   \        0x4   0xE1B0'4000        MOVS     R4,R0
    167          	SemaphoreHandle_t  xSemaphore;
    168          
    169          	portENTER_CRITICAL();
   \        0x8   0x....'....        BL       vPortEnterCritical
    170          	vSemaphoreCreateBinary( xSemaphore );
   \        0xC   0xE3A0'2003        MOV      R2,#+3
   \       0x10   0xE3A0'1000        MOV      R1,#+0
   \       0x14   0xE3A0'0001        MOV      R0,#+1
   \       0x18   0x....'....        BL       xQueueGenericCreate
   \       0x1C   0xE1B0'5000        MOVS     R5,R0
   \       0x20   0xE355'0000        CMP      R5,#+0
   \       0x24   0x0A00'0004        BEQ      ??sys_sem_new_0
   \       0x28   0xE3A0'3000        MOV      R3,#+0
   \       0x2C   0xE3A0'2000        MOV      R2,#+0
   \       0x30   0xE3A0'1000        MOV      R1,#+0
   \       0x34   0xE1B0'0005        MOVS     R0,R5
   \       0x38   0x....'....        BL       xQueueGenericSend
    171          	if(count == 0)	// Means it can't be taken
   \                     ??sys_sem_new_0:
   \       0x3C   0xE1B0'0004        MOVS     R0,R4
   \       0x40   0xE210'00FF        ANDS     R0,R0,#0xFF      ;; Zero extend
   \       0x44   0xE350'0000        CMP      R0,#+0
   \       0x48   0x1A00'0004        BNE      ??sys_sem_new_1
    172          	{
    173          		xSemaphoreTake(xSemaphore,1);
   \       0x4C   0xE3A0'3000        MOV      R3,#+0
   \       0x50   0xE3A0'2001        MOV      R2,#+1
   \       0x54   0xE3A0'1000        MOV      R1,#+0
   \       0x58   0xE1B0'0005        MOVS     R0,R5
   \       0x5C   0x....'....        BL       xQueueGenericReceive
    174          	}
    175          	portEXIT_CRITICAL();
   \                     ??sys_sem_new_1:
   \       0x60   0x....'....        BL       vPortExitCritical
    176          
    177          	if( xSemaphore == NULL )
   \       0x64   0xE355'0000        CMP      R5,#+0
   \       0x68   0x1A00'0001        BNE      ??sys_sem_new_2
    178          	{
    179          		return NULL;	// TBD need assert
   \       0x6C   0xE3A0'0000        MOV      R0,#+0
   \       0x70   0xEA00'0000        B        ??sys_sem_new_3
    180          	}
    181          	else
    182          	{
    183          		return xSemaphore;
   \                     ??sys_sem_new_2:
   \       0x74   0xE1B0'0005        MOVS     R0,R5
   \                     ??sys_sem_new_3:
   \       0x78   0xE8BD'8032        POP      {R1,R4,R5,PC}    ;; return
    184          	}
    185          }
    186          
    187          /*-----------------------------------------------------------------------------------*/
    188          /*
    189            Blocks the thread while waiting for the semaphore to be
    190            signaled. If the "timeout" argument is non-zero, the thread should
    191            only be blocked for the specified time (measured in
    192            milliseconds).
    193          
    194            If the timeout argument is non-zero, the return value is the number of
    195            milliseconds spent waiting for the semaphore to be signaled. If the
    196            semaphore wasn't signaled within the specified time, the return value is
    197            SYS_ARCH_TIMEOUT. If the thread didn't have to wait for the semaphore
    198            (i.e., it was already signaled), the function may return zero.
    199          
    200            Notice that lwIP implements a function with a similar name,
    201            sys_sem_wait(), that uses the sys_arch_sem_wait() function.
    202          */

   \                                 In section .text, align 4, keep-with-next
    203          u32_t
    204          sys_arch_sem_wait(sys_sem_t sem, u32_t timeout)
    205          {
   \                     sys_arch_sem_wait:
   \        0x0   0xE92D'4070        PUSH     {R4-R6,LR}
   \        0x4   0xE1B0'4000        MOVS     R4,R0
   \        0x8   0xE1B0'5001        MOVS     R5,R1
    206          TickType_t StartTime, EndTime, Elapsed;
    207          
    208          	StartTime = xTaskGetTickCount();
   \        0xC   0x....'....        BL       xTaskGetTickCount
   \       0x10   0xE1B0'6000        MOVS     R6,R0
    209          
    210          	if(	timeout != 0)
   \       0x14   0xE355'0000        CMP      R5,#+0
   \       0x18   0x0A00'0010        BEQ      ??sys_arch_sem_wait_0
    211          	{
    212          		if( xSemaphoreTake( sem, timeout ) == pdTRUE )
   \       0x1C   0xE3A0'3000        MOV      R3,#+0
   \       0x20   0xE1B0'2005        MOVS     R2,R5
   \       0x24   0xE3A0'1000        MOV      R1,#+0
   \       0x28   0xE1B0'0004        MOVS     R0,R4
   \       0x2C   0x....'....        BL       xQueueGenericReceive
   \       0x30   0xE350'0001        CMP      R0,#+1
   \       0x34   0x1A00'0007        BNE      ??sys_arch_sem_wait_1
    213          		{
    214          			EndTime = xTaskGetTickCount();
   \       0x38   0x....'....        BL       xTaskGetTickCount
   \       0x3C   0xE1B0'1000        MOVS     R1,R0
    215          			Elapsed = EndTime - StartTime;
   \       0x40   0xE051'0006        SUBS     R0,R1,R6
    216          			if( Elapsed == 0 )
   \       0x44   0xE350'0000        CMP      R0,#+0
   \       0x48   0x1A00'0001        BNE      ??sys_arch_sem_wait_2
    217          			{
    218          				Elapsed = 1;
   \       0x4C   0xE3A0'2001        MOV      R2,#+1
   \       0x50   0xE1B0'0002        MOVS     R0,R2
    219          			}
    220          			return (Elapsed); // return time blocked TBD test
   \                     ??sys_arch_sem_wait_2:
   \       0x54   0xEA00'0010        B        ??sys_arch_sem_wait_3
    221          		}
    222          		else
    223          		{
    224          			return SYS_ARCH_TIMEOUT;
   \                     ??sys_arch_sem_wait_1:
   \       0x58   0xE3E0'0000        MVN      R0,#+0
   \       0x5C   0xEA00'000E        B        ??sys_arch_sem_wait_3
    225          		}
    226          	}
    227          	else // must block without a timeout
    228          	{
    229          		while( xSemaphoreTake( sem, 10000 ) != pdTRUE )
   \                     ??sys_arch_sem_wait_0:
   \       0x60   0xE3A0'3000        MOV      R3,#+0
   \       0x64   0xE3A0'2010        MOV      R2,#+16
   \       0x68   0xE382'2D9C        ORR      R2,R2,#0x2700
   \       0x6C   0xE3A0'1000        MOV      R1,#+0
   \       0x70   0xE1B0'0004        MOVS     R0,R4
   \       0x74   0x....'....        BL       xQueueGenericReceive
   \       0x78   0xE350'0001        CMP      R0,#+1
   \       0x7C   0x1AFF'FFF7        BNE      ??sys_arch_sem_wait_0
    230          		{
    231          			;
    232          		}
    233          		EndTime = xTaskGetTickCount();
   \       0x80   0x....'....        BL       xTaskGetTickCount
   \       0x84   0xE1B0'1000        MOVS     R1,R0
    234          		Elapsed = EndTime - StartTime;
   \       0x88   0xE051'0006        SUBS     R0,R1,R6
    235          		if( Elapsed == 0 )
   \       0x8C   0xE350'0000        CMP      R0,#+0
   \       0x90   0x1A00'0001        BNE      ??sys_arch_sem_wait_4
    236          		{
    237          			Elapsed = 1;
   \       0x94   0xE3A0'2001        MOV      R2,#+1
   \       0x98   0xE1B0'0002        MOVS     R0,R2
    238          		}
    239          
    240          		return ( Elapsed ); // return time blocked
   \                     ??sys_arch_sem_wait_4:
   \                     ??sys_arch_sem_wait_3:
   \       0x9C   0xE8BD'8070        POP      {R4-R6,PC}       ;; return
    241          
    242          	}
    243          }
    244          
    245          /*-----------------------------------------------------------------------------------*/
    246          // Signals a semaphore

   \                                 In section .text, align 4, keep-with-next
    247          void
    248          sys_sem_signal(sys_sem_t sem)
    249          {
   \                     sys_sem_signal:
   \        0x0   0xE92D'4010        PUSH     {R4,LR}
   \        0x4   0xE1B0'4000        MOVS     R4,R0
    250          	xSemaphoreGive( sem );
   \        0x8   0xE3A0'3000        MOV      R3,#+0
   \        0xC   0xE3A0'2000        MOV      R2,#+0
   \       0x10   0xE3A0'1000        MOV      R1,#+0
   \       0x14   0xE1B0'0004        MOVS     R0,R4
   \       0x18   0x....'....        BL       xQueueGenericSend
    251          }
   \       0x1C   0xE8BD'8010        POP      {R4,PC}          ;; return
    252          
    253          /*-----------------------------------------------------------------------------------*/
    254          // Deallocates a semaphore

   \                                 In section .text, align 4, keep-with-next
    255          void
    256          sys_sem_free(sys_sem_t sem)
    257          {
   \                     sys_sem_free:
   \        0x0   0xE92D'4010        PUSH     {R4,LR}
   \        0x4   0xE1B0'4000        MOVS     R4,R0
    258          	vQueueDelete( sem );
   \        0x8   0xE1B0'0004        MOVS     R0,R4
   \        0xC   0x....'....        BL       vQueueDelete
    259          }
   \       0x10   0xE8BD'8010        POP      {R4,PC}          ;; return
    260          
    261          /*-----------------------------------------------------------------------------------*/
    262          // Initialize sys arch

   \                                 In section .text, align 4, keep-with-next
    263          void
    264          sys_init(void)
    265          {
   \                     sys_init:
   \        0x0   0xE92D'4010        PUSH     {R4,LR}
    266          
    267          	int i;
    268          
    269          	// Initialize the the per-thread sys_timeouts structures
    270          	// make sure there are no valid pids in the list
    271          	for(i = 0; i < SYS_THREAD_MAX; i++)
   \        0x4   0xE3A0'4000        MOV      R4,#+0
   \                     ??sys_init_0:
   \        0x8   0xE354'0004        CMP      R4,#+4
   \        0xC   0xAA00'0006        BGE      ??sys_init_1
    272          	{
    273          		timeoutlist[i].pid = 0;
   \       0x10   0xE3A0'0000        MOV      R0,#+0
   \       0x14   0x....'....        LDR      R1,??DataTable5_1
   \       0x18   0xE1B0'2184        LSLS     R2,R4,#+3
   \       0x1C   0xE091'1002        ADDS     R1,R1,R2
   \       0x20   0xE581'0004        STR      R0,[R1, #+4]
    274          	}
   \       0x24   0xE294'4001        ADDS     R4,R4,#+1
   \       0x28   0xEAFF'FFF6        B        ??sys_init_0
    275          
    276          	// keep track of how many threads have been created
    277          	nextthread = 0;
   \                     ??sys_init_1:
   \       0x2C   0xE3A0'0000        MOV      R0,#+0
   \       0x30   0x....'....        LDR      R1,??DataTable5_2
   \       0x34   0xE1C1'00B0        STRH     R0,[R1, #+0]
    278          
    279          	s_sys_arch_state.nTaskCount = 0;
   \       0x38   0x....'....        LDR      R1,??DataTable5_3
   \       0x3C   0xE1C1'01B2        STRH     R0,[R1, #+18]
    280          	sys_set_default_state();
   \       0x40   0x....'....        BL       sys_set_default_state
    281          }
   \       0x44   0xE8BD'8010        POP      {R4,PC}          ;; return
    282          
    283          /*-----------------------------------------------------------------------------------*/
    284          /*
    285            Returns a pointer to the per-thread sys_timeouts structure. In lwIP,
    286            each thread has a list of timeouts which is represented as a linked
    287            list of sys_timeout structures. The sys_timeouts structure holds a
    288            pointer to a linked list of timeouts. This function is called by
    289            the lwIP timeout scheduler and must not return a NULL value.
    290          
    291            In a single threaded sys_arch implementation, this function will
    292            simply return a pointer to a global sys_timeouts variable stored in
    293            the sys_arch module.
    294          */

   \                                 In section .text, align 4, keep-with-next
    295          struct sys_timeouts *
    296          sys_arch_timeouts(void)
    297          {
   \                     sys_arch_timeouts:
   \        0x0   0xE92D'4010        PUSH     {R4,LR}
    298          int i;
    299          TaskHandle_t pid;
    300          struct timeoutlist *tl;
    301          
    302          	pid = xTaskGetCurrentTaskHandle( );
   \        0x4   0x....'....        BL       xTaskGetCurrentTaskHandle
   \        0x8   0xE1B0'2000        MOVS     R2,R0
    303          
    304          	for(i = 0; i < nextthread; i++)
   \        0xC   0xE3A0'1000        MOV      R1,#+0
   \                     ??sys_arch_timeouts_0:
   \       0x10   0x....'....        LDR      R0,??DataTable5_2
   \       0x14   0xE1D0'00B0        LDRH     R0,[R0, #+0]
   \       0x18   0xE151'0000        CMP      R1,R0
   \       0x1C   0xAA00'000A        BGE      ??sys_arch_timeouts_1
    305          	{
    306          		tl = &timeoutlist[i];
   \       0x20   0x....'....        LDR      R0,??DataTable5_1
   \       0x24   0xE1B0'3181        LSLS     R3,R1,#+3
   \       0x28   0xE090'0003        ADDS     R0,R0,R3
   \       0x2C   0xE1B0'4000        MOVS     R4,R0
    307          		if(tl->pid == pid)
   \       0x30   0xE594'0004        LDR      R0,[R4, #+4]
   \       0x34   0xE150'0002        CMP      R0,R2
   \       0x38   0x1A00'0001        BNE      ??sys_arch_timeouts_2
    308          		{
    309          			return &(tl->timeouts);
   \       0x3C   0xE1B0'0004        MOVS     R0,R4
   \       0x40   0xEA00'0002        B        ??sys_arch_timeouts_3
    310          		}
    311          	}
   \                     ??sys_arch_timeouts_2:
   \       0x44   0xE291'1001        ADDS     R1,R1,#+1
   \       0x48   0xEAFF'FFF0        B        ??sys_arch_timeouts_0
    312          
    313          	// Error
    314          	return NULL;
   \                     ??sys_arch_timeouts_1:
   \       0x4C   0xE3A0'0000        MOV      R0,#+0
   \                     ??sys_arch_timeouts_3:
   \       0x50   0xE8BD'8010        POP      {R4,PC}          ;; return
    315          }
    316          
    317          /*-----------------------------------------------------------------------------------*/
    318          /*-----------------------------------------------------------------------------------*/
    319          // TBD
    320          /*-----------------------------------------------------------------------------------*/
    321          /*
    322            Starts a new thread with priority "prio" that will begin its execution in the
    323            function "thread()". The "arg" argument will be passed as an argument to the
    324            thread() function. The id of the new thread is returned. Both the id and
    325            the priority are system dependent.
    326          */

   \                                 In section .text, align 4, keep-with-next
    327          sys_thread_t sys_thread_new(void (* thread)(void *arg), void *arg, int prio)
    328          {
   \                     sys_thread_new:
   \        0x0   0xE92D'40FE        PUSH     {R1-R7,LR}
   \        0x4   0xE1B0'4000        MOVS     R4,R0
   \        0x8   0xE1B0'5001        MOVS     R5,R1
   \        0xC   0xE1B0'6002        MOVS     R6,R2
    329          TaskHandle_t CreatedTask;
    330          int result;
    331          
    332          	result = xTaskCreate(thread, s_sys_arch_state.cTaskName, s_sys_arch_state.nStackDepth, arg, prio, &CreatedTask );
   \       0x10   0x....'....        LDR      R7,??DataTable5_3
   \       0x14   0xE28D'0008        ADD      R0,SP,#+8
   \       0x18   0xE58D'0004        STR      R0,[SP, #+4]
   \       0x1C   0xE58D'6000        STR      R6,[SP, #+0]
   \       0x20   0xE1B0'3005        MOVS     R3,R5
   \       0x24   0xE1D7'21B0        LDRH     R2,[R7, #+16]
   \       0x28   0xE1B0'1007        MOVS     R1,R7
   \       0x2C   0xE1B0'0004        MOVS     R0,R4
   \       0x30   0x....'....        BL       xTaskCreate
   \       0x34   0xE1B0'1000        MOVS     R1,R0
    333          
    334          	// For each task created, store the task handle (pid) in the timers array.
    335          	// This scheme doesn't allow for threads to be deleted
    336          	timeoutlist[nextthread++].pid = CreatedTask;
   \       0x38   0x....'....        LDR      R0,??DataTable5_2
   \       0x3C   0xE59D'2008        LDR      R2,[SP, #+8]
   \       0x40   0x....'....        LDR      R3,??DataTable5_1
   \       0x44   0xE1D0'C0B0        LDRH     R12,[R0, #+0]
   \       0x48   0xE1B0'C18C        LSLS     R12,R12,#+3
   \       0x4C   0xE093'300C        ADDS     R3,R3,R12
   \       0x50   0xE583'2004        STR      R2,[R3, #+4]
   \       0x54   0xE1D0'20B0        LDRH     R2,[R0, #+0]
   \       0x58   0xE292'2001        ADDS     R2,R2,#+1
   \       0x5C   0xE1C0'20B0        STRH     R2,[R0, #+0]
    337          
    338          	if(result == pdPASS)
   \       0x60   0xE351'0001        CMP      R1,#+1
   \       0x64   0x1A00'0004        BNE      ??sys_thread_new_0
    339          	{
    340          		++s_sys_arch_state.nTaskCount;
   \       0x68   0xE1D7'01B2        LDRH     R0,[R7, #+18]
   \       0x6C   0xE290'0001        ADDS     R0,R0,#+1
   \       0x70   0xE1C7'01B2        STRH     R0,[R7, #+18]
    341          
    342          		return CreatedTask;
   \       0x74   0xE59D'0008        LDR      R0,[SP, #+8]
   \       0x78   0xEA00'0000        B        ??sys_thread_new_1
    343          	}
    344          	else
    345          	{
    346          		return NULL;
   \                     ??sys_thread_new_0:
   \       0x7C   0xE3A0'0000        MOV      R0,#+0
   \                     ??sys_thread_new_1:
   \       0x80   0xE8BD'80FE        POP      {R1-R7,PC}       ;; return
    347          	}
    348          }
    349          
    350          /*
    351            This optional function does a "fast" critical region protection and returns
    352            the previous protection level. This function is only called during very short
    353            critical regions. An embedded system which supports ISR-based drivers might
    354            want to implement this function by disabling interrupts. Task-based systems
    355            might want to implement this by using a mutex or disabling tasking. This
    356            function should support recursive calls from the same task or interrupt. In
    357            other words, sys_arch_protect() could be called while already protected. In
    358            that case the return value indicates that it is already protected.
    359          
    360            sys_arch_protect() is only required if your port is supporting an operating
    361            system.
    362          */

   \                                 In section .text, align 4, keep-with-next
    363          sys_prot_t sys_arch_protect(void)
    364          {
   \                     sys_arch_protect:
   \        0x0   0xE92D'5000        PUSH     {R12,LR}
    365          	vPortEnterCritical();
   \        0x4   0x....'....        BL       vPortEnterCritical
    366          	return 1;
   \        0x8   0xE3A0'0001        MOV      R0,#+1
   \        0xC   0xE8BD'8002        POP      {R1,PC}          ;; return
    367          }
    368          
    369          /*
    370            This optional function does a "fast" set of critical region protection to the
    371            value specified by pval. See the documentation for sys_arch_protect() for
    372            more information. This function is only required if your port is supporting
    373            an operating system.
    374          */

   \                                 In section .text, align 4, keep-with-next
    375          void sys_arch_unprotect(sys_prot_t pval)
    376          {
   \                     sys_arch_unprotect:
   \        0x0   0xE92D'4010        PUSH     {R4,LR}
   \        0x4   0xE1B0'4000        MOVS     R4,R0
    377          	( void ) pval;
    378          	vPortExitCritical();
   \        0x8   0x....'....        BL       vPortExitCritical
    379          }
   \        0xC   0xE8BD'8010        POP      {R4,PC}          ;; return
    380          

   \                                 In section .text, align 4, keep-with-next
    381          void sys_set_default_state()
    382          {
   \                     sys_set_default_state:
   \        0x0   0xE92D'5000        PUSH     {R12,LR}
    383          	s_sys_arch_state.nStackDepth = configMINIMAL_STACK_SIZE;
   \        0x4   0x....'....        LDR      R0,??DataTable5_3
   \        0x8   0xE3A0'1F80        MOV      R1,#+512
   \        0xC   0xE1C0'11B0        STRH     R1,[R0, #+16]
    384          	sprintf(s_sys_arch_state.cTaskName, "thread%d", s_sys_arch_state.nTaskCount);
   \       0x10   0xE1D0'21B2        LDRH     R2,[R0, #+18]
   \       0x14   0x....'....        LDR      R1,??DataTable5_4
   \       0x18   0x....'....        BL       sprintf
    385          }
   \       0x1C   0xE8BD'8001        POP      {R0,PC}          ;; return
    386          

   \                                 In section .text, align 4, keep-with-next
    387          void sys_set_state(signed char *pTaskName, unsigned short nStackSize)
    388          {
   \                     sys_set_state:
   \        0x0   0xE92D'4038        PUSH     {R3-R5,LR}
   \        0x4   0xE1B0'4000        MOVS     R4,R0
   \        0x8   0xE1B0'5001        MOVS     R5,R1
    389          	s_sys_arch_state.nStackDepth = nStackSize;
   \        0xC   0x....'....        LDR      R0,??DataTable5_3
   \       0x10   0xE1C0'51B0        STRH     R5,[R0, #+16]
    390          	sprintf(s_sys_arch_state.cTaskName, "%s", pTaskName);
   \       0x14   0xE1B0'2004        MOVS     R2,R4
   \       0x18   0x....'....        ADR      R1,??DataTable5  ;; 0x25, 0x73, 0x00, 0x00
   \       0x1C   0x....'....        BL       sprintf
    391          }
   \       0x20   0xE8BD'8031        POP      {R0,R4,R5,PC}    ;; return

   \                                 In section .text, align 4, keep-with-next
   \                     ??DataTable5:
   \        0x0   0x25 0x73          DC8      0x25, 0x73, 0x00, 0x00
   \              0x00 0x00    

   \                                 In section .text, align 4, keep-with-next
   \                     ??DataTable5_1:
   \        0x0   0x....'....        DC32     timeoutlist

   \                                 In section .text, align 4, keep-with-next
   \                     ??DataTable5_2:
   \        0x0   0x....'....        DC32     nextthread

   \                                 In section .text, align 4, keep-with-next
   \                     ??DataTable5_3:
   \        0x0   0x....'....        DC32     s_sys_arch_state

   \                                 In section .text, align 4, keep-with-next
   \                     ??DataTable5_4:
   \        0x0   0x....'....        DC32     ?_0

   \                                 In section .rodata, align 4
   \                     ?_0:
   \        0x0   0x74 0x68          DC8 "thread%d"
   \              0x72 0x65    
   \              0x61 0x64    
   \              0x25 0x64    
   \              0x00         
   \        0x9   0x00 0x00          DC8 0, 0, 0
   \              0x00         

   \                                 In section .rodata, align 4
   \        0x0   0x25 0x73          DC8 "%s"
   \              0x00         
   \        0x3   0x00               DC8 0

   Maximum stack usage in bytes:

   .cstack Function
   ------- --------
      24   sys_arch_mbox_fetch
        24   -> xQueueGenericReceive
        24   -> xTaskGetTickCount
       8   sys_arch_protect
         8   -> vPortEnterCritical
      16   sys_arch_sem_wait
        16   -> xQueueGenericReceive
        16   -> xTaskGetTickCount
       8   sys_arch_timeouts
         8   -> xTaskGetCurrentTaskHandle
       8   sys_arch_unprotect
         8   -> vPortExitCritical
       8   sys_init
         8   -> sys_set_default_state
       8   sys_mbox_free
         8   -> uxQueueMessagesWaiting
         8   -> vQueueDelete
       8   sys_mbox_new
         8   -> xQueueGenericCreate
      16   sys_mbox_post
        16   -> xQueueGenericSend
       8   sys_sem_free
         8   -> vQueueDelete
      16   sys_sem_new
        16   -> vPortEnterCritical
        16   -> vPortExitCritical
        16   -> xQueueGenericCreate
        16   -> xQueueGenericReceive
        16   -> xQueueGenericSend
       8   sys_sem_signal
         8   -> xQueueGenericSend
       8   sys_set_default_state
         8   -> sprintf
      16   sys_set_state
        16   -> sprintf
      32   sys_thread_new
        32   -> xTaskCreate


   Section sizes:

   Bytes  Function/Label
   -----  --------------
       4  ??DataTable5
       4  ??DataTable5_1
       4  ??DataTable5_2
       4  ??DataTable5_3
       4  ??DataTable5_4
      12  ?_0
       4  ?_1
       4  intlevel
       2  nextthread
      20  s_sys_arch_state
     188  sys_arch_mbox_fetch
      16  sys_arch_protect
     160  sys_arch_sem_wait
      84  sys_arch_timeouts
      16  sys_arch_unprotect
      72  sys_init
      28  sys_mbox_free
      24  sys_mbox_new
      36  sys_mbox_post
      20  sys_sem_free
     124  sys_sem_new
      32  sys_sem_signal
      32  sys_set_default_state
      36  sys_set_state
     132  sys_thread_new
      32  timeoutlist

 
    58 bytes in section .bss
    16 bytes in section .rodata
 1 020 bytes in section .text
 
 1 020 bytes of CODE  memory
    16 bytes of CONST memory
    58 bytes of DATA  memory

Errors: none
Warnings: none
