###############################################################################
#
# IAR ANSI C/C++ Compiler V8.30.1.114/W32 for ARM         10/Dec/2019  12:06:44
# Copyright 1999-2018 IAR Systems AB.
#
#    Cpu mode     =  arm
#    Endian       =  little
#    Source file  =  E:\armipc\rtos\drivers\uart.c
#    Command line =  
#        -f C:\Users\Bill\AppData\Local\Temp\EW7115.tmp
#        (E:\armipc\rtos\drivers\uart.c -D DDRRAM_EXEC -D MMU_ENA -lC
#        "E:\armipc\DDRRAM Debug\List" -o "E:\armipc\DDRRAM Debug\Obj" --no_cse
#        --no_unroll --no_inline --no_code_motion --no_tbaa --no_clustering
#        --no_scheduling --debug --endian=little --cpu=ARM926EJ-S -e --fpu=None
#        --dlib_config "C:\Program Files\IAR Systems\Embedded Workbench
#        8.1\arm\inc\c\DLib_Config_Normal.h" -I E:\armipc\ -I E:\armipc\board\
#        -I E:\armipc\modules\ -I E:\armipc\lwip\include\lwip\ -I
#        E:\armipc\lwip\include\arch\ -I E:\armipc\rtos\include\ -I
#        E:\armipc\lwip\include\IPV4\lwip\ -I E:\armipc\lwip\netif\ppp\
#        --cpu_mode arm -On --use_c++_inline)
#    Locale       =  C
#    List file    =  E:\armipc\DDRRAM Debug\List\uart.lst
#    Object file  =  E:\armipc\DDRRAM Debug\Obj\uart.o
#
###############################################################################

E:\armipc\rtos\drivers\uart.c
      1          /*
      2          Copyright 2013, Jernej Kovacic
      3          
      4          Licensed under the Apache License, Version 2.0 (the "License");
      5          you may not use this file except in compliance with the License.
      6          You may obtain a copy of the License at
      7          
      8          http://www.apache.org/licenses/LICENSE-2.0
      9          
     10          Unless required by applicable law or agreed to in writing, software
     11          distributed under the License is distributed on an "AS IS" BASIS,
     12          WITHOUT WARRANTIES OR CONDITIONS OF ANY KIND, either express or implied.
     13          See the License for the specific language governing permissions and
     14          limitations under the License.
     15          */
     16          
     17          
     18          /**
     19           * @file
     20           *
     21           * Implementation of the board's UART functionality.
     22           * All 3 UARTs are supported.
     23           *
     24           * More info about the board and the UART controller:
     25           * - Versatile Application Baseboard for ARM926EJ-S, HBI 0118 (DUI0225D):
     26           *   http://infocenter.arm.com/help/topic/com.arm.doc.dui0225d/DUI0225D_versatile_application_baseboard_arm926ej_s_ug.pdf
     27           * - PrimeCell UART (PL011) Technical Reference Manual (DDI0183):
     28           *   http://infocenter.arm.com/help/topic/com.arm.doc.ddi0183f/DDI0183.pdf
     29           *
     30           * @author Jernej Kovacic
     31           */
     32          
     33          #include <stdint.h>
     34          #include <stddef.h>
     35          #include <stdbool.h>
     36          
     37          #include "regutil.h"
     38          #include "include/bsp.h"
     39          
     40          
     41          /*
     42           * Bit masks for the Control Register (UARTCR).
     43           *
     44           * For a detailed description of each control register's bit, see page 3-15 of DDI0183:
     45           *
     46           *   0: UARTEN (enable bit):  0 disabled; 1 enabled
     47           *   1: SIREN
     48           *   2: SIRLP (IrDA SIR low power mode)
     49           * 3-6: reserved (do not modify)
     50           *   7: LBE (loopback enabled)
     51           *   8: TXE (transmit enable): 0 disabled; 1 enabled
     52           *   9: RXE (receive enable): 0 disabled; 1 enabled
     53           *  10: DTR (data transmit ready)
     54           *  11: RTS (request to send)
     55           *  12: Out1
     56           *  13: Out2
     57           *  14: RTSEn (RTS hardware flow control enable)
     58           *  15: CTSEn (CTS hardware flow control enable)
     59           *  16-31: reserved (do not modify)
     60           */
     61          #define CTL_UARTEN     ( 0x00000001 )
     62          #define CTL_SIREN      ( 0x00000002 )
     63          #define CTL_SIRLP      ( 0x00000004 )
     64          #define CTL_LBE        ( 0x00000080 )
     65          #define CTL_TXE        ( 0x00000100 )
     66          #define CTL_RXE        ( 0x00000200 )
     67          #define CTL_DTR        ( 0x00000400 )
     68          #define CTL_RTS        ( 0x00000800 )
     69          #define CTL_OUT1       ( 0x00001000 )
     70          #define CTL_OUT2       ( 0x00002000 )
     71          #define CTL_RTSEn      ( 0x00004000 )
     72          #define CTL_CTSEn      ( 0x00008000 )
     73          
     74          
     75          /*
     76           * Bit masks for the IMSC (Interrupt Mask Set/Clear) register.
     77           *
     78           * For a detailed description of each IMSC's bit, see page 3-18 of DDI0183:
     79           *    0: nUARTRI modem interrupt mask
     80           *    1: nUARTCTS modem interrupt mask
     81           *    2: nUARTDCD modem interrupt mask
     82           *    3: nUARTDSR modem interrupt mask
     83           *    4: Receive interrupt mask
     84           *    5: Transmit interrupt mask
     85           *    6: Receive timeout interrupt mask
     86           *    7: Framing error interrupt mask
     87           *    8: Parity error interrupt mask
     88           *    9: Break error interrupt mask
     89           *   10: Overrun error interrupt mask
     90           * 11-31: reserved, do not modify
     91           */
     92          #define INT_RIMIM      ( 0x00000001 )
     93          #define INT_CTSMIM     ( 0x00000002 )
     94          #define INT_DCDMIM     ( 0x00000004 )
     95          #define INT_DSRMIM     ( 0x00000008 )
     96          #define INT_RXIM       ( 0x00000010 )
     97          #define INT_TXIM       ( 0x00000020 )
     98          #define INT_RTIM       ( 0x00000040 )
     99          #define INT_FEIM       ( 0x00000080 )
    100          #define INT_PEIM       ( 0x00000100 )
    101          #define INT_BEIM       ( 0x00000200 )
    102          #define INT_OEIM       ( 0x00000400 )
    103          
    104          
    105          /*
    106           * Bitmasks for the Flag Register.
    107           *
    108           * For a detailed description of each flag register's bit, see page 3-8 of the DDI0183.
    109           *   0: Clear to send. This bit is the complement of the UART clear to send (nUARTCTS) modem status input.
    110           *   1: Data set ready. This bit is the complement of the UART data set ready (nUARTDSR) modem status input.
    111           *   2: Data carrier detect. This bit is the complement of the UART data carrier detect (nUARTDCD) modem status input.
    112           *   3: UART busy.
    113           *   4: Receive FIFO empty. The meaning of this bit depends on the state of the FEN bit in the UARTLCR_H register.
    114           *   5: Transmit FIFO full. The meaning of this bit depends on the state of the FEN bit in the UARTLCR_H register.
    115           *   6: Receive FIFO full. The meaning of this bit depends on the state of the FEN bit in the UARTLCR_H register.
    116           *   7: Transmit FIFO empty. The meaning of this bit depends on the state of the FEN bit in the UARTLCR_H register.
    117           *   8: Ring indicator. This bit is the complement of the UART ring indicator (nUARTRI) modem status input.
    118           * 9-31: reserved, do not modify
    119           */
    120          #define FR_CTS         ( 0x00000001 )
    121          #define FR_DSR         ( 0x00000002 )
    122          #define FR_DCD         ( 0x00000004 )
    123          #define FR_BUSY        ( 0x00000008 )
    124          #define FR_RXFE        ( 0x00000010 )
    125          #define FR_TXFF        ( 0x00000020 )
    126          #define FR_RXFF        ( 0x00000040 )
    127          #define FR_TXFE        ( 0x00000080 )
    128          #define FR_RI          ( 0x00000100 )
    129          
    130          
    131          /*
    132           * 32-bit Registers of individual UART controllers,
    133           * relative to the controller's base address:
    134           * See page 3-3 of DDI0183.
    135           *
    136           * Note: all registers are 32-bit words, however all registers only use the least
    137           * significant 16 bits (or even less). DDI0183 does not explicitly mention, how
    138           * the remaining bits should be handled, therefore they will be treated as
    139           * "should not be modified".
    140           */
    141          typedef struct _ARM926EJS_UART_REGS
    142          {
    143              uint32_t UARTDR;                   /* UART Data Register, UARTDR */
    144              uint32_t UARTRSR;                  /* Receive Status Register, Error Clear Register, UARTRSR/UARTECR */
    145              const uint32_t Reserved1[4];       /* reserved, should not be modified */
    146              const uint32_t UARTFR;             /* Flag Register, UARTFR, read only */
    147              const uint32_t Reserved2;          /* reserved, should not be modified */
    148              uint32_t UARTILPR;                 /* IrDA Low-Power Counter Register, UARTILPR */
    149              uint32_t UARTIBRD;                 /* Integer Baud Rate Register, UARTIBRD */
    150              uint32_t UARTFBRD;                 /* Fractional Baud Rate Register, UARTFBRD */
    151              uint32_t UARTLC_H;                 /* Line Control Register, UARTLC_H */
    152              uint32_t UARTCR;                   /* Control Register, UARTCR */
    153              uint32_t UARTIFLS;                 /* Interrupt FIFO Level Select Register, UARTIFLS */
    154              uint32_t UARTIMSC;                 /* Interrupt Mask Set/Clear Register, UARTIMSC */
    155              const uint32_t UARTRIS;            /* Raw Interrupt Status Register, UARTRIS, read only */
    156              const uint32_t UARTMIS;            /* Mask Interrupt Status Register, UARTMIS, read only */
    157              uint32_t UARTICR;                  /* Interrupt Clear Register */
    158              uint32_t UARTDMACR;                /* DMA Control Register, UARTDMACR */
    159              const uint32_t Reserved3[13];      /* reserved, should not be modified */
    160              const uint32_t ReservedTest[4];    /* reserved for test purposes, should not be modified */
    161              const uint32_t Reserved4[976];     /* reserved, should not be modified */
    162              const uint32_t ReservedIdExp[4];   /* reserved for future ID expansion, should not be modified */
    163              const uint32_t UARTPeriphID[4];    /* UART peripheral ID, read only */
    164              const uint32_t UARTCellID[4];      /* UART Cell ID, read only */
    165          } ARM926EJS_UART_REGS;
    166          
    167          /* Shared UART register: */
    168          #define UARTECR       UARTRSR
    169          
    170          
    171          #define CAST_ADDR(ADDR)    (ARM926EJS_UART_REGS*) (ADDR),
    172          

   \                                 In section .rodata, align 4
    173          static volatile ARM926EJS_UART_REGS* const  pReg[BSP_NR_UARTS]=
   \                     pReg:
   \        0x0   0x101F'1000        DC32 101F1000H, 101F2000H, 101F3000H
   \              0x101F'2000  
   \              0x101F'3000  
    174                                   {
    175                                       BSP_UART_BASE_ADDRESSES(CAST_ADDR)
    176                                   };
    177          
    178          #undef CAST_ADDR
    179          
    180          
    181          /**
    182           * Initializes a UART controller.
    183           * It is enabled for transmission (Tx) only, receive must be enabled separately.
    184           * By default all IRQ sources are disabled (masked out).
    185           *
    186           * Nothing is done if 'nr' is invalid (equal or greater than 3).
    187           *
    188           * @param nr - number of the UART (between 0 and 2)
    189           */

   \                                 In section .text, align 4, keep-with-next
    190          void uart_init(uint8_t nr)
    191          {
    192              /* Sanity check */
    193              if ( nr >= BSP_NR_UARTS )
   \                     uart_init:
   \        0x0   0xE1B0'1000        MOVS     R1,R0
   \        0x4   0xE211'10FF        ANDS     R1,R1,#0xFF      ;; Zero extend
   \        0x8   0xE351'0003        CMP      R1,#+3
   \        0xC   0xAA00'004F        BGE      ??uart_init_0
    194              {
    195                  return;
    196              }
    197          
    198              /*
    199               * Registers' reserved bits should not be modified.
    200               * For that reason, the registers are set in two steps:
    201               * - the appropriate bit masks of 1-bits are bitwise or'ed to the register
    202               * - zero complements of the appropriate bit masks of 0-bits are bitwise and'ed to the register
    203               */
    204          
    205          
    206              /*
    207               * Whatever the current state, as suggested on page 3-16 of the DDI0183, the UART
    208               * should be disabled first:
    209               */
    210              HWREG_CLEAR_BITS( pReg[nr]->UARTCR, CTL_UARTEN );
   \                     ??uart_init_1:
   \       0x10   0x....'....        LDR      R1,??DataTable9
   \       0x14   0xE1B0'2000        MOVS     R2,R0
   \       0x18   0xE212'20FF        ANDS     R2,R2,#0xFF      ;; Zero extend
   \       0x1C   0xE1B0'2102        LSLS     R2,R2,#+2
   \       0x20   0xE791'2002        LDR      R2,[R1, +R2]
   \       0x24   0xE592'2030        LDR      R2,[R2, #+48]
   \       0x28   0xE3D2'2001        BICS     R2,R2,#0x1
   \       0x2C   0xE1B0'3000        MOVS     R3,R0
   \       0x30   0xE213'30FF        ANDS     R3,R3,#0xFF      ;; Zero extend
   \       0x34   0xE1B0'3103        LSLS     R3,R3,#+2
   \       0x38   0xE791'3003        LDR      R3,[R1, +R3]
   \       0x3C   0xE583'2030        STR      R2,[R3, #+48]
    211          
    212              /* Set Control Register's TXE to 1: */
    213              HWREG_SET_BITS( pReg[nr]->UARTCR, CTL_TXE );
   \       0x40   0xE1B0'2000        MOVS     R2,R0
   \       0x44   0xE212'20FF        ANDS     R2,R2,#0xFF      ;; Zero extend
   \       0x48   0xE1B0'2102        LSLS     R2,R2,#+2
   \       0x4C   0xE791'2002        LDR      R2,[R1, +R2]
   \       0x50   0xE592'2030        LDR      R2,[R2, #+48]
   \       0x54   0xE392'2F40        ORRS     R2,R2,#0x100
   \       0x58   0xE1B0'3000        MOVS     R3,R0
   \       0x5C   0xE213'30FF        ANDS     R3,R3,#0xFF      ;; Zero extend
   \       0x60   0xE1B0'3103        LSLS     R3,R3,#+2
   \       0x64   0xE791'3003        LDR      R3,[R1, +R3]
   \       0x68   0xE583'2030        STR      R2,[R3, #+48]
    214          
    215              /*
    216               * Set all other bits (except UARTEN) of the Control Register to 0:
    217               * - SIREN
    218               * - SIRLP
    219               * - LBE
    220               * - RXE
    221               * - DTR
    222               * - RTS
    223               * - Out1
    224               * - Out2
    225               * - RTSEn
    226               * - CTSEn
    227               */
    228              HWREG_CLEAR_BITS( pReg[nr]->UARTCR, (CTL_SIREN | CTL_SIRLP | CTL_LBE | CTL_RXE | CTL_DTR) );
   \       0x6C   0xE1B0'2000        MOVS     R2,R0
   \       0x70   0xE212'20FF        ANDS     R2,R2,#0xFF      ;; Zero extend
   \       0x74   0xE1B0'2102        LSLS     R2,R2,#+2
   \       0x78   0xE791'2002        LDR      R2,[R1, +R2]
   \       0x7C   0xE592'2030        LDR      R2,[R2, #+48]
   \       0x80   0xE3E0'3086        MVN      R3,#+134
   \       0x84   0xE3C3'3E60        BIC      R3,R3,#0x600
   \       0x88   0xE013'2002        ANDS     R2,R3,R2
   \       0x8C   0xE1B0'3000        MOVS     R3,R0
   \       0x90   0xE213'30FF        ANDS     R3,R3,#0xFF      ;; Zero extend
   \       0x94   0xE1B0'3103        LSLS     R3,R3,#+2
   \       0x98   0xE791'3003        LDR      R3,[R1, +R3]
   \       0x9C   0xE583'2030        STR      R2,[R3, #+48]
    229              HWREG_CLEAR_BITS( pReg[nr]->UARTCR, ( CTL_RTS | CTL_OUT1 | CTL_OUT2 | CTL_RTSEn | CTL_CTSEn ) );
   \       0xA0   0xE1B0'2000        MOVS     R2,R0
   \       0xA4   0xE212'20FF        ANDS     R2,R2,#0xFF      ;; Zero extend
   \       0xA8   0xE1B0'2102        LSLS     R2,R2,#+2
   \       0xAC   0xE791'2002        LDR      R2,[R1, +R2]
   \       0xB0   0xE592'2030        LDR      R2,[R2, #+48]
   \       0xB4   0xE3D2'2CF8        BICS     R2,R2,#0xF800
   \       0xB8   0xE1B0'3000        MOVS     R3,R0
   \       0xBC   0xE213'30FF        ANDS     R3,R3,#0xFF      ;; Zero extend
   \       0xC0   0xE1B0'3103        LSLS     R3,R3,#+2
   \       0xC4   0xE791'3003        LDR      R3,[R1, +R3]
   \       0xC8   0xE583'2030        STR      R2,[R3, #+48]
    230          
    231          
    232              /* By default, all interrupts are masked out (i.e. cleared to 0): */
    233              HWREG_CLEAR_BITS( pReg[nr]->UARTIMSC, ( INT_RIMIM | INT_CTSMIM | INT_DCDMIM | INT_DSRMIM | INT_RXIM | INT_TXIM ) );
   \       0xCC   0xE1B0'2000        MOVS     R2,R0
   \       0xD0   0xE212'20FF        ANDS     R2,R2,#0xFF      ;; Zero extend
   \       0xD4   0xE1B0'2102        LSLS     R2,R2,#+2
   \       0xD8   0xE791'2002        LDR      R2,[R1, +R2]
   \       0xDC   0xE592'2038        LDR      R2,[R2, #+56]
   \       0xE0   0xE3D2'203F        BICS     R2,R2,#0x3F
   \       0xE4   0xE1B0'3000        MOVS     R3,R0
   \       0xE8   0xE213'30FF        ANDS     R3,R3,#0xFF      ;; Zero extend
   \       0xEC   0xE1B0'3103        LSLS     R3,R3,#+2
   \       0xF0   0xE791'3003        LDR      R3,[R1, +R3]
   \       0xF4   0xE583'2038        STR      R2,[R3, #+56]
    234              HWREG_CLEAR_BITS( pReg[nr]->UARTIMSC, ( INT_RTIM | INT_FEIM | INT_PEIM | INT_BEIM | INT_OEIM ) );
   \       0xF8   0xE1B0'2000        MOVS     R2,R0
   \       0xFC   0xE212'20FF        ANDS     R2,R2,#0xFF      ;; Zero extend
   \      0x100   0xE1B0'2102        LSLS     R2,R2,#+2
   \      0x104   0xE791'2002        LDR      R2,[R1, +R2]
   \      0x108   0xE592'2038        LDR      R2,[R2, #+56]
   \      0x10C   0xE3D2'2E7C        BICS     R2,R2,#0x7C0
   \      0x110   0xE1B0'3000        MOVS     R3,R0
   \      0x114   0xE213'30FF        ANDS     R3,R3,#0xFF      ;; Zero extend
   \      0x118   0xE1B0'3103        LSLS     R3,R3,#+2
   \      0x11C   0xE791'3003        LDR      R3,[R1, +R3]
   \      0x120   0xE583'2038        STR      R2,[R3, #+56]
    235          
    236              /* TODO: line control... */
    237          
    238              /* Finally enable the UART: */
    239              HWREG_SET_BITS( pReg[nr]->UARTCR, CTL_UARTEN );
   \      0x124   0xE1B0'2000        MOVS     R2,R0
   \      0x128   0xE212'20FF        ANDS     R2,R2,#0xFF      ;; Zero extend
   \      0x12C   0xE1B0'2102        LSLS     R2,R2,#+2
   \      0x130   0xE791'2002        LDR      R2,[R1, +R2]
   \      0x134   0xE592'2030        LDR      R2,[R2, #+48]
   \      0x138   0xE392'2001        ORRS     R2,R2,#0x1
   \      0x13C   0xE1B0'3000        MOVS     R3,R0
   \      0x140   0xE213'30FF        ANDS     R3,R3,#0xFF      ;; Zero extend
   \      0x144   0xE1B0'3103        LSLS     R3,R3,#+2
   \      0x148   0xE791'1003        LDR      R1,[R1, +R3]
   \      0x14C   0xE581'2030        STR      R2,[R1, #+48]
    240          
    241              /* reserved bits remained unmodified */
    242          }
   \                     ??uart_init_0:
   \      0x150   0xE12F'FF1E        BX       LR               ;; return
    243          
    244          
    245          /*
    246           * Outputs a character to the specified UART. This short function is used by other functions,
    247           * that is why it is implemented as an inline function.
    248           *
    249           * As the function is "private", it trusts its caller functions, that 'nr'
    250           * is valid (between 0 and 2).
    251           *
    252           * @param nr - number of the UART (between 0 and 2)
    253           * @param ch - character to be sent to the UART
    254           */

   \                                 In section .text, align 4, keep-with-next
    255          static inline void __printCh(uint8_t nr, char ch)
    256          {
    257             /*
    258              * Qemu ignores other UART's registers, anyway the Flag Register is checked
    259              * to better emulate a "real" UART controller.
    260              * See description of the register on page 3-8 of DDI0183 for more details.
    261              */
    262          
    263             /*
    264              * Poll the Flag Register's TXFF bit until the Transmit FIFO is not full.
    265              * When the TXFF bit is set to 1, the controller's internal Transmit FIFO is full.
    266              * In this case, wait until some "waiting" characters have been transmitted and
    267              * the TXFF is set to 0, indicating the Transmit FIFO can accept additional characters.
    268              */
    269             while ( 0 != HWREG_READ_BITS( pReg[nr]->UARTFR, FR_TXFF ) );
   \                     __printCh:
   \                     ??__printCh_0:
   \        0x0   0x....'....        LDR      R2,??DataTable9
   \        0x4   0xE1B0'3000        MOVS     R3,R0
   \        0x8   0xE213'30FF        ANDS     R3,R3,#0xFF      ;; Zero extend
   \        0xC   0xE1B0'3103        LSLS     R3,R3,#+2
   \       0x10   0xE792'3003        LDR      R3,[R2, +R3]
   \       0x14   0xE593'3018        LDR      R3,[R3, #+24]
   \       0x18   0xE313'0020        TST      R3,#0x20
   \       0x1C   0x1AFF'FFF7        BNE      ??__printCh_0
    270          
    271             /*
    272              * The Data Register is a 32-bit word, however only the least significant 8 bits
    273              * can be assigned the character to be sent, while other bits represent various flags
    274              * and should not be set to 0. For that reason, the following trick is introduced:
    275              *
    276              * Casting the Data Register's address to char* effectively turns the word into an array
    277              * of (four) 8-bit characters. Now, dereferencing the first character of this array affects
    278              * only the desired character itself, not the whole word.
    279              */
    280          
    281              *( (char*) &(pReg[nr]->UARTDR) ) = ch;
   \       0x20   0xE1B0'3000        MOVS     R3,R0
   \       0x24   0xE213'30FF        ANDS     R3,R3,#0xFF      ;; Zero extend
   \       0x28   0xE1B0'3103        LSLS     R3,R3,#+2
   \       0x2C   0xE792'2003        LDR      R2,[R2, +R3]
   \       0x30   0xE5C2'1000        STRB     R1,[R2, #+0]
    282          }
   \       0x34   0xE12F'FF1E        BX       LR               ;; return
    283          
    284          
    285          /**
    286           * Outputs a character to the specified UART.
    287           *
    288           * Nothing is done if 'nr' is invalid (equal or greater than 3).
    289           *
    290           * @param nr - number of the UART (between 0 and 2)
    291           * @param ch - character to be sent to the UART
    292           */

   \                                 In section .text, align 4, keep-with-next
    293          void uart_printChar(uint8_t nr, char ch)
    294          {
   \                     uart_printChar:
   \        0x0   0xE92D'4038        PUSH     {R3-R5,LR}
   \        0x4   0xE1B0'4000        MOVS     R4,R0
   \        0x8   0xE1B0'5001        MOVS     R5,R1
    295              /* Sanity check */
    296              if ( nr >= BSP_NR_UARTS )
   \        0xC   0xE1B0'0004        MOVS     R0,R4
   \       0x10   0xE210'00FF        ANDS     R0,R0,#0xFF      ;; Zero extend
   \       0x14   0xE350'0003        CMP      R0,#+3
   \       0x18   0xAA00'0004        BGE      ??uart_printChar_0
    297              {
    298                  return;
    299              }
    300          
    301              /* just use the provided inline function: */
    302              __printCh(nr, ch);
   \                     ??uart_printChar_1:
   \       0x1C   0xE1B0'1005        MOVS     R1,R5
   \       0x20   0xE211'10FF        ANDS     R1,R1,#0xFF      ;; Zero extend
   \       0x24   0xE1B0'0004        MOVS     R0,R4
   \       0x28   0xE210'00FF        ANDS     R0,R0,#0xFF      ;; Zero extend
   \       0x2C   0x....'....        BL       __printCh
    303          }
   \                     ??uart_printChar_0:
   \       0x30   0xE8BD'8031        POP      {R0,R4,R5,PC}    ;; return
    304          
    305          
    306          /**
    307           * Outputs a string to the specified UART.
    308           *
    309           * "<NULL>" is transmitted if 'str' is equal to NULL.
    310           *
    311           * Nothing is done if 'nr' is invalid (equal or greater than 3).
    312           *
    313           * @param nr - number of the UART (between 0 and 2)
    314           * @param str - string to be sent to the UART, must be '\0' terminated.
    315           */

   \                                 In section .text, align 4, keep-with-next
    316          void uart_print(uint8_t nr, const char* str)
    317          {
   \                     uart_print:
   \        0x0   0xE92D'40F8        PUSH     {R3-R7,LR}
   \        0x4   0xE1B0'4000        MOVS     R4,R0
   \        0x8   0xE1B0'5001        MOVS     R5,R1
    318              /*
    319                if NULL is passed, avoid possible problems with dereferencing of NULL
    320                and print this string:
    321               */
    322              const char* null_str = "<NULL>\r\n";
   \        0xC   0x....'....        LDR      R6,??DataTable9_1
    323              const char* cp;
    324          
    325              /* Sanity check */
    326              if ( nr >= BSP_NR_UARTS )
   \       0x10   0xE1B0'0004        MOVS     R0,R4
   \       0x14   0xE210'00FF        ANDS     R0,R0,#0xFF      ;; Zero extend
   \       0x18   0xE350'0003        CMP      R0,#+3
   \       0x1C   0xAA00'000D        BGE      ??uart_print_0
    327              {
    328                  return;
    329              }
    330          
    331              /* handle possible NULL value of str: */
    332              cp = ( NULL==str ? null_str : (char*) str );
   \                     ??uart_print_1:
   \       0x20   0xE355'0000        CMP      R5,#+0
   \       0x24   0x1A00'0001        BNE      ??uart_print_2
   \       0x28   0xE1B0'7006        MOVS     R7,R6
   \       0x2C   0xEA00'0000        B        ??uart_print_3
   \                     ??uart_print_2:
   \       0x30   0xE1B0'7005        MOVS     R7,R5
    333          
    334              /*
    335               * Just print each character until a zero terminator is detected
    336               */
    337              for ( ; '\0' != *cp; ++cp )
   \                     ??uart_print_3:
   \       0x34   0xE5D7'0000        LDRB     R0,[R7, #+0]
   \       0x38   0xE350'0000        CMP      R0,#+0
   \       0x3C   0x0A00'0005        BEQ      ??uart_print_4
    338              {
    339                  __printCh(nr, *cp);
   \       0x40   0xE5D7'1000        LDRB     R1,[R7, #+0]
   \       0x44   0xE1B0'0004        MOVS     R0,R4
   \       0x48   0xE210'00FF        ANDS     R0,R0,#0xFF      ;; Zero extend
   \       0x4C   0x....'....        BL       __printCh
    340              }
   \       0x50   0xE297'7001        ADDS     R7,R7,#+1
   \       0x54   0xEAFF'FFF6        B        ??uart_print_3
    341          }
   \                     ??uart_print_4:
   \                     ??uart_print_0:
   \       0x58   0xE8BD'80F1        POP      {R0,R4-R7,PC}    ;; return
    342          
    343          
    344          /**
    345           * Enables the specified UART controller.
    346           *
    347           * Nothing is done if 'nr' is invalid (equal or greater than 3).
    348           *
    349           * @param nr - number of the UART (between 0 and 2)
    350           */

   \                                 In section .text, align 4, keep-with-next
    351          void uart_enableUart(uint8_t nr)
    352          {
    353              /* Sanity check */
    354              if ( nr >= BSP_NR_UARTS )
   \                     uart_enableUart:
   \        0x0   0xE1B0'1000        MOVS     R1,R0
   \        0x4   0xE211'10FF        ANDS     R1,R1,#0xFF      ;; Zero extend
   \        0x8   0xE351'0003        CMP      R1,#+3
   \        0xC   0xAA00'000B        BGE      ??uart_enableUart_0
    355              {
    356                  return;
    357              }
    358          
    359              HWREG_SET_BITS( pReg[nr]->UARTCR, CTL_UARTEN );
   \                     ??uart_enableUart_1:
   \       0x10   0x....'....        LDR      R1,??DataTable9
   \       0x14   0xE1B0'2000        MOVS     R2,R0
   \       0x18   0xE212'20FF        ANDS     R2,R2,#0xFF      ;; Zero extend
   \       0x1C   0xE1B0'2102        LSLS     R2,R2,#+2
   \       0x20   0xE791'2002        LDR      R2,[R1, +R2]
   \       0x24   0xE592'2030        LDR      R2,[R2, #+48]
   \       0x28   0xE392'2001        ORRS     R2,R2,#0x1
   \       0x2C   0xE1B0'3000        MOVS     R3,R0
   \       0x30   0xE213'30FF        ANDS     R3,R3,#0xFF      ;; Zero extend
   \       0x34   0xE1B0'3103        LSLS     R3,R3,#+2
   \       0x38   0xE791'1003        LDR      R1,[R1, +R3]
   \       0x3C   0xE581'2030        STR      R2,[R1, #+48]
    360          }
   \                     ??uart_enableUart_0:
   \       0x40   0xE12F'FF1E        BX       LR               ;; return
    361          
    362          
    363          /**
    364           * Disables the specified UART controller.
    365           *
    366           * Nothing is done if 'nr' is invalid (equal or greater than 3).
    367           *
    368           * @param nr - number of the UART (between 0 and 2)
    369           */

   \                                 In section .text, align 4, keep-with-next
    370          void uart_disableUart(uint8_t nr)
    371          {
    372              /* Sanity check */
    373              if ( nr >= BSP_NR_UARTS )
   \                     uart_disableUart:
   \        0x0   0xE1B0'1000        MOVS     R1,R0
   \        0x4   0xE211'10FF        ANDS     R1,R1,#0xFF      ;; Zero extend
   \        0x8   0xE351'0003        CMP      R1,#+3
   \        0xC   0xAA00'000B        BGE      ??uart_disableUart_0
    374              {
    375                  return;
    376              }
    377          
    378              HWREG_CLEAR_BITS( pReg[nr]->UARTCR, CTL_UARTEN );
   \                     ??uart_disableUart_1:
   \       0x10   0x....'....        LDR      R1,??DataTable9
   \       0x14   0xE1B0'2000        MOVS     R2,R0
   \       0x18   0xE212'20FF        ANDS     R2,R2,#0xFF      ;; Zero extend
   \       0x1C   0xE1B0'2102        LSLS     R2,R2,#+2
   \       0x20   0xE791'2002        LDR      R2,[R1, +R2]
   \       0x24   0xE592'2030        LDR      R2,[R2, #+48]
   \       0x28   0xE3D2'2001        BICS     R2,R2,#0x1
   \       0x2C   0xE1B0'3000        MOVS     R3,R0
   \       0x30   0xE213'30FF        ANDS     R3,R3,#0xFF      ;; Zero extend
   \       0x34   0xE1B0'3103        LSLS     R3,R3,#+2
   \       0x38   0xE791'1003        LDR      R1,[R1, +R3]
   \       0x3C   0xE581'2030        STR      R2,[R1, #+48]
    379          }
   \                     ??uart_disableUart_0:
   \       0x40   0xE12F'FF1E        BX       LR               ;; return
    380          
    381          
    382          /*
    383           * Sets or clears a bit of the Control Register. This function is short and
    384           * used by other functions, this is why it is implemented as an inline function.
    385           *
    386           * Nothing is done if 'nr' is invalid (equal or greater than 3).
    387           *
    388           * @param nr - number of the UART (between 0 and 2)
    389           * @param set - true: bitmask's bit(s) are set to 1;  false: bits are cleared to 0
    390           * @param bitmask - bitmask of 1-bits that will be set or cleared
    391           */

   \                                 In section .text, align 4, keep-with-next
    392          static inline void __setCrBit(uint8_t nr, bool set, uint32_t bitmask)
    393          {
   \                     __setCrBit:
   \        0x0   0xE92D'4010        PUSH     {R4,LR}
    394              uint32_t enabled;
    395          
    396              /* Sanity check */
    397              if ( nr >= BSP_NR_UARTS )
   \        0x4   0xE1B0'3000        MOVS     R3,R0
   \        0x8   0xE213'30FF        ANDS     R3,R3,#0xFF      ;; Zero extend
   \        0xC   0xE353'0003        CMP      R3,#+3
   \       0x10   0xAA00'0039        BGE      ??__setCrBit_0
    398              {
    399                  return;
    400              }
    401          
    402              /* Store UART's enable status (UARTEN) */
    403              enabled = HWREG_READ_BITS( pReg[nr]->UARTCR, CTL_UARTEN );
   \                     ??__setCrBit_1:
   \       0x14   0x....'....        LDR      R3,??DataTable9
   \       0x18   0xE1B0'C000        MOVS     R12,R0
   \       0x1C   0xE21C'C0FF        ANDS     R12,R12,#0xFF    ;; Zero extend
   \       0x20   0xE1B0'C10C        LSLS     R12,R12,#+2
   \       0x24   0xE793'C00C        LDR      R12,[R3, +R12]
   \       0x28   0xE59C'C030        LDR      R12,[R12, #+48]
   \       0x2C   0xE21C'C001        ANDS     R12,R12,#0x1
    404          
    405              /*
    406               * As suggested on page 3-16 of the DDI0183, the UART should be disabled
    407               * prior to any modification of the Control Register
    408               */
    409              HWREG_CLEAR_BITS( pReg[nr]->UARTCR, CTL_UARTEN );
   \       0x30   0xE1B0'E000        MOVS     LR,R0
   \       0x34   0xE21E'E0FF        ANDS     LR,LR,#0xFF      ;; Zero extend
   \       0x38   0xE1B0'E10E        LSLS     LR,LR,#+2
   \       0x3C   0xE793'E00E        LDR      LR,[R3, +LR]
   \       0x40   0xE59E'E030        LDR      LR,[LR, #+48]
   \       0x44   0xE3DE'E001        BICS     LR,LR,#0x1
   \       0x48   0xE1B0'4000        MOVS     R4,R0
   \       0x4C   0xE214'40FF        ANDS     R4,R4,#0xFF      ;; Zero extend
   \       0x50   0xE1B0'4104        LSLS     R4,R4,#+2
   \       0x54   0xE793'4004        LDR      R4,[R3, +R4]
   \       0x58   0xE584'E030        STR      LR,[R4, #+48]
    410          
    411              /* Depending on 'set'... */
    412              if (set)
   \       0x5C   0xE1B0'E001        MOVS     LR,R1
   \       0x60   0xE21E'E0FF        ANDS     LR,LR,#0xFF      ;; Zero extend
   \       0x64   0xE35E'0000        CMP      LR,#+0
   \       0x68   0x0A00'000B        BEQ      ??__setCrBit_2
    413              {
    414                  /* Set bitmask's bits to 1 using bitwise OR */
    415                  HWREG_SET_BITS( pReg[nr]->UARTCR, bitmask );
   \       0x6C   0xE1B0'E000        MOVS     LR,R0
   \       0x70   0xE21E'E0FF        ANDS     LR,LR,#0xFF      ;; Zero extend
   \       0x74   0xE1B0'E10E        LSLS     LR,LR,#+2
   \       0x78   0xE793'E00E        LDR      LR,[R3, +LR]
   \       0x7C   0xE59E'E030        LDR      LR,[LR, #+48]
   \       0x80   0xE192'E00E        ORRS     LR,R2,LR
   \       0x84   0xE1B0'4000        MOVS     R4,R0
   \       0x88   0xE214'40FF        ANDS     R4,R4,#0xFF      ;; Zero extend
   \       0x8C   0xE1B0'4104        LSLS     R4,R4,#+2
   \       0x90   0xE793'4004        LDR      R4,[R3, +R4]
   \       0x94   0xE584'E030        STR      LR,[R4, #+48]
   \       0x98   0xEA00'000A        B        ??__setCrBit_3
    416              }
    417              else
    418              {
    419                  /* Clear bitmask's bits to 0 using bitwise AND */
    420                  HWREG_CLEAR_BITS( pReg[nr]->UARTCR, bitmask );
   \                     ??__setCrBit_2:
   \       0x9C   0xE1B0'E000        MOVS     LR,R0
   \       0xA0   0xE21E'E0FF        ANDS     LR,LR,#0xFF      ;; Zero extend
   \       0xA4   0xE1B0'E10E        LSLS     LR,LR,#+2
   \       0xA8   0xE793'E00E        LDR      LR,[R3, +LR]
   \       0xAC   0xE59E'E030        LDR      LR,[LR, #+48]
   \       0xB0   0xE1DE'E002        BICS     LR,LR,R2
   \       0xB4   0xE1B0'4000        MOVS     R4,R0
   \       0xB8   0xE214'40FF        ANDS     R4,R4,#0xFF      ;; Zero extend
   \       0xBC   0xE1B0'4104        LSLS     R4,R4,#+2
   \       0xC0   0xE793'4004        LDR      R4,[R3, +R4]
   \       0xC4   0xE584'E030        STR      LR,[R4, #+48]
    421              }
    422          
    423              /* Reenable the UART if it was been enabled before */
    424              if (enabled)
   \                     ??__setCrBit_3:
   \       0xC8   0xE35C'0000        CMP      R12,#+0
   \       0xCC   0x0A00'000A        BEQ      ??__setCrBit_4
    425              {
    426                  HWREG_SET_BITS( pReg[nr]->UARTCR, CTL_UARTEN );
   \       0xD0   0xE1B0'E000        MOVS     LR,R0
   \       0xD4   0xE21E'E0FF        ANDS     LR,LR,#0xFF      ;; Zero extend
   \       0xD8   0xE1B0'E10E        LSLS     LR,LR,#+2
   \       0xDC   0xE793'E00E        LDR      LR,[R3, +LR]
   \       0xE0   0xE59E'E030        LDR      LR,[LR, #+48]
   \       0xE4   0xE39E'E001        ORRS     LR,LR,#0x1
   \       0xE8   0xE1B0'4000        MOVS     R4,R0
   \       0xEC   0xE214'40FF        ANDS     R4,R4,#0xFF      ;; Zero extend
   \       0xF0   0xE1B0'4104        LSLS     R4,R4,#+2
   \       0xF4   0xE793'3004        LDR      R3,[R3, +R4]
   \       0xF8   0xE583'E030        STR      LR,[R3, #+48]
    427              }
    428          }
   \                     ??__setCrBit_4:
   \                     ??__setCrBit_0:
   \       0xFC   0xE8BD'8010        POP      {R4,PC}          ;; return
    429          
    430          
    431          /**
    432           * Enables specified UART's transmit (Tx) section.
    433           * UART's general enable status (UARTEN) remains unmodified.
    434           *
    435           * Nothing is done if 'nr' is invalid (equal or greater than 3).
    436           *
    437           * @param nr - number of the UART (between 0 and 2)
    438           */

   \                                 In section .text, align 4, keep-with-next
    439          void uart_enableTx(uint8_t nr)
    440          {
   \                     uart_enableTx:
   \        0x0   0xE92D'4010        PUSH     {R4,LR}
   \        0x4   0xE1B0'4000        MOVS     R4,R0
    441              __setCrBit(nr, true, CTL_TXE);
   \        0x8   0xE3A0'2F40        MOV      R2,#+256
   \        0xC   0xE3A0'1001        MOV      R1,#+1
   \       0x10   0xE1B0'0004        MOVS     R0,R4
   \       0x14   0xE210'00FF        ANDS     R0,R0,#0xFF      ;; Zero extend
   \       0x18   0x....'....        BL       __setCrBit
    442          }
   \       0x1C   0xE8BD'8010        POP      {R4,PC}          ;; return
    443          
    444          
    445          /**
    446           * Disables specified UART's transmit (Tx) section.
    447           * UART's general enable status (UARTEN) remains unmodified.
    448           *
    449           * Nothing is done if 'nr' is invalid (equal or greater than 3).
    450           *
    451           * @param nr - number of the UART (between 0 and 2)
    452           */

   \                                 In section .text, align 4, keep-with-next
    453          void uart_disableTx(uint8_t nr)
    454          {
   \                     uart_disableTx:
   \        0x0   0xE92D'4010        PUSH     {R4,LR}
   \        0x4   0xE1B0'4000        MOVS     R4,R0
    455              __setCrBit(nr, false, CTL_TXE);
   \        0x8   0xE3A0'2F40        MOV      R2,#+256
   \        0xC   0xE3A0'1000        MOV      R1,#+0
   \       0x10   0xE1B0'0004        MOVS     R0,R4
   \       0x14   0xE210'00FF        ANDS     R0,R0,#0xFF      ;; Zero extend
   \       0x18   0x....'....        BL       __setCrBit
    456          }
   \       0x1C   0xE8BD'8010        POP      {R4,PC}          ;; return
    457          
    458          
    459          /**
    460           * Enables specified UART's transmit (Rx) section.
    461           * UART's general enable status (UARTEN) remains unmodified.
    462           *
    463           * Nothing is done if 'nr' is invalid (equal or greater than 3).
    464           *
    465           * @param nr - number of the UART (between 0 and 2)
    466           */

   \                                 In section .text, align 4, keep-with-next
    467          void uart_enableRx(uint8_t nr)
    468          {
   \                     uart_enableRx:
   \        0x0   0xE92D'4010        PUSH     {R4,LR}
   \        0x4   0xE1B0'4000        MOVS     R4,R0
    469              __setCrBit(nr, true, CTL_RXE);
   \        0x8   0xE3A0'2F80        MOV      R2,#+512
   \        0xC   0xE3A0'1001        MOV      R1,#+1
   \       0x10   0xE1B0'0004        MOVS     R0,R4
   \       0x14   0xE210'00FF        ANDS     R0,R0,#0xFF      ;; Zero extend
   \       0x18   0x....'....        BL       __setCrBit
    470          }
   \       0x1C   0xE8BD'8010        POP      {R4,PC}          ;; return
    471          
    472          
    473          /**
    474           * Disables specified UART's transmit (Rx) section.
    475           * UART's general enable status (UARTEN) remains unmodified.
    476           *
    477           * Nothing is done if 'nr' is invalid (equal or greater than 3).
    478           *
    479           * @param nr - number of the UART (between 0 and 2)
    480           */

   \                                 In section .text, align 4, keep-with-next
    481          void uart_disableRx(uint8_t nr)
    482          {
   \                     uart_disableRx:
   \        0x0   0xE92D'4010        PUSH     {R4,LR}
   \        0x4   0xE1B0'4000        MOVS     R4,R0
    483              __setCrBit(nr, false, CTL_RXE);
   \        0x8   0xE3A0'2F80        MOV      R2,#+512
   \        0xC   0xE3A0'1000        MOV      R1,#+0
   \       0x10   0xE1B0'0004        MOVS     R0,R4
   \       0x14   0xE210'00FF        ANDS     R0,R0,#0xFF      ;; Zero extend
   \       0x18   0x....'....        BL       __setCrBit
    484          }
   \       0x1C   0xE8BD'8010        POP      {R4,PC}          ;; return
    485          
    486          
    487          /**
    488           * Enables the interrupt triggering by the specified UART when a character is received.
    489           *
    490           * Nothing is done if 'nr' is invalid (equal or greater than 3).
    491           *
    492           * @param nr - number of the UART (between 0 and 2)
    493           */

   \                                 In section .text, align 4, keep-with-next
    494          void uart_enableRxInterrupt(uint8_t nr)
    495          {
    496              /* Sanity check */
    497              if ( nr >= BSP_NR_UARTS )
   \                     uart_enableRxInterrupt:
   \        0x0   0xE1B0'1000        MOVS     R1,R0
   \        0x4   0xE211'10FF        ANDS     R1,R1,#0xFF      ;; Zero extend
   \        0x8   0xE351'0003        CMP      R1,#+3
   \        0xC   0xAA00'000B        BGE      ??uart_enableRxInterrupt_0
    498              {
    499                  return;
    500              }
    501          
    502              /* Set bit 4 of the IMSC register: */
    503              HWREG_SET_BITS( pReg[nr]->UARTIMSC, INT_RXIM );
   \                     ??uart_enableRxInterrupt_1:
   \       0x10   0x....'....        LDR      R1,??DataTable9
   \       0x14   0xE1B0'2000        MOVS     R2,R0
   \       0x18   0xE212'20FF        ANDS     R2,R2,#0xFF      ;; Zero extend
   \       0x1C   0xE1B0'2102        LSLS     R2,R2,#+2
   \       0x20   0xE791'2002        LDR      R2,[R1, +R2]
   \       0x24   0xE592'2038        LDR      R2,[R2, #+56]
   \       0x28   0xE392'2010        ORRS     R2,R2,#0x10
   \       0x2C   0xE1B0'3000        MOVS     R3,R0
   \       0x30   0xE213'30FF        ANDS     R3,R3,#0xFF      ;; Zero extend
   \       0x34   0xE1B0'3103        LSLS     R3,R3,#+2
   \       0x38   0xE791'1003        LDR      R1,[R1, +R3]
   \       0x3C   0xE581'2038        STR      R2,[R1, #+56]
    504          }
   \                     ??uart_enableRxInterrupt_0:
   \       0x40   0xE12F'FF1E        BX       LR               ;; return
    505          
    506          
    507          /**
    508           * Disables the interrupt triggering by the specified UART when a character is received.
    509           *
    510           * Nothing is done if 'nr' is invalid (equal or greater than 3).
    511           *
    512           * @param nr - number of the UART (between 0 and 2)
    513           */

   \                                 In section .text, align 4, keep-with-next
    514          void uart_disableRxInterrupt(uint8_t nr)
    515          {
    516              /* Sanity check */
    517              if ( nr >= BSP_NR_UARTS )
   \                     uart_disableRxInterrupt:
   \        0x0   0xE1B0'1000        MOVS     R1,R0
   \        0x4   0xE211'10FF        ANDS     R1,R1,#0xFF      ;; Zero extend
   \        0x8   0xE351'0003        CMP      R1,#+3
   \        0xC   0xAA00'000B        BGE      ??uart_disableRxInterrupt_0
    518              {
    519                  return;
    520              }
    521          
    522              /* Clear bit 4 of the IMSC register: */
    523              HWREG_CLEAR_BITS( pReg[nr]->UARTIMSC, INT_RXIM );
   \                     ??uart_disableRxInterrupt_1:
   \       0x10   0x....'....        LDR      R1,??DataTable9
   \       0x14   0xE1B0'2000        MOVS     R2,R0
   \       0x18   0xE212'20FF        ANDS     R2,R2,#0xFF      ;; Zero extend
   \       0x1C   0xE1B0'2102        LSLS     R2,R2,#+2
   \       0x20   0xE791'2002        LDR      R2,[R1, +R2]
   \       0x24   0xE592'2038        LDR      R2,[R2, #+56]
   \       0x28   0xE3D2'2010        BICS     R2,R2,#0x10
   \       0x2C   0xE1B0'3000        MOVS     R3,R0
   \       0x30   0xE213'30FF        ANDS     R3,R3,#0xFF      ;; Zero extend
   \       0x34   0xE1B0'3103        LSLS     R3,R3,#+2
   \       0x38   0xE791'1003        LDR      R1,[R1, +R3]
   \       0x3C   0xE581'2038        STR      R2,[R1, #+56]
    524          }
   \                     ??uart_disableRxInterrupt_0:
   \       0x40   0xE12F'FF1E        BX       LR               ;; return
    525          
    526          
    527          /**
    528           * Clears receive interrupt at the specified UART.
    529           *
    530           * Nothing is done if 'nr' is invalid (equal or greater than 3).
    531           *
    532           * @param nr - number of the UART (between 0 and 2)
    533           */

   \                                 In section .text, align 4, keep-with-next
    534          void uart_clearRxInterrupt(uint8_t nr)
    535          {
    536              /* Sanity check */
    537              if ( nr >= BSP_NR_UARTS )
   \                     uart_clearRxInterrupt:
   \        0x0   0xE1B0'1000        MOVS     R1,R0
   \        0x4   0xE211'10FF        ANDS     R1,R1,#0xFF      ;; Zero extend
   \        0x8   0xE351'0003        CMP      R1,#+3
   \        0xC   0xAA00'0006        BGE      ??uart_clearRxInterrupt_0
    538              {
    539                  return;
    540              }
    541          
    542              /*
    543               * The register is write only, so usage of the |= operator is not permitted.
    544               * Anyway, zero-bits have no effect on their corresponding interrupts so it
    545               * is perfectly OK simply to write the appropriate bitmask to the register.
    546               */
    547              pReg[nr]->UARTICR = INT_RXIM;
   \                     ??uart_clearRxInterrupt_1:
   \       0x10   0xE3A0'1010        MOV      R1,#+16
   \       0x14   0x....'....        LDR      R2,??DataTable9
   \       0x18   0xE1B0'3000        MOVS     R3,R0
   \       0x1C   0xE213'30FF        ANDS     R3,R3,#0xFF      ;; Zero extend
   \       0x20   0xE1B0'3103        LSLS     R3,R3,#+2
   \       0x24   0xE792'2003        LDR      R2,[R2, +R3]
   \       0x28   0xE582'1044        STR      R1,[R2, #+68]
    548          }
   \                     ??uart_clearRxInterrupt_0:
   \       0x2C   0xE12F'FF1E        BX       LR               ;; return
    549          
    550          
    551          /**
    552           * Reads a character that was received by the specified UART.
    553           * The function may block until a character appears in the UART's receive buffer.
    554           * It is recommended that the function is called, when the caller is sure that a
    555           * character has actually been received, e.g. by notification via an interrupt.
    556           *
    557           * A zero is returned immediately if 'nr' is invalid (equal or greater than 3).
    558           *
    559           * @param nr - number of the UART (between 0 and 2)
    560           *
    561           * @return character received at the UART
    562           */

   \                                 In section .text, align 4, keep-with-next
    563          char uart_readChar(uint8_t nr)
    564          {
   \                     uart_readChar:
   \        0x0   0xE1B0'1000        MOVS     R1,R0
    565              /* Sanity check */
    566              if ( nr >= BSP_NR_UARTS )
   \        0x4   0xE1B0'0001        MOVS     R0,R1
   \        0x8   0xE210'00FF        ANDS     R0,R0,#0xFF      ;; Zero extend
   \        0xC   0xE350'0003        CMP      R0,#+3
   \       0x10   0xBA00'0001        BLT      ??uart_readChar_0
    567              {
    568                  return (char) 0;
   \       0x14   0xE3A0'0000        MOV      R0,#+0
   \       0x18   0xEA00'000B        B        ??uart_readChar_1
    569              }
    570          
    571              /* Wait until the receiving FIFO is not empty */
    572              while ( 0 != HWREG_READ_BITS( pReg[nr]->UARTFR, FR_RXFE ) );
   \                     ??uart_readChar_0:
   \       0x1C   0x....'....        LDR      R0,??DataTable9
   \       0x20   0xE1B0'2001        MOVS     R2,R1
   \       0x24   0xE212'20FF        ANDS     R2,R2,#0xFF      ;; Zero extend
   \       0x28   0xE1B0'2102        LSLS     R2,R2,#+2
   \       0x2C   0xE790'2002        LDR      R2,[R0, +R2]
   \       0x30   0xE592'2018        LDR      R2,[R2, #+24]
   \       0x34   0xE312'0010        TST      R2,#0x10
   \       0x38   0x1AFF'FFF7        BNE      ??uart_readChar_0
    573          
    574              /*
    575               * UART DR is a 32-bit register and only the least significant byte must be returned.
    576               * Casting its address to char* effectively turns the word into an array
    577               * of (four) 8-bit characters. Now, dereferencing the first character of this array affects
    578               * only the desired character itself, not the whole word.
    579               */
    580          
    581              return *( (char*) &(pReg[nr]->UARTDR) );
   \       0x3C   0xE211'10FF        ANDS     R1,R1,#0xFF      ;; Zero extend
   \       0x40   0xE1B0'1101        LSLS     R1,R1,#+2
   \       0x44   0xE790'0001        LDR      R0,[R0, +R1]
   \       0x48   0xE5D0'0000        LDRB     R0,[R0, #+0]
   \                     ??uart_readChar_1:
   \       0x4C   0xE12F'FF1E        BX       LR               ;; return
    582          }

   \                                 In section .text, align 4, keep-with-next
   \                     ??DataTable9:
   \        0x0   0x....'....        DC32     pReg

   \                                 In section .text, align 4, keep-with-next
   \                     ??DataTable9_1:
   \        0x0   0x....'....        DC32     ?_0

   \                                 In section .rodata, align 4
   \                     ?_0:
   \        0x0   0x3C 0x4E          DC8 "<NULL>\015\012"
   \              0x55 0x4C    
   \              0x4C 0x3E    
   \              0x0D 0x0A    
   \              0x00         
   \        0x9   0x00 0x00          DC8 0, 0, 0
   \              0x00         

   Maximum stack usage in bytes:

   .cstack Function
   ------- --------
       0   __printCh
       8   __setCrBit
       0   uart_clearRxInterrupt
       8   uart_disableRx
         8   -> __setCrBit
       0   uart_disableRxInterrupt
       8   uart_disableTx
         8   -> __setCrBit
       0   uart_disableUart
       8   uart_enableRx
         8   -> __setCrBit
       0   uart_enableRxInterrupt
       8   uart_enableTx
         8   -> __setCrBit
       0   uart_enableUart
       0   uart_init
      24   uart_print
        24   -> __printCh
      16   uart_printChar
        16   -> __printCh
       0   uart_readChar


   Section sizes:

   Bytes  Function/Label
   -----  --------------
       4  ??DataTable9
       4  ??DataTable9_1
      12  ?_0
      56  __printCh
     256  __setCrBit
      12  pReg
      48  uart_clearRxInterrupt
      32  uart_disableRx
      68  uart_disableRxInterrupt
      32  uart_disableTx
      68  uart_disableUart
      32  uart_enableRx
      68  uart_enableRxInterrupt
      32  uart_enableTx
      68  uart_enableUart
     340  uart_init
      92  uart_print
      52  uart_printChar
      80  uart_readChar

 
    24 bytes in section .rodata
 1 332 bytes in section .text
 
 1 332 bytes of CODE  memory
    24 bytes of CONST memory

Errors: none
Warnings: none
