###############################################################################
#
# IAR ANSI C/C++ Compiler V8.30.1.114/W32 for ARM         10/Dec/2019  12:06:44
# Copyright 1999-2018 IAR Systems AB.
#
#    Cpu mode     =  arm
#    Endian       =  little
#    Source file  =  E:\armipc\fs\ui.c
#    Command line =  
#        -f C:\Users\Bill\AppData\Local\Temp\EW7194.tmp (E:\armipc\fs\ui.c -D
#        DDRRAM_EXEC -D MMU_ENA -lC "E:\armipc\DDRRAM Debug\List" -o
#        "E:\armipc\DDRRAM Debug\Obj" --no_cse --no_unroll --no_inline
#        --no_code_motion --no_tbaa --no_clustering --no_scheduling --debug
#        --endian=little --cpu=ARM926EJ-S -e --fpu=None --dlib_config
#        "C:\Program Files\IAR Systems\Embedded Workbench
#        8.1\arm\inc\c\DLib_Config_Normal.h" -I E:\armipc\ -I E:\armipc\board\
#        -I E:\armipc\modules\ -I E:\armipc\lwip\include\lwip\ -I
#        E:\armipc\lwip\include\arch\ -I E:\armipc\rtos\include\ -I
#        E:\armipc\lwip\include\IPV4\lwip\ -I E:\armipc\lwip\netif\ppp\
#        --cpu_mode arm -On --use_c++_inline)
#    Locale       =  C
#    List file    =  E:\armipc\DDRRAM Debug\List\ui.lst
#    Object file  =  E:\armipc\DDRRAM Debug\Obj\ui.o
#
###############################################################################

E:\armipc\fs\ui.c
      1          /*****************************************************************************\
      2          *              efs - General purpose Embedded Filesystem library              *
      3          *          --------------------- -----------------------------------          *
      4          *                                                                             *
      5          * Filename : ui.c                                                             *
      6          * Revision : Initial developement                                             *
      7          * Description : This file contains functions which will be presented to the   *
      8          *               user of this library.                                         *
      9          *                                                                             *
     10          * This library is free software; you can redistribute it and/or               *
     11          * modify it under the terms of the GNU Lesser General Public                  *
     12          * License as published by the Free Software Foundation; either                *
     13          * version 2.1 of the License, or (at your option) any later version.          *
     14          *                                                                             *
     15          * This library is distributed in the hope that it will be useful,             *
     16          * but WITHOUT ANY WARRANTY; without even the implied warranty of              *
     17          * MERCHANTABILITY or FITNESS FOR A PARTICULAR PURPOSE.  See the GNU           *
     18          * Lesser General Public License for more details.                             *
     19          *                                                                             *
     20          *                                                    (c)2005 Michael De Nil   *
     21          *                                                    (c)2005 Lennart Yseboodt *
     22          \*****************************************************************************/
     23          
     24          /*****************************************************************************/
     25          #include "include/ui.h"
     26          /*****************************************************************************/
     27          
     28          /*****************************************************************************
     29           * short listfiles(char *dir)
     30           *
     31           * Deschription: This function returns the number of files / directories
     32           * inside the given directory.
     33           *
     34           * Return value: number of files/directories in the given directory or -1
     35           * if directory does not exist.
     36          \*****************************************************************************/
     37          

   \                                 In section .text, align 4, keep-with-next
     38          short listFiles(FileSystem *fs, char *dirname)
     39          {
   \                     listFiles:
   \        0x0   0xE92D'4FF8        PUSH     {R3-R11,LR}
   \        0x4   0xE24D'DF9E        SUB      SP,SP,#+632
   \        0x8   0xE1B0'5000        MOVS     R5,R0
   \        0xC   0xE1B0'6001        MOVS     R6,R1
     40          	unsigned long startCluster;
     41          	unsigned char fileEntryCount;
     42          	unsigned short counter=0;
   \       0x10   0xE3A0'8000        MOV      R8,#+0
   \       0x14   0xE1B0'9008        MOVS     R9,R8
     43          	unsigned long offset=0;
   \       0x18   0xE3A0'A000        MOV      R10,#+0
     44          	FileRecord fileEntry;
     45          	FileLocation loc;
     46          	unsigned char buf[512];
     47          	File dir;
     48          	unsigned short i;
     49          	
     50          	/* Find out if we are searching in the root dir or in */
     51          	if(dirname[0]=='/' && dirname[1]=='\0')
   \       0x1C   0xE5D6'0000        LDRB     R0,[R6, #+0]
   \       0x20   0xE350'002F        CMP      R0,#+47
   \       0x24   0x1A00'001D        BNE      ??listFiles_0
   \       0x28   0xE5D6'0001        LDRB     R0,[R6, #+1]
   \       0x2C   0xE350'0000        CMP      R0,#+0
   \       0x30   0x1A00'001A        BNE      ??listFiles_0
     52          	{
     53          		if( (fs->type == FAT12) || (fs->type == FAT16) )
   \       0x34   0xE5D5'003C        LDRB     R0,[R5, #+60]
   \       0x38   0xE350'0001        CMP      R0,#+1
   \       0x3C   0x0A00'0002        BEQ      ??listFiles_1
   \       0x40   0xE5D5'003C        LDRB     R0,[R5, #+60]
   \       0x44   0xE350'0002        CMP      R0,#+2
   \       0x48   0x1A00'005C        BNE      ??listFiles_2
     54          		{
     55          			for(i=0;i<=(fs->volumeId.RootEntryCount/16);i++)
   \                     ??listFiles_1:
   \       0x4C   0xE1B0'4008        MOVS     R4,R8
   \                     ??listFiles_3:
   \       0x50   0xE1D5'00BC        LDRH     R0,[R5, #+12]
   \       0x54   0xE3A0'1010        MOV      R1,#+16
   \       0x58   0x....'....        BL       __aeabi_idiv
   \       0x5C   0xE1B0'1004        MOVS     R1,R4
   \       0x60   0xE1A0'1801        LSL      R1,R1,#+16
   \       0x64   0xE1B0'1821        LSRS     R1,R1,#+16
   \       0x68   0xE150'0001        CMP      R0,R1
   \       0x6C   0xBA00'0053        BLT      ??listFiles_2
     56          			{
     57          				loc.Sector=fs->FirstSectorRootDir + i;
   \       0x70   0xE595'002C        LDR      R0,[R5, #+44]
   \       0x74   0xE1B0'1004        MOVS     R1,R4
   \       0x78   0xE1A0'1801        LSL      R1,R1,#+16
   \       0x7C   0xE1B0'1821        LSRS     R1,R1,#+16
   \       0x80   0xE091'0000        ADDS     R0,R1,R0
   \       0x84   0xE58D'0000        STR      R0,[SP, #+0]
     58          				part_readBuf(fs->part,loc.Sector,buf);
   \       0x88   0xE28D'2078        ADD      R2,SP,#+120
   \       0x8C   0xE59D'1000        LDR      R1,[SP, #+0]
   \       0x90   0xE595'0000        LDR      R0,[R5, #+0]
   \       0x94   0x....'....        BL       part_readBuf
     59          				/* I STOPPED HERE*/
     60          				/* FIXME */
     61          			}
   \       0x98   0xE294'4001        ADDS     R4,R4,#+1
   \       0x9C   0xEAFF'FFEB        B        ??listFiles_3
     62          		}
     63          	}
     64          	else /* Normal directory */
     65          	{
     66          		/* Check if path given is a directory */
     67          		if(fs_findFile(fs,dirname,&loc,0)!=2)
   \                     ??listFiles_0:
   \       0xA0   0xE3A0'3000        MOV      R3,#+0
   \       0xA4   0xE1B0'200D        MOVS     R2,SP
   \       0xA8   0xE1B0'1006        MOVS     R1,R6
   \       0xAC   0xE1B0'0005        MOVS     R0,R5
   \       0xB0   0x....'....        BL       fs_findFile
   \       0xB4   0xE350'0002        CMP      R0,#+2
   \       0xB8   0x0A00'0001        BEQ      ??listFiles_4
     68          		{
     69          			FUNC_OUT((TXT("")));
     70          			return(-1);
   \       0xBC   0xE3E0'0000        MVN      R0,#+0
   \       0xC0   0xEA00'0041        B        ??listFiles_5
     71          		}
     72          	
     73          		/* Find out what the startcluster of the directory is */
     74          		part_readBuf(fs->part,loc.Sector, buf);
   \                     ??listFiles_4:
   \       0xC4   0xE28D'2078        ADD      R2,SP,#+120
   \       0xC8   0xE59D'1000        LDR      R1,[SP, #+0]
   \       0xCC   0xE595'0000        LDR      R0,[R5, #+0]
   \       0xD0   0x....'....        BL       part_readBuf
     75          		fileEntry = *(((FileRecord*)buf) + loc.Offset);
   \       0xD4   0xE28D'B078        ADD      R11,SP,#+120
   \       0xD8   0xE28D'000C        ADD      R0,SP,#+12
   \       0xDC   0xE5DD'1004        LDRB     R1,[SP, #+4]
   \       0xE0   0xE1B0'1281        LSLS     R1,R1,#+5
   \       0xE4   0xE09B'1001        ADDS     R1,R11,R1
   \       0xE8   0xE3A0'2020        MOV      R2,#+32
   \       0xEC   0x....'....        BL       __aeabi_memcpy4
     76          		startCluster = (((unsigned long)fileEntry.FirstClusterHigh)<<16) 
     77          			+ fileEntry.FirstClusterLow;
   \       0xF0   0xE1DD'02B0        LDRH     R0,[SP, #+32]
   \       0xF4   0xE1DD'12B6        LDRH     R1,[SP, #+38]
   \       0xF8   0xE091'0800        ADDS     R0,R1,R0, LSL #+16
   \       0xFC   0xE58D'0008        STR      R0,[SP, #+8]
     78          
     79          	    /* Init of dir */
     80          		dir.fs=fs;
   \      0x100   0xE58D'5054        STR      R5,[SP, #+84]
     81          		dir.Cache.LogicCluster=-1;
   \      0x104   0xE3E0'0000        MVN      R0,#+0
   \      0x108   0xE58D'005C        STR      R0,[SP, #+92]
     82          		dir.Cache.FirstCluster=startCluster;
   \      0x10C   0xE59D'0008        LDR      R0,[SP, #+8]
   \      0x110   0xE58D'0064        STR      R0,[SP, #+100]
     83          		dir.DirEntry.Attribute=ATTR_DIRECTORY;
   \      0x114   0xE3A0'0010        MOV      R0,#+16
   \      0x118   0xE5CD'0037        STRB     R0,[SP, #+55]
     84          	
     85          		while((file_fread(&dir,offset,512,buf)))
   \                     ??listFiles_6:
   \      0x11C   0xE28D'3078        ADD      R3,SP,#+120
   \      0x120   0xE3A0'2F80        MOV      R2,#+512
   \      0x124   0xE1B0'100A        MOVS     R1,R10
   \      0x128   0xE28D'002C        ADD      R0,SP,#+44
   \      0x12C   0x....'....        BL       file_fread
   \      0x130   0xE350'0000        CMP      R0,#+0
   \      0x134   0x0A00'0021        BEQ      ??listFiles_2
     86          		{
     87          			DBG((TXT("Read 512 bytes from dir with offset %li.\n"),offset));
     88          			for(fileEntryCount=0;fileEntryCount<16;fileEntryCount++)
   \      0x138   0xE1B0'0008        MOVS     R0,R8
   \      0x13C   0xE1B0'7000        MOVS     R7,R0
   \                     ??listFiles_7:
   \      0x140   0xE1B0'0007        MOVS     R0,R7
   \      0x144   0xE210'00FF        ANDS     R0,R0,#0xFF      ;; Zero extend
   \      0x148   0xE350'0010        CMP      R0,#+16
   \      0x14C   0xAA00'0019        BGE      ??listFiles_8
     89          			{
     90          				fileEntry = *(((FileRecord*)buf) + fileEntryCount);
   \      0x150   0xE28D'000C        ADD      R0,SP,#+12
   \      0x154   0xE1B0'1007        MOVS     R1,R7
   \      0x158   0xE211'10FF        ANDS     R1,R1,#0xFF      ;; Zero extend
   \      0x15C   0xE1B0'1281        LSLS     R1,R1,#+5
   \      0x160   0xE09B'1001        ADDS     R1,R11,R1
   \      0x164   0xE3A0'2020        MOV      R2,#+32
   \      0x168   0x....'....        BL       __aeabi_memcpy4
     91          				if( !( (fileEntry.Attribute & 0x0F) == 0x0F ) )
   \      0x16C   0xE5DD'0017        LDRB     R0,[SP, #+23]
   \      0x170   0xE210'000F        ANDS     R0,R0,#0xF
   \      0x174   0xE350'000F        CMP      R0,#+15
   \      0x178   0x0A00'000C        BEQ      ??listFiles_9
     92          				{
     93          					if
     94          					(
     95          					 (fileEntry.FileName[0]>='A' && fileEntry.FileName[0]<='Z')
     96          					 ||
     97          					 (fileEntry.FileName[0]>='0' && fileEntry.FileName[0]<='9')
     98          					)
   \      0x17C   0xE5DD'000C        LDRB     R0,[SP, #+12]
   \      0x180   0xE350'0041        CMP      R0,#+65
   \      0x184   0xBA00'0002        BLT      ??listFiles_10
   \      0x188   0xE5DD'000C        LDRB     R0,[SP, #+12]
   \      0x18C   0xE350'005B        CMP      R0,#+91
   \      0x190   0xBA00'0005        BLT      ??listFiles_11
   \                     ??listFiles_10:
   \      0x194   0xE5DD'000C        LDRB     R0,[SP, #+12]
   \      0x198   0xE350'0030        CMP      R0,#+48
   \      0x19C   0xBA00'0003        BLT      ??listFiles_9
   \      0x1A0   0xE5DD'000C        LDRB     R0,[SP, #+12]
   \      0x1A4   0xE350'003A        CMP      R0,#+58
   \      0x1A8   0xAA00'0000        BGE      ??listFiles_9
     99          					{
    100          						DBG((TXT("Filename: %s\n"),fileEntry.FileName));
    101          						counter++;
   \                     ??listFiles_11:
   \      0x1AC   0xE299'9001        ADDS     R9,R9,#+1
    102          					}
    103          				}
    104          			}
   \                     ??listFiles_9:
   \      0x1B0   0xE297'7001        ADDS     R7,R7,#+1
   \      0x1B4   0xEAFF'FFE1        B        ??listFiles_7
    105          			offset+=512;
   \                     ??listFiles_8:
   \      0x1B8   0xE29A'AF80        ADDS     R10,R10,#+512
   \      0x1BC   0xEAFF'FFD6        B        ??listFiles_6
    106          		}
    107          	}
    108          	
    109          	FUNC_OUT((TXT("")));
    110          	return(counter);
   \                     ??listFiles_2:
   \      0x1C0   0xE1B0'0009        MOVS     R0,R9
   \      0x1C4   0xE1A0'0800        LSL      R0,R0,#+16
   \      0x1C8   0xE1B0'0840        ASRS     R0,R0,#+16
   \                     ??listFiles_5:
   \      0x1CC   0xE28D'DF9F        ADD      SP,SP,#+636
   \      0x1D0   0xE8BD'8FF0        POP      {R4-R11,PC}      ;; return
    111          	
    112          //	return(-1);
    113          }
    114          /*****************************************************************************/
    115          
    116          /* ****************************************************************************  
    117           * esint16 rmfile(FileSystem *fs,euint8* filename)
    118           * Description: This function takes a filename as argument and deletes it,
    119           * by freeing it's clusterchain, and deleting it's entry from the directory.
    120           * Return value: 0 on success, -1 on errors, like file not found.
    121          */

   \                                 In section .text, align 4, keep-with-next
    122          esint16 rmfile(FileSystem *fs,euint8* filename)
    123          {
   \                     rmfile:
   \        0x0   0xE92D'47F8        PUSH     {R3-R10,LR}
   \        0x4   0xE24D'D01C        SUB      SP,SP,#+28
   \        0x8   0xE1B0'4000        MOVS     R4,R0
   \        0xC   0xE1B0'5001        MOVS     R5,R1
    124          	FileLocation loc;
    125          	ClusterChain cache;
    126          	euint8* buf;
    127          	euint32 firstCluster=0;
   \       0x10   0xE3A0'6000        MOV      R6,#+0
   \       0x14   0xE1B0'7006        MOVS     R7,R6
    128          	
    129          	if((fs_findFile(fs,(eint8*)filename,&loc,0))==1){
   \       0x18   0xE3A0'3000        MOV      R3,#+0
   \       0x1C   0xE1B0'200D        MOVS     R2,SP
   \       0x20   0xE1B0'1005        MOVS     R1,R5
   \       0x24   0xE1B0'0004        MOVS     R0,R4
   \       0x28   0x....'....        BL       fs_findFile
   \       0x2C   0xE350'0001        CMP      R0,#+1
   \       0x30   0x1A00'0027        BNE      ??rmfile_0
    130          		buf=part_getSect(fs->part,loc.Sector,IOM_MODE_READWRITE);
   \       0x34   0xE3A0'2002        MOV      R2,#+2
   \       0x38   0xE59D'1000        LDR      R1,[SP, #+0]
   \       0x3C   0xE594'0000        LDR      R0,[R4, #+0]
   \       0x40   0x....'....        BL       part_getSect
   \       0x44   0xE1B0'8000        MOVS     R8,R0
    131          		firstCluster = ex_getb16(buf,loc.Offset*32+20);
   \       0x48   0xE5DD'0004        LDRB     R0,[SP, #+4]
   \       0x4C   0xE3A0'1020        MOV      R1,#+32
   \       0x50   0xE010'0091        MULS     R0,R1,R0
   \       0x54   0xE290'1014        ADDS     R1,R0,#+20
   \       0x58   0xE1B0'0008        MOVS     R0,R8
   \       0x5C   0x....'....        BL       ex_getb16
    132          		firstCluster <<= 16;
   \       0x60   0xE1B0'9800        LSLS     R9,R0,#+16
    133          		firstCluster += ex_getb16(buf,loc.Offset*32+26);
   \       0x64   0xE5DD'0004        LDRB     R0,[SP, #+4]
   \       0x68   0xE3A0'1020        MOV      R1,#+32
   \       0x6C   0xE010'0091        MULS     R0,R1,R0
   \       0x70   0xE290'101A        ADDS     R1,R0,#+26
   \       0x74   0xE1B0'0008        MOVS     R0,R8
   \       0x78   0x....'....        BL       ex_getb16
   \       0x7C   0xE090'A009        ADDS     R10,R0,R9
    134          		memClr(buf+(loc.Offset*32),32);
   \       0x80   0xE3A0'1020        MOV      R1,#+32
   \       0x84   0xE5DD'0004        LDRB     R0,[SP, #+4]
   \       0x88   0xE1B0'0280        LSLS     R0,R0,#+5
   \       0x8C   0xE098'0000        ADDS     R0,R8,R0
   \       0x90   0x....'....        BL       memClr
    135          		part_relSect(fs->part,buf);
   \       0x94   0xE1B0'1008        MOVS     R1,R8
   \       0x98   0xE594'0000        LDR      R0,[R4, #+0]
   \       0x9C   0x....'....        BL       part_relSect
    136          		cache.DiscCluster = cache.LastCluster = cache.Linear = cache.LogicCluster = 0;
   \       0xA0   0xE58D'600C        STR      R6,[SP, #+12]
   \       0xA4   0xE59D'000C        LDR      R0,[SP, #+12]
   \       0xA8   0xE5CD'0008        STRB     R0,[SP, #+8]
   \       0xAC   0xE5DD'0008        LDRB     R0,[SP, #+8]
   \       0xB0   0xE58D'0018        STR      R0,[SP, #+24]
   \       0xB4   0xE59D'0018        LDR      R0,[SP, #+24]
   \       0xB8   0xE58D'0010        STR      R0,[SP, #+16]
    137          		cache.FirstCluster = firstCluster;
   \       0xBC   0xE58D'A014        STR      R10,[SP, #+20]
    138           		fat_unlinkClusterChain(fs,&cache);
   \       0xC0   0xE28D'1008        ADD      R1,SP,#+8
   \       0xC4   0xE1B0'0004        MOVS     R0,R4
   \       0xC8   0x....'....        BL       fat_unlinkClusterChain
    139          		return(0);
   \       0xCC   0xE3A0'0000        MOV      R0,#+0
   \       0xD0   0xEA00'0000        B        ??rmfile_1
    140          	}
    141          	return(-1);
   \                     ??rmfile_0:
   \       0xD4   0xE3E0'0000        MVN      R0,#+0
   \                     ??rmfile_1:
   \       0xD8   0xE28D'D020        ADD      SP,SP,#+32
   \       0xDC   0xE8BD'87F0        POP      {R4-R10,PC}      ;; return
    142          }
    143          
    144          /*****************************************************************************/

   \                                 In section .text, align 4, keep-with-next
    145          esint8 mkdir(FileSystem *fs,eint8* dirname)
    146          {
   \                     mkdir:
   \        0x0   0xE92D'47F0        PUSH     {R4-R10,LR}
   \        0x4   0xE24D'D038        SUB      SP,SP,#+56
   \        0x8   0xE1B0'4000        MOVS     R4,R0
   \        0xC   0xE1B0'5001        MOVS     R5,R1
    147          	FileLocation loc;
    148          	FileRecord direntry;
    149          	euint32 nc,parentdir;
    150          	euint8* buf;
    151          	eint8 ffname[11];
    152          	
    153          	if( fs_findFile(fs,dirname,&loc,&parentdir) ){
   \       0x10   0xE1B0'300D        MOVS     R3,SP
   \       0x14   0xE28D'2024        ADD      R2,SP,#+36
   \       0x18   0xE1B0'1005        MOVS     R1,R5
   \       0x1C   0xE1B0'0004        MOVS     R0,R4
   \       0x20   0x....'....        BL       fs_findFile
   \       0x24   0xE350'0000        CMP      R0,#+0
   \       0x28   0x0A00'0001        BEQ      ??mkdir_0
    154          		return(-2);
   \       0x2C   0xE3E0'0001        MVN      R0,#+1
   \       0x30   0xEA00'007C        B        ??mkdir_1
    155          	}
    156          	if(parentdir==0)return(-3);
   \                     ??mkdir_0:
   \       0x34   0xE59D'0000        LDR      R0,[SP, #+0]
   \       0x38   0xE350'0000        CMP      R0,#+0
   \       0x3C   0x1A00'0001        BNE      ??mkdir_2
   \       0x40   0xE3E0'0002        MVN      R0,#+2
   \       0x44   0xEA00'0077        B        ??mkdir_1
    157          	
    158          	if(!fs_findFreeFile(fs,dirname,&loc,0))return(-4);
   \                     ??mkdir_2:
   \       0x48   0xE3A0'3000        MOV      R3,#+0
   \       0x4C   0xE28D'2024        ADD      R2,SP,#+36
   \       0x50   0xE1B0'1005        MOVS     R1,R5
   \       0x54   0xE1B0'0004        MOVS     R0,R4
   \       0x58   0x....'....        BL       fs_findFreeFile
   \       0x5C   0xE350'0000        CMP      R0,#+0
   \       0x60   0x1A00'0001        BNE      ??mkdir_3
   \       0x64   0xE3E0'0003        MVN      R0,#+3
   \       0x68   0xEA00'006E        B        ??mkdir_1
    159          	
    160          	/* You may never search for a free cluster, and the call
    161          	 * functions that may cause changes to the FAT table, that
    162          	 * is why getNextFreeCluster has to be called AFTER calling
    163          	 * fs_findFreeFile, which may have to expand a directory in
    164          	 * order to store the new filerecord !! 
    165          	 */
    166          	
    167          	nc = fs_getNextFreeCluster(fs,fs_giveFreeClusterHint(fs));
   \                     ??mkdir_3:
   \       0x6C   0xE1B0'0004        MOVS     R0,R4
   \       0x70   0x....'....        BL       fs_giveFreeClusterHint
   \       0x74   0xE1B0'1000        MOVS     R1,R0
   \       0x78   0xE1B0'0004        MOVS     R0,R4
   \       0x7C   0x....'....        BL       fs_getNextFreeCluster
   \       0x80   0xE1B0'6000        MOVS     R6,R0
    168          	if(nc==0)return(0);
   \       0x84   0xE356'0000        CMP      R6,#+0
   \       0x88   0x1A00'0001        BNE      ??mkdir_4
   \       0x8C   0xE3A0'0000        MOV      R0,#+0
   \       0x90   0xEA00'0064        B        ??mkdir_1
    169          	
    170          	fs_clearCluster(fs,nc);
   \                     ??mkdir_4:
   \       0x94   0xE1B0'1006        MOVS     R1,R6
   \       0x98   0xE1B0'0004        MOVS     R0,R4
   \       0x9C   0x....'....        BL       fs_clearCluster
    171          	
    172          	buf = part_getSect(fs->part,loc.Sector,IOM_MODE_READWRITE);
   \       0xA0   0xE3A0'2002        MOV      R2,#+2
   \       0xA4   0xE59D'1024        LDR      R1,[SP, #+36]
   \       0xA8   0xE594'0000        LDR      R0,[R4, #+0]
   \       0xAC   0x....'....        BL       part_getSect
   \       0xB0   0xE1B0'7000        MOVS     R7,R0
    173          
    174          	dir_getFatFileName(dirname,ffname);
   \       0xB4   0xE28D'102C        ADD      R1,SP,#+44
   \       0xB8   0xE1B0'0005        MOVS     R0,R5
   \       0xBC   0x....'....        BL       dir_getFatFileName
    175          	memClr(&direntry,sizeof(direntry));
   \       0xC0   0xE3A0'1020        MOV      R1,#+32
   \       0xC4   0xE28D'0004        ADD      R0,SP,#+4
   \       0xC8   0x....'....        BL       memClr
    176          	memCpy(ffname,&direntry,11);
   \       0xCC   0xE3A0'200B        MOV      R2,#+11
   \       0xD0   0xE28D'1004        ADD      R1,SP,#+4
   \       0xD4   0xE28D'002C        ADD      R0,SP,#+44
   \       0xD8   0x....'....        BL       memCpy
    177          	direntry.FileSize = 0;
   \       0xDC   0xE3A0'8000        MOV      R8,#+0
   \       0xE0   0xE58D'8020        STR      R8,[SP, #+32]
    178          	direntry.FirstClusterHigh=nc>>16;
   \       0xE4   0xE1B0'0826        LSRS     R0,R6,#+16
   \       0xE8   0xE1CD'01B8        STRH     R0,[SP, #+24]
    179          	direntry.FirstClusterLow=nc&0xFFFF;
   \       0xEC   0xE1CD'61BE        STRH     R6,[SP, #+30]
    180          	direntry.Attribute = ATTR_DIRECTORY;
   \       0xF0   0xE3A0'9010        MOV      R9,#+16
   \       0xF4   0xE5CD'900F        STRB     R9,[SP, #+15]
    181          	memCpy(&direntry,buf+(32*loc.Offset),32);
   \       0xF8   0xE3A0'2020        MOV      R2,#+32
   \       0xFC   0xE5DD'0028        LDRB     R0,[SP, #+40]
   \      0x100   0xE1B0'0280        LSLS     R0,R0,#+5
   \      0x104   0xE097'1000        ADDS     R1,R7,R0
   \      0x108   0xE28D'0004        ADD      R0,SP,#+4
   \      0x10C   0x....'....        BL       memCpy
    182          		
    183          	part_relSect(fs->part,buf);
   \      0x110   0xE1B0'1007        MOVS     R1,R7
   \      0x114   0xE594'0000        LDR      R0,[R4, #+0]
   \      0x118   0x....'....        BL       part_relSect
    184          	
    185          	buf = part_getSect(fs->part,fs_clusterToSector(fs,nc),IOM_MODE_READWRITE);
   \      0x11C   0xE1B0'1006        MOVS     R1,R6
   \      0x120   0xE1B0'0004        MOVS     R0,R4
   \      0x124   0x....'....        BL       fs_clusterToSector
   \      0x128   0xE3A0'2002        MOV      R2,#+2
   \      0x12C   0xE1B0'1000        MOVS     R1,R0
   \      0x130   0xE594'0000        LDR      R0,[R4, #+0]
   \      0x134   0x....'....        BL       part_getSect
   \      0x138   0xE1B0'A000        MOVS     R10,R0
    186          	
    187          	memClr(&direntry,sizeof(direntry));
   \      0x13C   0xE3A0'1020        MOV      R1,#+32
   \      0x140   0xE28D'0004        ADD      R0,SP,#+4
   \      0x144   0x....'....        BL       memClr
    188          	memCpy(".          ",&direntry,11);
   \      0x148   0xE3A0'200B        MOV      R2,#+11
   \      0x14C   0xE28D'1004        ADD      R1,SP,#+4
   \      0x150   0x....'....        LDR      R0,??DataTable1
   \      0x154   0x....'....        BL       memCpy
    189          	direntry.Attribute = ATTR_DIRECTORY;
   \      0x158   0xE5CD'900F        STRB     R9,[SP, #+15]
    190          	direntry.FileSize = 0;
   \      0x15C   0xE58D'8020        STR      R8,[SP, #+32]
    191          	direntry.FirstClusterHigh=nc>>16;
   \      0x160   0xE1B0'0826        LSRS     R0,R6,#+16
   \      0x164   0xE1CD'01B8        STRH     R0,[SP, #+24]
    192          	direntry.FirstClusterLow=nc&0xFFFF;
   \      0x168   0xE1CD'61BE        STRH     R6,[SP, #+30]
    193          	memCpy(&direntry,buf,32);
   \      0x16C   0xE3A0'2020        MOV      R2,#+32
   \      0x170   0xE1B0'100A        MOVS     R1,R10
   \      0x174   0xE28D'0004        ADD      R0,SP,#+4
   \      0x178   0x....'....        BL       memCpy
    194          	
    195          	if(fs->type == FAT32 && parentdir == fs->volumeId.RootCluster){
   \      0x17C   0xE5D4'003C        LDRB     R0,[R4, #+60]
   \      0x180   0xE350'0003        CMP      R0,#+3
   \      0x184   0x1A00'0004        BNE      ??mkdir_5
   \      0x188   0xE59D'0000        LDR      R0,[SP, #+0]
   \      0x18C   0xE594'101C        LDR      R1,[R4, #+28]
   \      0x190   0xE150'0001        CMP      R0,R1
   \      0x194   0x1A00'0000        BNE      ??mkdir_5
    196          		parentdir = 0;
   \      0x198   0xE58D'8000        STR      R8,[SP, #+0]
    197          	}
    198          	if(fs->type != FAT32 && parentdir<=1){
   \                     ??mkdir_5:
   \      0x19C   0xE5D4'003C        LDRB     R0,[R4, #+60]
   \      0x1A0   0xE350'0003        CMP      R0,#+3
   \      0x1A4   0x0A00'0003        BEQ      ??mkdir_6
   \      0x1A8   0xE59D'0000        LDR      R0,[SP, #+0]
   \      0x1AC   0xE350'0002        CMP      R0,#+2
   \      0x1B0   0x2A00'0000        BCS      ??mkdir_6
    199          		parentdir = 0;
   \      0x1B4   0xE58D'8000        STR      R8,[SP, #+0]
    200          	} 
    201          	
    202          	memClr(&direntry,sizeof(direntry));
   \                     ??mkdir_6:
   \      0x1B8   0xE3A0'1020        MOV      R1,#+32
   \      0x1BC   0xE28D'0004        ADD      R0,SP,#+4
   \      0x1C0   0x....'....        BL       memClr
    203          	memCpy("..         ",&direntry,11);
   \      0x1C4   0xE3A0'200B        MOV      R2,#+11
   \      0x1C8   0xE28D'1004        ADD      R1,SP,#+4
   \      0x1CC   0x....'....        LDR      R0,??DataTable1_1
   \      0x1D0   0x....'....        BL       memCpy
    204          	direntry.Attribute = ATTR_DIRECTORY;
   \      0x1D4   0xE5CD'900F        STRB     R9,[SP, #+15]
    205          	direntry.FileSize = 0;
   \      0x1D8   0xE58D'8020        STR      R8,[SP, #+32]
    206          	direntry.FirstClusterHigh=parentdir>>16;
   \      0x1DC   0xE59D'0000        LDR      R0,[SP, #+0]
   \      0x1E0   0xE1B0'0820        LSRS     R0,R0,#+16
   \      0x1E4   0xE1CD'01B8        STRH     R0,[SP, #+24]
    207          	direntry.FirstClusterLow=parentdir&0xFFFF;
   \      0x1E8   0xE59D'0000        LDR      R0,[SP, #+0]
   \      0x1EC   0xE1CD'01BE        STRH     R0,[SP, #+30]
    208          	memCpy(&direntry,buf+32,32);
   \      0x1F0   0xE3A0'2020        MOV      R2,#+32
   \      0x1F4   0xE29A'1020        ADDS     R1,R10,#+32
   \      0x1F8   0xE28D'0004        ADD      R0,SP,#+4
   \      0x1FC   0x....'....        BL       memCpy
    209          
    210          	part_relSect(fs->part,buf);
   \      0x200   0xE1B0'100A        MOVS     R1,R10
   \      0x204   0xE594'0000        LDR      R0,[R4, #+0]
   \      0x208   0x....'....        BL       part_relSect
    211          	
    212          	fat_setNextClusterAddress(fs,nc,fat_giveEocMarker(fs));
   \      0x20C   0xE1B0'0004        MOVS     R0,R4
   \      0x210   0x....'....        BL       fat_giveEocMarker
   \      0x214   0xE1B0'2000        MOVS     R2,R0
   \      0x218   0xE1B0'1006        MOVS     R1,R6
   \      0x21C   0xE1B0'0004        MOVS     R0,R4
   \      0x220   0x....'....        BL       fat_setNextClusterAddress
    213          
    214          	return(0);
   \      0x224   0xE3A0'0000        MOV      R0,#+0
   \                     ??mkdir_1:
   \      0x228   0xE28D'D038        ADD      SP,SP,#+56
   \      0x22C   0xE8BD'87F0        POP      {R4-R10,PC}      ;; return
    215          }

   \                                 In section .text, align 4, keep-with-next
   \                     ??DataTable1:
   \        0x0   0x....'....        DC32     ?_0

   \                                 In section .text, align 4, keep-with-next
   \                     ??DataTable1_1:
   \        0x0   0x....'....        DC32     ?_1

   \                                 In section .rodata, align 4
   \                     ?_0:
   \        0x0   0x2E 0x20          DC8 ".          "
   \              0x20 0x20    
   \              0x20 0x20    
   \              0x20 0x20    
   \              0x20 0x20    
   \              0x20 0x00    

   \                                 In section .rodata, align 4
   \                     ?_1:
   \        0x0   0x2E 0x2E          DC8 "..         "
   \              0x20 0x20    
   \              0x20 0x20    
   \              0x20 0x20    
   \              0x20 0x20    
   \              0x20 0x00    

   Maximum stack usage in bytes:

   .cstack Function
   ------- --------
     672   listFiles
       672   -> __aeabi_memcpy4
       672   -> file_fread
       672   -> fs_findFile
       672   -> part_readBuf
       672 __aeabi_idiv
      88   mkdir
        88   -> dir_getFatFileName
        88   -> fat_giveEocMarker
        88   -> fat_setNextClusterAddress
        88   -> fs_clearCluster
        88   -> fs_clusterToSector
        88   -> fs_findFile
        88   -> fs_findFreeFile
        88   -> fs_getNextFreeCluster
        88   -> fs_giveFreeClusterHint
        88   -> memClr
        88   -> memCpy
        88   -> part_getSect
        88   -> part_relSect
      64   rmfile
        64   -> ex_getb16
        64   -> fat_unlinkClusterChain
        64   -> fs_findFile
        64   -> memClr
        64   -> part_getSect
        64   -> part_relSect


   Section sizes:

   Bytes  Function/Label
   -----  --------------
       4  ??DataTable1
       4  ??DataTable1_1
      12  ?_0
      12  ?_1
     468  listFiles
     560  mkdir
     224  rmfile

 
    24 bytes in section .rodata
 1 260 bytes in section .text
 
 1 260 bytes of CODE  memory
    24 bytes of CONST memory

Errors: none
Warnings: none
